%!PS-Adobe-3.0
%%BoundingBox: (atend)
%%Pages: (atend)
%%PageOrder: (atend)
%%DocumentFonts: (atend)
%%Creator: Frame 4.0
%%DocumentData: Clean7Bit
%%EndComments
%%BeginProlog
%
% Frame ps_prolog 4.0, for use with Frame 4.0 products
% This ps_prolog file is Copyright (c) 1986-1993 Frame Technology
% Corporation.  All rights reserved.  This ps_prolog file may be
% freely copied and distributed in conjunction with documents created
% using FrameMaker, FrameBuilder and FrameViewer as long as this 
% copyright notice is preserved.
%
% Frame products normally print colors as their true color on a color printer
% or as shades of gray, based on luminance, on a black-and white printer. The
% following flag, if set to True, forces all non-white colors to print as pure
% black. This has no effect on bitmap images.
/FMPrintAllColorsAsBlack             false def
%
% Frame products can either set their own line screens or use a printer's 
% default settings. Three flags below control this separately for no 
% separations, spot separations and process separations. If a flag
% is true, then the default printer settings will not be changed. If it is
% false, Frame products will use their own settings from a table based on
% the printer's resolution.
/FMUseDefaultNoSeparationScreen      true  def
/FMUseDefaultSpotSeparationScreen    true  def
/FMUseDefaultProcessSeparationScreen false def
%
% For any given PostScript printer resolution, Frame products have two sets of 
% screen angles and frequencies for printing process separations, which are 
% recomended by Adobe. The following variable chooses the higher frequencies
% when set to true or the lower frequencies when set to false. This is only
% effective if the appropriate FMUseDefault...SeparationScreen flag is false.
/FMUseHighFrequencyScreens true def
%
% PostScript Level 2 printers contain an "Accurate Screens" feature which can
% improve process separation rendering at the expense of compute time. This 
% flag is ignored by PostScript Level 1 printers.
/FMUseAcccurateScreens true def
%
% The following PostScript procedure defines the spot function that Frame
% products will use for process separations. You may un-comment-out one of
% the alternative functions below, or use your own.
%
% Dot function
/FMSpotFunction {abs exch abs 2 copy add 1 gt 
		{1 sub dup mul exch 1 sub dup mul add 1 sub }
		{dup mul exch dup mul add 1 exch sub }ifelse } def
%
% Line function
% /FMSpotFunction { pop } def
%
% Elipse function
% /FMSpotFunction { dup 5 mul 8 div mul exch dup mul exch add 
%		sqrt 1 exch sub } def
%
%
/FMversion (4.0) def 
/FMLevel1 /languagelevel where {pop languagelevel} {1} ifelse 2 lt def
/FMPColor
	FMLevel1 {
		false
		/colorimage where {pop pop true} if
	} {
		true
	} ifelse
def
/FrameDict 400 dict def 
systemdict /errordict known not {/errordict 10 dict def
		errordict /rangecheck {stop} put} if
% The readline in PS 23.0 doesn't recognize cr's as nl's on AppleTalk
FrameDict /tmprangecheck errordict /rangecheck get put 
errordict /rangecheck {FrameDict /bug true put} put 
FrameDict /bug false put 
mark 
% Some PS machines read past the CR, so keep the following 3 lines together!
currentfile 5 string readline
00
0000000000
cleartomark 
errordict /rangecheck FrameDict /tmprangecheck get put 
FrameDict /bug get { 
	/readline {
		/gstring exch def
		/gfile exch def
		/gindex 0 def
		{
			gfile read pop 
			dup 10 eq {exit} if 
			dup 13 eq {exit} if 
			gstring exch gindex exch put 
			/gindex gindex 1 add def 
		} loop
		pop 
		gstring 0 gindex getinterval true 
		} bind def
	} if
/FMshowpage /showpage load def
/FMquit /quit load def
/FMFAILURE { 
	dup = flush 
	FMshowpage 
	/Helvetica findfont 12 scalefont setfont
	72 200 moveto
	show FMshowpage 
	FMquit 
	} def 
/FMVERSION {
	FMversion ne {
		(Frame product version does not match ps_prolog!) FMFAILURE
		} if
	} def 
/FMBADEPSF { 
	(PostScript Lang. Ref. Man., 2nd Ed., H.2.4 says EPS must not call X              )
	dup dup (X) search pop exch pop exch pop length 
	4 -1 roll 
	putinterval 
	FMFAILURE
	} def
/FMLOCAL {
	FrameDict begin
	0 def 
	end 
	} def 
/concatprocs
	{
	/proc2 exch cvlit def/proc1 exch cvlit def/newproc proc1 length proc2 length add array def
	newproc 0 proc1 putinterval newproc proc1 length proc2 putinterval newproc cvx
}def
FrameDict begin 
/FMnone 0 def
/FMcyan 1 def
/FMmagenta 2 def
/FMyellow 3 def
/FMblack 4 def
/FMcustom 5 def
/FrameNegative false def 
/FrameSepIs FMnone def 
/FrameSepBlack 0 def
/FrameSepYellow 0 def
/FrameSepMagenta 0 def
/FrameSepCyan 0 def
/FrameSepRed 1 def
/FrameSepGreen 1 def
/FrameSepBlue 1 def
/FrameCurGray 1 def
/FrameCurPat null def
/FrameCurColors [ 0 0 0 1 0 0 0 ] def 
/FrameColorEpsilon .001 def	
/eqepsilon {		
	sub dup 0 lt {neg} if
	FrameColorEpsilon le
} bind def
/FrameCmpColorsCMYK { 
	2 copy 0 get exch 0 get eqepsilon {
		2 copy 1 get exch 1 get eqepsilon {
			2 copy 2 get exch 2 get eqepsilon {
				3 get exch 3 get eqepsilon
			} {pop pop false} ifelse
		}{pop pop false} ifelse
	} {pop pop false} ifelse
} bind def
/FrameCmpColorsRGB { 
	2 copy 4 get exch 0 get eqepsilon {
		2 copy 5 get exch 1 get eqepsilon {
			6 get exch 2 get eqepsilon
		}{pop pop false} ifelse
	} {pop pop false} ifelse
} bind def
/RGBtoCMYK { 
	1 exch sub 
	3 1 roll 
	1 exch sub 
	3 1 roll 
	1 exch sub 
	3 1 roll 
	3 copy 
	2 copy 
	le { pop } { exch pop } ifelse 
	2 copy 
	le { pop } { exch pop } ifelse 
	dup dup dup 
	6 1 roll 
	4 1 roll 
	7 1 roll 
	sub 
	6 1 roll 
	sub 
	5 1 roll 
	sub 
	4 1 roll 
} bind def
/CMYKtoRGB { 
	dup dup 4 -1 roll add 						  
	5 1 roll 3 -1 roll add 						  
	4 1 roll add 								  
	1 exch sub dup 0 lt {pop 0} if 3 1 roll 	  
	1 exch sub dup 0 lt {pop 0} if exch 	      
	1 exch sub dup 0 lt {pop 0} if exch	  		  
} bind def
/FrameSepInit {
	1.0 RealSetgray
} bind def
/FrameSetSepColor { 
	/FrameSepBlue exch def
	/FrameSepGreen exch def
	/FrameSepRed exch def
	/FrameSepBlack exch def
	/FrameSepYellow exch def
	/FrameSepMagenta exch def
	/FrameSepCyan exch def
	/FrameSepIs FMcustom def
	setCurrentScreen	
} bind def
/FrameSetCyan {
	/FrameSepBlue 1.0 def
	/FrameSepGreen 1.0 def
	/FrameSepRed 0.0 def
	/FrameSepBlack 0.0 def
	/FrameSepYellow 0.0 def
	/FrameSepMagenta 0.0 def
	/FrameSepCyan 1.0 def
	/FrameSepIs FMcyan def
	setCurrentScreen	
} bind def
 
/FrameSetMagenta {
	/FrameSepBlue 1.0 def
	/FrameSepGreen 0.0 def
	/FrameSepRed 1.0 def
	/FrameSepBlack 0.0 def
	/FrameSepYellow 0.0 def
	/FrameSepMagenta 1.0 def
	/FrameSepCyan 0.0 def
	/FrameSepIs FMmagenta def
	setCurrentScreen
} bind def
 
/FrameSetYellow {
	/FrameSepBlue 0.0 def
	/FrameSepGreen 1.0 def
	/FrameSepRed 1.0 def
	/FrameSepBlack 0.0 def
	/FrameSepYellow 1.0 def
	/FrameSepMagenta 0.0 def
	/FrameSepCyan 0.0 def
	/FrameSepIs FMyellow def
	setCurrentScreen
} bind def
 
/FrameSetBlack {
	/FrameSepBlue 0.0 def
	/FrameSepGreen 0.0 def
	/FrameSepRed 0.0 def
	/FrameSepBlack 1.0 def
	/FrameSepYellow 0.0 def
	/FrameSepMagenta 0.0 def
	/FrameSepCyan 0.0 def
	/FrameSepIs FMblack def
	setCurrentScreen
} bind def
 
/FrameNoSep { 
	/FrameSepIs FMnone def
	setCurrentScreen
} bind def
/FrameSetSepColors { 
	FrameDict begin
	[ exch 1 add 1 roll ]
	/FrameSepColors  
	exch def end
	} bind def
/FrameColorInSepListCMYK { 
	FrameSepColors {  
       		exch dup 3 -1 roll 
       		FrameCmpColorsCMYK 
       		{ pop true exit } if
    	} forall 
	dup true ne {pop false} if
	} bind def
/FrameColorInSepListRGB { 
	FrameSepColors {  
       		exch dup 3 -1 roll 
       		FrameCmpColorsRGB 
       		{ pop true exit } if
    	} forall 
	dup true ne {pop false} if
	} bind def
/RealSetgray /setgray load def
/RealSetrgbcolor /setrgbcolor load def
/RealSethsbcolor /sethsbcolor load def
end 
/setgray { 
	FrameDict begin
	FrameSepIs FMnone eq
		{ RealSetgray } 
		{ 
		FrameSepIs FMblack eq 
			{ RealSetgray } 
			{ FrameSepIs FMcustom eq 
			  FrameSepRed 0 eq and
			  FrameSepGreen 0 eq and
			  FrameSepBlue 0 eq and {
			  	RealSetgray
			  } {
				1 RealSetgray pop 
			  } ifelse
			} ifelse
		} ifelse
	end
} bind def
/setrgbcolor { 
	FrameDict begin
	FrameSepIs FMnone eq
	{  RealSetrgbcolor }
	{
		3 copy [ 4 1 roll ] 
		FrameColorInSepListRGB
		{
				FrameSepBlue eq exch 
			 	FrameSepGreen eq and exch 
			 	FrameSepRed eq and
			 	{ 0 } { 1 } ifelse
		}
		{
			FMPColor {
				RealSetrgbcolor
				currentcmykcolor
			} {
				RGBtoCMYK
			} ifelse
			FrameSepIs FMblack eq
			{1.0 exch sub 4 1 roll pop pop pop} {
			FrameSepIs FMyellow eq
			{pop 1.0 exch sub 3 1 roll pop pop} {
			FrameSepIs FMmagenta eq
			{pop pop 1.0 exch sub exch pop } {
			FrameSepIs FMcyan eq
			{pop pop pop 1.0 exch sub } 
			{pop pop pop pop 1} ifelse } ifelse } ifelse } ifelse 
		} ifelse
		RealSetgray
	} 
	ifelse
	end
} bind def
/sethsbcolor {
	FrameDict begin
	FrameSepIs FMnone eq 
	{ RealSethsbcolor } 
	{
		RealSethsbcolor 
		currentrgbcolor  
		setrgbcolor 
	} 
	ifelse
	end
} bind def
FrameDict begin
/setcmykcolor where {
	pop /RealSetcmykcolor /setcmykcolor load def
} {
	/RealSetcmykcolor {
		4 1 roll
		3 { 3 index add 0 max 1 min 1 exch sub 3 1 roll} repeat 
		setrgbcolor pop
	} bind def
} ifelse
userdict /setcmykcolor { 
		FrameDict begin
		FrameSepIs FMnone eq
		{ RealSetcmykcolor } 
		{
			4 copy [ 5 1 roll ]
			FrameColorInSepListCMYK
			{
				FrameSepBlack eq exch 
				FrameSepYellow eq and exch 
				FrameSepMagenta eq and exch 
				FrameSepCyan eq and 
				{ 0 } { 1 } ifelse
			}
			{
				FrameSepIs FMblack eq
				{1.0 exch sub 4 1 roll pop pop pop} {
				FrameSepIs FMyellow eq
				{pop 1.0 exch sub 3 1 roll pop pop} {
				FrameSepIs FMmagenta eq
				{pop pop 1.0 exch sub exch pop } {
				FrameSepIs FMcyan eq
				{pop pop pop 1.0 exch sub } 
				{pop pop pop pop 1} ifelse } ifelse } ifelse } ifelse 
			} ifelse
			RealSetgray
		}
		ifelse
		end
	} bind put
FMLevel1 not { 
	
	/patProcDict 5 dict dup begin
		<0f1e3c78f0e1c387> { 3 setlinewidth -1 -1 moveto 9 9 lineto stroke 
											4 -4 moveto 12 4 lineto stroke
											-4 4 moveto 4 12 lineto stroke} bind def
		<0f87c3e1f0783c1e> { 3 setlinewidth -1 9 moveto 9 -1 lineto stroke 
											-4 4 moveto 4 -4 lineto stroke
											4 12 moveto 12 4 lineto stroke} bind def
		<8142241818244281> { 1 setlinewidth -1 9 moveto 9 -1 lineto stroke
											-1 -1 moveto 9 9 lineto stroke } bind def
		<03060c183060c081> { 1 setlinewidth -1 -1 moveto 9 9 lineto stroke 
											4 -4 moveto 12 4 lineto stroke
											-4 4 moveto 4 12 lineto stroke} bind def
		<8040201008040201> { 1 setlinewidth -1 9 moveto 9 -1 lineto stroke 
											-4 4 moveto 4 -4 lineto stroke
											4 12 moveto 12 4 lineto stroke} bind def
	end def
	/patDict 15 dict dup begin
		/PatternType 1 def		
		/PaintType 2 def		
		/TilingType 3 def		
		/BBox [ 0 0 8 8 ] def 	
		/XStep 8 def			
		/YStep 8 def			
		/PaintProc {
			begin
			patProcDict bstring known {
				patProcDict bstring get exec
			} {
				8 8 true [1 0 0 -1 0 8] bstring imagemask
			} ifelse
			end
		} bind def
	end def
} if
/combineColor {
    FrameSepIs FMnone eq
	{
		graymode FMLevel1 or not {
			
			[/Pattern [/DeviceCMYK]] setcolorspace
			FrameCurColors 0 4 getinterval aload pop FrameCurPat setcolor
		} {
			FrameCurColors 3 get 1.0 ge {
				FrameCurGray RealSetgray
			} {
				FMPColor graymode and {
					0 1 3 { 
						FrameCurColors exch get
						1 FrameCurGray sub mul
					} for
					RealSetcmykcolor
				} {
					4 1 6 {
						FrameCurColors exch get
						graymode {
							1 exch sub 1 FrameCurGray sub mul 1 exch sub
						} {
							1.0 lt {FrameCurGray} {1} ifelse
						} ifelse
					} for
					RealSetrgbcolor
				} ifelse
			} ifelse
		} ifelse
	} { 
		FrameCurColors 0 4 getinterval aload
		FrameColorInSepListCMYK {
			FrameSepBlack eq exch 
			FrameSepYellow eq and exch 
			FrameSepMagenta eq and exch 
			FrameSepCyan eq and
			FrameSepIs FMcustom eq and
			{ FrameCurGray } { 1 } ifelse
		} {
			FrameSepIs FMblack eq
			{FrameCurGray 1.0 exch sub mul 1.0 exch sub 4 1 roll pop pop pop} {
			FrameSepIs FMyellow eq
			{pop FrameCurGray 1.0 exch sub mul 1.0 exch sub 3 1 roll pop pop} {
			FrameSepIs FMmagenta eq
			{pop pop FrameCurGray 1.0 exch sub mul 1.0 exch sub exch pop } {
			FrameSepIs FMcyan eq
			{pop pop pop FrameCurGray 1.0 exch sub mul 1.0 exch sub } 
			{pop pop pop pop 1} ifelse } ifelse } ifelse } ifelse 
		} ifelse
		graymode FMLevel1 or not {
			
			[/Pattern [/DeviceGray]] setcolorspace
			FrameCurPat setcolor
		} { 
			graymode not FMLevel1 and {
				
				dup 1 lt {pop FrameCurGray} if
			} if
			RealSetgray
		} ifelse
	} ifelse
} bind def
/savematrix {
	orgmatrix currentmatrix pop
	} bind def
/restorematrix {
	orgmatrix setmatrix
	} bind def
/dmatrix matrix def
/dpi    72 0 dmatrix defaultmatrix dtransform
    dup mul exch   dup mul add   sqrt def
	
/freq dpi dup 72 div round dup 0 eq {pop 1} if 8 mul div def
/sangle 1 0 dmatrix defaultmatrix dtransform exch atan def
/dpiranges   [  2540    2400    1693     1270    1200     635      600      0      ] def
/CMLowFreqs  [ 100.402  94.8683 89.2289 100.402  94.8683  66.9349  63.2456 47.4342 ] def
/YLowFreqs   [  95.25   90.0    84.65    95.25   90.0     70.5556  66.6667 50.0    ] def
/KLowFreqs   [  89.8026 84.8528 79.8088  89.8026 84.8528  74.8355  70.7107 53.033  ] def
/CLowAngles  [  71.5651 71.5651 71.5651 71.5651  71.5651  71.5651  71.5651 71.5651 ] def
/MLowAngles  [  18.4349 18.4349 18.4349 18.4349  18.4349  18.4349  18.4349 18.4349 ] def
/YLowTDot    [  true    true    false    true    true     false    false   false   ] def
/CMHighFreqs [ 133.87  126.491 133.843  108.503 102.523  100.402   94.8683 63.2456 ] def
/YHighFreqs  [ 127.0   120.0   126.975  115.455 109.091   95.25    90.0    60.0    ] def
/KHighFreqs  [ 119.737 113.137 119.713  128.289 121.218   89.8026  84.8528 63.6395 ] def
/CHighAngles [  71.5651 71.5651 71.5651  70.0169 70.0169  71.5651  71.5651 71.5651 ] def
/MHighAngles [  18.4349 18.4349 18.4349  19.9831 19.9831  18.4349  18.4349 18.4349 ] def
/YHighTDot   [  false   false   true     false   false    true     true    false   ] def
/PatFreq     [	10.5833 10.0     9.4055  10.5833 10.0	  10.5833  10.0	   9.375   ] def
/screenIndex {
	0 1 dpiranges length 1 sub { dup dpiranges exch get 1 sub dpi le {exit} {pop} ifelse } for
} bind def
/getCyanScreen {
	FMUseHighFrequencyScreens { CHighAngles CMHighFreqs} {CLowAngles CMLowFreqs} ifelse
		screenIndex dup 3 1 roll get 3 1 roll get /FMSpotFunction load
} bind def
/getMagentaScreen {
	FMUseHighFrequencyScreens { MHighAngles CMHighFreqs } {MLowAngles CMLowFreqs} ifelse
		screenIndex dup 3 1 roll get 3 1 roll get /FMSpotFunction load
} bind def
/getYellowScreen {
	FMUseHighFrequencyScreens { YHighTDot YHighFreqs} { YLowTDot YLowFreqs } ifelse
		screenIndex dup 3 1 roll get 3 1 roll get { 3 div
			{2 { 1 add 2 div 3 mul dup floor sub 2 mul 1 sub exch} repeat
			FMSpotFunction } } {/FMSpotFunction load } ifelse
			0.0 exch
} bind def
/getBlackScreen  {
	FMUseHighFrequencyScreens { KHighFreqs } { KLowFreqs } ifelse
		screenIndex get 45.0 /FMSpotFunction load 
} bind def
/getSpotScreen {
	getBlackScreen
} bind def
/getCompositeScreen {
	getBlackScreen
} bind def
/FMSetScreen 
	FMLevel1 { /setscreen load 
	}{ {
		8 dict begin
		/HalftoneType 1 def
		/SpotFunction exch def
		/Angle exch def
		/Frequency exch def
		/AccurateScreens FMUseAcccurateScreens def
		currentdict end sethalftone
	} bind } ifelse
def
/setDefaultScreen {
	FMPColor {
		orgrxfer cvx orggxfer cvx orgbxfer cvx orgxfer cvx setcolortransfer
	}
	{
		orgxfer cvx settransfer
	} ifelse
	orgfreq organgle orgproc cvx setscreen
} bind def
/setCurrentScreen {
	FrameSepIs FMnone eq {
		FMUseDefaultNoSeparationScreen {
			setDefaultScreen
		} {
			getCompositeScreen FMSetScreen
		} ifelse
	} {
		FrameSepIs FMcustom eq {
			FMUseDefaultSpotSeparationScreen {
				setDefaultScreen
			} {
				getSpotScreen FMSetScreen
			} ifelse
		} {
			FMUseDefaultProcessSeparationScreen {
				setDefaultScreen
			} {
				FrameSepIs FMcyan eq {
					getCyanScreen FMSetScreen
				} {
					FrameSepIs FMmagenta eq {
						getMagentaScreen FMSetScreen
					} {
						FrameSepIs FMyellow eq {
							getYellowScreen FMSetScreen
						} {
							getBlackScreen FMSetScreen
						} ifelse
					} ifelse
				} ifelse
			} ifelse
		} ifelse
	} ifelse 
} bind def
end
	/gstring FMLOCAL
	/gfile FMLOCAL
	/gindex FMLOCAL
	/orgrxfer FMLOCAL
	/orggxfer FMLOCAL
	/orgbxfer FMLOCAL
	/orgxfer FMLOCAL
	/orgproc FMLOCAL
	/orgrproc FMLOCAL
	/orggproc FMLOCAL
	/orgbproc FMLOCAL
	/organgle FMLOCAL
	/orgrangle FMLOCAL
	/orggangle FMLOCAL
	/orgbangle FMLOCAL
	/orgfreq FMLOCAL
	/orgrfreq FMLOCAL
	/orggfreq FMLOCAL
	/orgbfreq FMLOCAL
	/yscale FMLOCAL
	/xscale FMLOCAL
	/edown FMLOCAL
	/manualfeed FMLOCAL
	/paperheight FMLOCAL
	/paperwidth FMLOCAL
/FMDOCUMENT { 
	array /FMfonts exch def 
	/#copies exch def
	FrameDict begin
	0 ne /manualfeed exch def
	/paperheight exch def
	/paperwidth exch def
	0 ne /FrameNegative exch def 
	0 ne /edown exch def 
	/yscale exch def
	/xscale exch def
	FMLevel1 {
		manualfeed {setmanualfeed} if
		/FMdicttop countdictstack 1 add def 
		/FMoptop count def 
		setpapername 
		manualfeed {true} {papersize} ifelse 
		{manualpapersize} {false} ifelse 
		{desperatepapersize} {false} ifelse 
		{ (Can't select requested paper size for Frame print job!) FMFAILURE } if
		count -1 FMoptop {pop pop} for
		countdictstack -1 FMdicttop {pop end} for 
		}
		{{1 dict dup /PageSize [paperwidth paperheight]put setpagedevice}stopped
		{ (Can't select requested paper size for Frame print job!) FMFAILURE } if
		 {1 dict dup /ManualFeed manualfeed put setpagedevice } stopped pop }
	ifelse 
	
	FMPColor {
		currentcolorscreen
			cvlit /orgproc exch def
				  /organgle exch def 
				  /orgfreq exch def
			cvlit /orgbproc exch def
				  /orgbangle exch def 
				  /orgbfreq exch def
			cvlit /orggproc exch def
				  /orggangle exch def 
				  /orggfreq exch def
			cvlit /orgrproc exch def
				  /orgrangle exch def 
				  /orgrfreq exch def
			currentcolortransfer 
			FrameNegative {
				1 1 4 { 
					pop { 1 exch sub } concatprocs 4 1 roll
				} for
				4 copy
				setcolortransfer
			} if
			cvlit /orgxfer exch def
			cvlit /orgbxfer exch def
			cvlit /orggxfer exch def
			cvlit /orgrxfer exch def
	} {
		currentscreen 
			cvlit /orgproc exch def
				  /organgle exch def 
				  /orgfreq exch def
				  
		currenttransfer 
		FrameNegative {
			{ 1 exch sub } concatprocs
			dup settransfer
		} if 
		cvlit /orgxfer exch def
	} ifelse
	end 
} def 
/pagesave FMLOCAL
/orgmatrix FMLOCAL
/landscape FMLOCAL
/pwid FMLOCAL
/FMBEGINPAGE { 
	FrameDict begin 
	/pagesave save def
	3.86 setmiterlimit
	/landscape exch 0 ne def
	landscape { 
		90 rotate 0 exch dup /pwid exch def neg translate pop 
	}{
		pop /pwid exch def
	} ifelse
	edown { [-1 0 0 1 pwid 0] concat } if
	0 0 moveto paperwidth 0 lineto paperwidth paperheight lineto 
	0 paperheight lineto 0 0 lineto 1 setgray fill
	xscale yscale scale
	/orgmatrix matrix def
	gsave 
} def 
/FMENDPAGE {
	grestore 
	pagesave restore
	end 
	showpage
	} def 
/FMFONTDEFINE { 
	FrameDict begin
	findfont 
	ReEncode 
	1 index exch 
	definefont 
	FMfonts 3 1 roll 
	put
	end 
	} def 
/FMFILLS {
	FrameDict begin dup
	array /fillvals exch def
	dict /patCache exch def
	end 
	} def 
/FMFILL {
	FrameDict begin
	 fillvals 3 1 roll put
	end 
	} def 
/FMNORMALIZEGRAPHICS { 
	newpath
	0.0 0.0 moveto
	1 setlinewidth
	0 setlinecap
	0 0 0 sethsbcolor
	0 setgray 
	} bind def
	/fx FMLOCAL
	/fy FMLOCAL
	/fh FMLOCAL
	/fw FMLOCAL
	/llx FMLOCAL
	/lly FMLOCAL
	/urx FMLOCAL
	/ury FMLOCAL
/FMBEGINEPSF { 
	end 
	/FMEPSF save def 
	/showpage {} def 
% See Adobe's "PostScript Language Reference Manual, 2nd Edition", page 714.
% "...the following operators MUST NOT be used in an EPS file:" (emphasis ours)
	/banddevice {(banddevice) FMBADEPSF} def
	/clear {(clear) FMBADEPSF} def
	/cleardictstack {(cleardictstack) FMBADEPSF} def 
	/copypage {(copypage) FMBADEPSF} def
	/erasepage {(erasepage) FMBADEPSF} def
	/exitserver {(exitserver) FMBADEPSF} def
	/framedevice {(framedevice) FMBADEPSF} def
	/grestoreall {(grestoreall) FMBADEPSF} def
	/initclip {(initclip) FMBADEPSF} def
	/initgraphics {(initgraphics) FMBADEPSF} def
	/initmatrix {(initmatrix) FMBADEPSF} def
	/quit {(quit) FMBADEPSF} def
	/renderbands {(renderbands) FMBADEPSF} def
	/setglobal {(setglobal) FMBADEPSF} def
	/setpagedevice {(setpagedevice) FMBADEPSF} def
	/setshared {(setshared) FMBADEPSF} def
	/startjob {(startjob) FMBADEPSF} def
	/lettertray {(lettertray) FMBADEPSF} def
	/letter {(letter) FMBADEPSF} def
	/lettersmall {(lettersmall) FMBADEPSF} def
	/11x17tray {(11x17tray) FMBADEPSF} def
	/11x17 {(11x17) FMBADEPSF} def
	/ledgertray {(ledgertray) FMBADEPSF} def
	/ledger {(ledger) FMBADEPSF} def
	/legaltray {(legaltray) FMBADEPSF} def
	/legal {(legal) FMBADEPSF} def
	/statementtray {(statementtray) FMBADEPSF} def
	/statement {(statement) FMBADEPSF} def
	/executivetray {(executivetray) FMBADEPSF} def
	/executive {(executive) FMBADEPSF} def
	/a3tray {(a3tray) FMBADEPSF} def
	/a3 {(a3) FMBADEPSF} def
	/a4tray {(a4tray) FMBADEPSF} def
	/a4 {(a4) FMBADEPSF} def
	/a4small {(a4small) FMBADEPSF} def
	/b4tray {(b4tray) FMBADEPSF} def
	/b4 {(b4) FMBADEPSF} def
	/b5tray {(b5tray) FMBADEPSF} def
	/b5 {(b5) FMBADEPSF} def
	FMNORMALIZEGRAPHICS 
	[/fy /fx /fh /fw /ury /urx /lly /llx] {exch def} forall 
	fx fw 2 div add fy fh 2 div add  translate
	rotate
	fw 2 div neg fh 2 div neg translate
	fw urx llx sub div fh ury lly sub div scale 
	llx neg lly neg translate 
	/FMdicttop countdictstack 1 add def 
	/FMoptop count def 
	} bind def
/FMENDEPSF {
	count -1 FMoptop {pop pop} for 
	countdictstack -1 FMdicttop {pop end} for 
	FMEPSF restore
	FrameDict begin 
	} bind def
FrameDict begin 
/setmanualfeed {
%%BeginFeature *ManualFeed True
	 statusdict /manualfeed true put
%%EndFeature
	} bind def
/max {2 copy lt {exch} if pop} bind def
/min {2 copy gt {exch} if pop} bind def
/inch {72 mul} def
/pagedimen { 
	paperheight sub abs 16 lt exch 
	paperwidth sub abs 16 lt and
	{/papername exch def} {pop} ifelse
	} bind def
	/papersizedict FMLOCAL
/setpapername { 
	/papersizedict 14 dict def 
	papersizedict begin
	/papername /unknown def 
		/Letter 8.5 inch 11.0 inch pagedimen
		/LetterSmall 7.68 inch 10.16 inch pagedimen
		/Tabloid 11.0 inch 17.0 inch pagedimen
		/Ledger 17.0 inch 11.0 inch pagedimen
		/Legal 8.5 inch 14.0 inch pagedimen
		/Statement 5.5 inch 8.5 inch pagedimen
		/Executive 7.5 inch 10.0 inch pagedimen
		/A3 11.69 inch 16.5 inch pagedimen
		/A4 8.26 inch 11.69 inch pagedimen
		/A4Small 7.47 inch 10.85 inch pagedimen
		/B4 10.125 inch 14.33 inch pagedimen
		/B5 7.16 inch 10.125 inch pagedimen
	end
	} bind def
/papersize {
	papersizedict begin
		/Letter {lettertray letter} def
		/LetterSmall {lettertray lettersmall} def
		/Tabloid {11x17tray 11x17} def
		/Ledger {ledgertray ledger} def
		/Legal {legaltray legal} def
		/Statement {statementtray statement} def
		/Executive {executivetray executive} def
		/A3 {a3tray a3} def
		/A4 {a4tray a4} def
		/A4Small {a4tray a4small} def
		/B4 {b4tray b4} def
		/B5 {b5tray b5} def
		/unknown {unknown} def
	papersizedict dup papername known {papername} {/unknown} ifelse get
	end
	statusdict begin stopped end 
	} bind def
/manualpapersize {
	papersizedict begin
		/Letter {letter} def
		/LetterSmall {lettersmall} def
		/Tabloid {11x17} def
		/Ledger {ledger} def
		/Legal {legal} def
		/Statement {statement} def
		/Executive {executive} def
		/A3 {a3} def
		/A4 {a4} def
		/A4Small {a4small} def
		/B4 {b4} def
		/B5 {b5} def
		/unknown {unknown} def
	papersizedict dup papername known {papername} {/unknown} ifelse get
	end
	stopped 
	} bind def
/desperatepapersize {
	statusdict /setpageparams known
		{
		paperwidth paperheight 0 1 
		statusdict begin
		{setpageparams} stopped 
		end
		} {true} ifelse 
	} bind def
/DiacriticEncoding [
/.notdef /.notdef /.notdef /.notdef /.notdef /.notdef /.notdef
/.notdef /.notdef /.notdef /.notdef /.notdef /.notdef /.notdef
/.notdef /.notdef /.notdef /.notdef /.notdef /.notdef /.notdef
/.notdef /.notdef /.notdef /.notdef /.notdef /.notdef /.notdef
/.notdef /.notdef /.notdef /.notdef /space /exclam /quotedbl
/numbersign /dollar /percent /ampersand /quotesingle /parenleft
/parenright /asterisk /plus /comma /hyphen /period /slash /zero /one
/two /three /four /five /six /seven /eight /nine /colon /semicolon
/less /equal /greater /question /at /A /B /C /D /E /F /G /H /I /J /K
/L /M /N /O /P /Q /R /S /T /U /V /W /X /Y /Z /bracketleft /backslash
/bracketright /asciicircum /underscore /grave /a /b /c /d /e /f /g /h
/i /j /k /l /m /n /o /p /q /r /s /t /u /v /w /x /y /z /braceleft /bar
/braceright /asciitilde /.notdef /Adieresis /Aring /Ccedilla /Eacute
/Ntilde /Odieresis /Udieresis /aacute /agrave /acircumflex /adieresis
/atilde /aring /ccedilla /eacute /egrave /ecircumflex /edieresis
/iacute /igrave /icircumflex /idieresis /ntilde /oacute /ograve
/ocircumflex /odieresis /otilde /uacute /ugrave /ucircumflex
/udieresis /dagger /.notdef /cent /sterling /section /bullet
/paragraph /germandbls /registered /copyright /trademark /acute
/dieresis /.notdef /AE /Oslash /.notdef /.notdef /.notdef /.notdef
/yen /.notdef /.notdef /.notdef /.notdef /.notdef /.notdef
/ordfeminine /ordmasculine /.notdef /ae /oslash /questiondown
/exclamdown /logicalnot /.notdef /florin /.notdef /.notdef
/guillemotleft /guillemotright /ellipsis /.notdef /Agrave /Atilde
/Otilde /OE /oe /endash /emdash /quotedblleft /quotedblright
/quoteleft /quoteright /.notdef /.notdef /ydieresis /Ydieresis
/fraction /currency /guilsinglleft /guilsinglright /fi /fl /daggerdbl
/periodcentered /quotesinglbase /quotedblbase /perthousand
/Acircumflex /Ecircumflex /Aacute /Edieresis /Egrave /Iacute
/Icircumflex /Idieresis /Igrave /Oacute /Ocircumflex /.notdef /Ograve
/Uacute /Ucircumflex /Ugrave /dotlessi /circumflex /tilde /macron
/breve /dotaccent /ring /cedilla /hungarumlaut /ogonek /caron
] def
/ReEncode { 
	dup 
	length 
	dict begin 
	{
	1 index /FID ne 
		{def} 
		{pop pop} ifelse 
	} forall 
	0 eq {/Encoding DiacriticEncoding def} if 
	currentdict 
	end 
	} bind def
FMPColor 
	
	{
	/BEGINBITMAPCOLOR { 
		BITMAPCOLOR} def
	/BEGINBITMAPCOLORc { 
		BITMAPCOLORc} def
	/BEGINBITMAPTRUECOLOR { 
		BITMAPTRUECOLOR } def
	/BEGINBITMAPTRUECOLORc { 
		BITMAPTRUECOLORc } def
	}
	
	{
	/BEGINBITMAPCOLOR { 
		BITMAPGRAY} def
	/BEGINBITMAPCOLORc { 
		BITMAPGRAYc} def
	/BEGINBITMAPTRUECOLOR { 
		BITMAPTRUEGRAY } def
	/BEGINBITMAPTRUECOLORc { 
		BITMAPTRUEGRAYc } def
	}
ifelse
/K { 
	FMPrintAllColorsAsBlack {
		dup 1 eq 2 index 1 eq and 3 index 1 eq and not
			{7 {pop} repeat 0 0 0 1 0 0 0} if
	} if 
	FrameCurColors astore 
	pop combineColor
} bind def
/graymode true def
	/bwidth FMLOCAL
	/bpside FMLOCAL
	/bstring FMLOCAL
	/onbits FMLOCAL
	/offbits FMLOCAL
	/xindex FMLOCAL
	/yindex FMLOCAL
	/x FMLOCAL
	/y FMLOCAL
/setPatternMode {
	FMLevel1 {
		/bwidth  exch def
		/bpside  exch def
		/bstring exch def
		/onbits 0 def  /offbits 0 def
		freq sangle landscape {90 add} if 
			{/y exch def
			 /x exch def
			 /xindex x 1 add 2 div bpside mul cvi def
			 /yindex y 1 add 2 div bpside mul cvi def
			 bstring yindex bwidth mul xindex 8 idiv add get
			 1 7 xindex 8 mod sub bitshift and 0 ne FrameNegative {not} if
			 {/onbits  onbits  1 add def 1}
			 {/offbits offbits 1 add def 0}
			 ifelse
			}
			setscreen
		offbits offbits onbits add div FrameNegative {1.0 exch sub} if
		/FrameCurGray exch def
	} { 
		pop pop
		dup patCache exch known {
			patCache exch get
		} { 
			dup
			patDict /bstring 3 -1 roll put
			patDict 
			9 PatFreq screenIndex get div dup matrix scale
			makepattern
			dup 
			patCache 4 -1 roll 3 -1 roll put
		} ifelse
		/FrameCurGray 0 def
		/FrameCurPat exch def
	} ifelse
	/graymode false def
	combineColor
} bind def
/setGrayScaleMode {
	graymode not {
		/graymode true def
		FMLevel1 {
			setCurrentScreen
		} if
	} if
	/FrameCurGray exch def
	combineColor
} bind def
/normalize {
	transform round exch round exch itransform
	} bind def
/dnormalize {
	dtransform round exch round exch idtransform
	} bind def
/lnormalize { 
	0 dtransform exch cvi 2 idiv 2 mul 1 add exch idtransform pop
	} bind def
/H { 
	lnormalize setlinewidth
	} bind def
/Z {
	setlinecap
	} bind def
	
/PFill {
	graymode FMLevel1 or not {
		gsave 1 setgray eofill grestore
	} if
} bind def
/PStroke {
	graymode FMLevel1 or not {
		gsave 1 setgray stroke grestore
	} if
	stroke
} bind def
	/fillvals FMLOCAL
/X { 
	fillvals exch get
	dup type /stringtype eq
	{8 1 setPatternMode} 
	{setGrayScaleMode}
	ifelse
	} bind def
/V { 
	PFill gsave eofill grestore
	} bind def
/Vclip {
	clip
	} bind def
/Vstrk {
	currentlinewidth exch setlinewidth PStroke setlinewidth
	} bind def
/N { 
	PStroke
	} bind def
/Nclip {
	strokepath clip newpath
	} bind def
/Nstrk {
	currentlinewidth exch setlinewidth PStroke setlinewidth
	} bind def
/M {newpath moveto} bind def
/E {lineto} bind def
/D {curveto} bind def
/O {closepath} bind def
	/n FMLOCAL
/L { 
 	/n exch def
	newpath
	normalize
	moveto 
	2 1 n {pop normalize lineto} for
	} bind def
/Y { 
	L 
	closepath
	} bind def
	/x1 FMLOCAL
	/x2 FMLOCAL
	/y1 FMLOCAL
	/y2 FMLOCAL
/R { 
	/y2 exch def
	/x2 exch def
	/y1 exch def
	/x1 exch def
	x1 y1
	x2 y1
	x2 y2
	x1 y2
	4 Y 
	} bind def
	/rad FMLOCAL
/rarc 
	{rad 
	 arcto
	} bind def
/RR { 
	/rad exch def
	normalize
	/y2 exch def
	/x2 exch def
	normalize
	/y1 exch def
	/x1 exch def
	mark
	newpath
	{
	x1 y1 rad add moveto
	x1 y2 x2 y2 rarc
	x2 y2 x2 y1 rarc
	x2 y1 x1 y1 rarc
	x1 y1 x1 y2 rarc
	closepath
	} stopped {x1 y1 x2 y2 R} if 
	cleartomark
	} bind def
/RRR { 
	/rad exch def
	normalize /y4 exch def /x4 exch def
	normalize /y3 exch def /x3 exch def
	normalize /y2 exch def /x2 exch def
	normalize /y1 exch def /x1 exch def
	newpath
	normalize moveto 
	mark
	{
	x2 y2 x3 y3 rarc
	x3 y3 x4 y4 rarc
	x4 y4 x1 y1 rarc
	x1 y1 x2 y2 rarc
	closepath
	} stopped
	 {x1 y1 x2 y2 x3 y3 x4 y4 newpath moveto lineto lineto lineto closepath} if
	cleartomark
	} bind def
/C { 
	grestore
	gsave
	R 
	clip
	setCurrentScreen
} bind def
/CP { 
	grestore
	gsave
	Y 
	clip
	setCurrentScreen
} bind def
	/FMpointsize FMLOCAL
/F { 
	FMfonts exch get
	FMpointsize scalefont
	setfont
	} bind def
/Q { 
	/FMpointsize exch def
	F 
	} bind def
/T { 
	moveto show
	} bind def
/RF { 
	rotate
	0 ne {-1 1 scale} if
	} bind def
/TF { 
	gsave
	moveto 
	RF
	show
	grestore
	} bind def
/P { 
	moveto
	0 32 3 2 roll widthshow
	} bind def
/PF { 
	gsave
	moveto 
	RF
	0 32 3 2 roll widthshow
	grestore
	} bind def
/S { 
	moveto
	0 exch ashow
	} bind def
/SF { 
	gsave
	moveto
	RF
	0 exch ashow
	grestore
	} bind def
/B { 
	moveto
	0 32 4 2 roll 0 exch awidthshow
	} bind def
/BF { 
	gsave
	moveto
	RF
	0 32 4 2 roll 0 exch awidthshow
	grestore
	} bind def
/G { 
	gsave
	newpath
	normalize translate 0.0 0.0 moveto 
	dnormalize scale 
	0.0 0.0 1.0 5 3 roll arc 
	closepath 
	PFill fill
	grestore
	} bind def
/Gstrk {
	savematrix
    newpath
    2 index 2 div add exch 3 index 2 div sub exch 
    normalize 2 index 2 div sub exch 3 index 2 div add exch 
    translate
    scale 
    0.0 0.0 1.0 5 3 roll arc 
    restorematrix
    currentlinewidth exch setlinewidth PStroke setlinewidth
    } bind def
/Gclip { 
	newpath
	savematrix
	normalize translate 0.0 0.0 moveto 
	dnormalize scale 
	0.0 0.0 1.0 5 3 roll arc 
	closepath 
	clip newpath
	restorematrix
	} bind def
/GG { 
	gsave
	newpath
	normalize translate 0.0 0.0 moveto 
	rotate 
	dnormalize scale 
	0.0 0.0 1.0 5 3 roll arc 
	closepath
	PFill
	fill
	grestore
	} bind def
/GGclip { 
	savematrix
	newpath
    normalize translate 0.0 0.0 moveto 
    rotate 
    dnormalize scale 
    0.0 0.0 1.0 5 3 roll arc 
    closepath
	clip newpath
	restorematrix
	} bind def
/GGstrk { 
	savematrix
    newpath
    normalize translate 0.0 0.0 moveto 
    rotate 
    dnormalize scale 
    0.0 0.0 1.0 5 3 roll arc 
    closepath 
	restorematrix
    currentlinewidth exch setlinewidth PStroke setlinewidth
	} bind def
/A { 
	gsave
	savematrix
	newpath
	2 index 2 div add exch 3 index 2 div sub exch 
	normalize 2 index 2 div sub exch 3 index 2 div add exch 
	translate 
	scale 
	0.0 0.0 1.0 5 3 roll arc 
	restorematrix
	PStroke
	grestore
	} bind def
/Aclip {
	newpath
	savematrix
	normalize translate 0.0 0.0 moveto 
	dnormalize scale 
	0.0 0.0 1.0 5 3 roll arc 
	closepath 
	strokepath clip newpath
	restorematrix
} bind def
/Astrk {
	Gstrk
} bind def
/AA { 
	gsave
	savematrix
	newpath
	
	3 index 2 div add exch 4 index 2 div sub exch 
	
	normalize 3 index 2 div sub exch 4 index 2 div add exch
	translate 
	rotate 
	scale 
	0.0 0.0 1.0 5 3 roll arc 
	restorematrix
	PStroke
	grestore
	} bind def
/AAclip {
	savematrix
	newpath
    normalize translate 0.0 0.0 moveto 
    rotate 
    dnormalize scale 
    0.0 0.0 1.0 5 3 roll arc 
    closepath
	strokepath clip newpath
	restorematrix
} bind def
/AAstrk {
	GGstrk
} bind def
	/x FMLOCAL
	/y FMLOCAL
	/w FMLOCAL
	/h FMLOCAL
	/xx FMLOCAL
	/yy FMLOCAL
	/ww FMLOCAL
	/hh FMLOCAL
	/FMsaveobject FMLOCAL
	/FMoptop FMLOCAL
	/FMdicttop FMLOCAL
/BEGINPRINTCODE { 
	/FMdicttop countdictstack 1 add def 
	/FMoptop count 7 sub def 
	/FMsaveobject save def
	userdict begin 
	/showpage {} def 
	FMNORMALIZEGRAPHICS 
	3 index neg 3 index neg translate
	} bind def
/ENDPRINTCODE {
	count -1 FMoptop {pop pop} for 
	countdictstack -1 FMdicttop {pop end} for 
	FMsaveobject restore 
	} bind def
/gn { 
	0 
	{	46 mul 
		cf read pop 
		32 sub 
		dup 46 lt {exit} if 
		46 sub add 
		} loop
	add 
	} bind def
	/str FMLOCAL
/cfs { 
	/str sl string def 
	0 1 sl 1 sub {str exch val put} for 
	str def 
	} bind def
/ic [ 
	0 0 0 0 0 0 0 0 0 0 0 0 0 0 0 0223
	0 0 0 0 0 0 0 0 0 0 0 0 0 0 0 0223
	0
	{0 hx} {1 hx} {2 hx} {3 hx} {4 hx} {5 hx} {6 hx} {7 hx} {8 hx} {9 hx}
	{10 hx} {11 hx} {12 hx} {13 hx} {14 hx} {15 hx} {16 hx} {17 hx} {18 hx}
	{19 hx} {gn hx} {0} {1} {2} {3} {4} {5} {6} {7} {8} {9} {10} {11} {12}
	{13} {14} {15} {16} {17} {18} {19} {gn} {0 wh} {1 wh} {2 wh} {3 wh}
	{4 wh} {5 wh} {6 wh} {7 wh} {8 wh} {9 wh} {10 wh} {11 wh} {12 wh}
	{13 wh} {14 wh} {gn wh} {0 bl} {1 bl} {2 bl} {3 bl} {4 bl} {5 bl} {6 bl}
	{7 bl} {8 bl} {9 bl} {10 bl} {11 bl} {12 bl} {13 bl} {14 bl} {gn bl}
	{0 fl} {1 fl} {2 fl} {3 fl} {4 fl} {5 fl} {6 fl} {7 fl} {8 fl} {9 fl}
	{10 fl} {11 fl} {12 fl} {13 fl} {14 fl} {gn fl}
	] def
	/sl FMLOCAL
	/val FMLOCAL
	/ws FMLOCAL
	/im FMLOCAL
	/bs FMLOCAL
	/cs FMLOCAL
	/len FMLOCAL
	/pos FMLOCAL
/ms { 
	/sl exch def 
	/val 255 def 
	/ws cfs 
	/im cfs 
	/val 0 def 
	/bs cfs 
	/cs cfs 
	} bind def
400 ms 
/ip { 
	is 
	0 
	cf cs readline pop 
	{	ic exch get exec 
		add 
		} forall 
	pop 
	
	} bind def
/rip { 
	   
	  
	  bis ris copy pop 
      is
      0
      cf cs readline pop 
      {       ic exch get exec 
              add 
              } forall 
	  pop pop 
	  ris gis copy pop 
	  dup is exch 
	  
      cf cs readline pop 
      {       ic exch get exec 
              add 
              } forall 
	  pop pop
	  gis bis copy pop 
	  dup add is exch 
	  
      cf cs readline pop 
      {       ic exch get exec 
              add 
              } forall 
      pop 
      
      } bind def
/wh { 
	/len exch def 
	/pos exch def 
	ws 0 len getinterval im pos len getinterval copy pop
	pos len 
	} bind def
/bl { 
	/len exch def 
	/pos exch def 
	bs 0 len getinterval im pos len getinterval copy pop
	pos len 
	} bind def
/s1 1 string def
/fl { 
	/len exch def 
	/pos exch def 
	/val cf s1 readhexstring pop 0 get def
	pos 1 pos len add 1 sub {im exch val put} for
	pos len 
	} bind def
/hx { 
	3 copy getinterval 
	cf exch readhexstring pop pop 
	} bind def
	/h FMLOCAL
	/w FMLOCAL
	/d FMLOCAL
	/lb FMLOCAL
	/bitmapsave FMLOCAL
	/is FMLOCAL
	/cf FMLOCAL
/wbytes { 
      dup dup
      24 eq { pop pop 3 mul }
      { 8 eq {pop} {1 eq {7 add 8 idiv} {3 add 4 idiv} ifelse} ifelse } ifelse
	} bind def
/BEGINBITMAPBWc { 
	1 {} COMMONBITMAPc
	} bind def
/BEGINBITMAPGRAYc { 
	8 {} COMMONBITMAPc
	} bind def
/BEGINBITMAP2BITc { 
	2 {} COMMONBITMAPc
	} bind def
/COMMONBITMAPc { 
		 
	/r exch def
	/d exch def
	gsave
	
	3 index 2 div add exch	
	4 index 2 div add exch	
	translate		
	rotate			
	1 index 2 div neg	
	1 index 2 div neg	
	translate		
	scale			
	/h exch def /w exch def
	/lb w d wbytes def 
	sl lb lt {lb ms} if 
	/bitmapsave save def 
	r                    
	/is im 0 lb getinterval def 
	ws 0 lb getinterval is copy pop 
	/cf currentfile def 
	w h d [w 0 0 h neg 0 h] 
	{ip} image 
	bitmapsave restore 
	grestore
	} bind def
/BEGINBITMAPBW { 
	1 {} COMMONBITMAP
	} bind def
/BEGINBITMAPGRAY { 
	8 {} COMMONBITMAP
	} bind def
/BEGINBITMAP2BIT { 
	2 {} COMMONBITMAP
	} bind def
/COMMONBITMAP { 
	/r exch def
	/d exch def
	gsave
	
	3 index 2 div add exch	
	4 index 2 div add exch	
	translate		
	rotate			
	1 index 2 div neg	
	1 index 2 div neg	
	translate		
	scale			
	/h exch def /w exch def
	/bitmapsave save def 
	r                    
	/is w d wbytes string def
	/cf currentfile def 
	w h d [w 0 0 h neg 0 h] 
	{cf is readhexstring pop} image
	bitmapsave restore 
	grestore
	} bind def
/ngrayt 256 array def
/nredt 256 array def
/nbluet 256 array def
/ngreent 256 array def
	/gryt FMLOCAL
	/blut FMLOCAL
	/grnt FMLOCAL
	/redt FMLOCAL
	/indx FMLOCAL
	/cynu FMLOCAL
	/magu FMLOCAL
	/yelu FMLOCAL
	/k FMLOCAL
	/u FMLOCAL
FMLevel1 {
/colorsetup {
	currentcolortransfer
	/gryt exch def
	/blut exch def
	/grnt exch def
	/redt exch def
	0 1 255 {
		/indx exch def
		/cynu 1 red indx get 255 div sub def
		/magu 1 green indx get 255 div sub def
		/yelu 1 blue indx get 255 div sub def
		/k cynu magu min yelu min def
		/u k currentundercolorremoval exec def
%		/u 0 def
		nredt indx 1 0 cynu u sub max sub redt exec put
		ngreent indx 1 0 magu u sub max sub grnt exec put
		nbluet indx 1 0 yelu u sub max sub blut exec put
		ngrayt indx 1 k currentblackgeneration exec sub gryt exec put
	} for
	{255 mul cvi nredt exch get}
	{255 mul cvi ngreent exch get}
	{255 mul cvi nbluet exch get}
	{255 mul cvi ngrayt exch get}
	setcolortransfer
	{pop 0} setundercolorremoval
	{} setblackgeneration
	} bind def
}
{
/colorSetup2 {
	[ /Indexed /DeviceRGB 255 
		{dup red exch get 255 div 
		 exch dup green exch get 255 div 
		 exch blue exch get 255 div}
	] setcolorspace
} bind def
} ifelse
	/tran FMLOCAL
/fakecolorsetup {
	/tran 256 string def
	0 1 255 {/indx exch def 
		tran indx
		red indx get 77 mul
		green indx get 151 mul
		blue indx get 28 mul
		add add 256 idiv put} for
	currenttransfer
	{255 mul cvi tran exch get 255.0 div}
	exch concatprocs settransfer
} bind def
/BITMAPCOLOR { 
	/d 8 def
	gsave
	
	3 index 2 div add exch	
	4 index 2 div add exch	
	translate		
	rotate			
	1 index 2 div neg	
	1 index 2 div neg	
	translate		
	scale			
	/h exch def /w exch def
	/bitmapsave save def
	FMLevel1 {	
		colorsetup
		/is w d wbytes string def
		/cf currentfile def 
		w h d [w 0 0 h neg 0 h] 
		{cf is readhexstring pop} {is} {is} true 3 colorimage 
	} {
		colorSetup2
		/is w d wbytes string def
		/cf currentfile def 
		7 dict dup begin
			/ImageType 1 def
			/Width w def
			/Height h def
			/ImageMatrix [w 0 0 h neg 0 h] def
			/DataSource {cf is readhexstring pop} bind def
			/BitsPerComponent d def
			/Decode [0 255] def
		end image	
	} ifelse
	bitmapsave restore 
	grestore
	} bind def
/BITMAPCOLORc { 
	/d 8 def
	gsave
	
	3 index 2 div add exch	
	4 index 2 div add exch	
	translate		
	rotate			
	1 index 2 div neg	
	1 index 2 div neg	
	translate		
	scale			
	/h exch def /w exch def
	/lb w d wbytes def 
	sl lb lt {lb ms} if 
	/bitmapsave save def 
	FMLevel1 {	
		colorsetup
		/is im 0 lb getinterval def 
		ws 0 lb getinterval is copy pop 
		/cf currentfile def 
		w h d [w 0 0 h neg 0 h] 
		{ip} {is} {is} true 3 colorimage
	} {
		colorSetup2
		/is im 0 lb getinterval def 
		ws 0 lb getinterval is copy pop 
		/cf currentfile def 
		7 dict dup begin
			/ImageType 1 def
			/Width w def
			/Height h def
			/ImageMatrix [w 0 0 h neg 0 h] def
			/DataSource {ip} bind def
			/BitsPerComponent d def
			/Decode [0 255] def
		end image	
	} ifelse
	bitmapsave restore 
	grestore
	} bind def
/BITMAPTRUECOLORc { 
	/d 24 def
        gsave
 	
	3 index 2 div add exch	
	4 index 2 div add exch	
	translate		
	rotate			
	1 index 2 div neg	
	1 index 2 div neg	
	translate		
	scale			
	/h exch def /w exch def
	/lb w d wbytes def 
	sl lb lt {lb ms} if 
        /bitmapsave save def 
        
	/is im 0 lb getinterval def	
	/ris im 0 w getinterval def	
	/gis im w w getinterval def	
	/bis im w 2 mul w getinterval def 
        
        ws 0 lb getinterval is copy pop 
        /cf currentfile def 
        w h 8 [w 0 0 h neg 0 h] 
        {w rip pop ris} {gis} {bis} true 3 colorimage
        bitmapsave restore 
        grestore
        } bind def
/BITMAPTRUECOLOR { 
        gsave
		
		3 index 2 div add exch	
		4 index 2 div add exch	
		translate		
		rotate			
		1 index 2 div neg	
		1 index 2 div neg	
		translate		
		scale			
		/h exch def /w exch def
        /bitmapsave save def 
        /is w string def
        /gis w string def
        /bis w string def
        /cf currentfile def 
        w h 8 [w 0 0 h neg 0 h] 
        { cf is readhexstring pop } 
        { cf gis readhexstring pop } 
        { cf bis readhexstring pop } 
        true 3 colorimage 
        bitmapsave restore 
        grestore
        } bind def
/BITMAPTRUEGRAYc { 
	/d 24 def
        gsave
	
	3 index 2 div add exch	
	4 index 2 div add exch	
	translate		
	rotate			
	1 index 2 div neg	
	1 index 2 div neg	
	translate		
	scale			
	/h exch def /w exch def
	/lb w d wbytes def 
	sl lb lt {lb ms} if 
        /bitmapsave save def 
        
	/is im 0 lb getinterval def	
	/ris im 0 w getinterval def	
	/gis im w w getinterval def	
	/bis im w 2 mul w getinterval def 
        ws 0 lb getinterval is copy pop 
        /cf currentfile def 
        w h 8 [w 0 0 h neg 0 h] 
        {w rip pop ris gis bis w gray} image
        bitmapsave restore 
        grestore
        } bind def
/ww FMLOCAL
/r FMLOCAL
/g FMLOCAL
/b FMLOCAL
/i FMLOCAL
/gray { 
        /ww exch def
        /b exch def
        /g exch def
        /r exch def
        0 1 ww 1 sub { /i exch def r i get .299 mul g i get .587 mul
			b i get .114 mul add add r i 3 -1 roll floor cvi put } for
        r
        } bind def
/BITMAPTRUEGRAY { 
        gsave
		
		3 index 2 div add exch	
		4 index 2 div add exch	
		translate		
		rotate			
		1 index 2 div neg	
		1 index 2 div neg	
		translate		
		scale			
		/h exch def /w exch def
        /bitmapsave save def 
        /is w string def
        /gis w string def
        /bis w string def
        /cf currentfile def 
        w h 8 [w 0 0 h neg 0 h] 
        { cf is readhexstring pop 
          cf gis readhexstring pop 
          cf bis readhexstring pop w gray}  image
        bitmapsave restore 
        grestore
        } bind def
/BITMAPGRAY { 
	8 {fakecolorsetup} COMMONBITMAP
	} bind def
/BITMAPGRAYc { 
	8 {fakecolorsetup} COMMONBITMAPc
	} bind def
/ENDBITMAP {
	} bind def
end 
	/ALDsave FMLOCAL
	/ALDmatrix matrix def ALDmatrix currentmatrix pop
/StartALD {
	/ALDsave save def
	 savematrix
	 ALDmatrix setmatrix
	} bind def
/InALD {
	 restorematrix
	} bind def
/DoneALD {
	 ALDsave restore
	} bind def
/I { setdash } bind def
/J { [] 0 setdash } bind def
%%EndProlog
%%BeginSetup
(4.0) FMVERSION
1 1 0 0 612 792 0 1 16 FMDOCUMENT
0 0 /Times-Roman FMFONTDEFINE
1 0 /Times-Bold FMFONTDEFINE
2 0 /Helvetica FMFONTDEFINE
3 0 /Helvetica-Bold FMFONTDEFINE
4 0 /Courier FMFONTDEFINE
5 0 /Times-Italic FMFONTDEFINE
32 FMFILLS
0 0 FMFILL
1 0.1 FMFILL
2 0.3 FMFILL
3 0.5 FMFILL
4 0.7 FMFILL
5 0.9 FMFILL
6 0.97 FMFILL
7 1 FMFILL
8 <0f1e3c78f0e1c387> FMFILL
9 <0f87c3e1f0783c1e> FMFILL
10 <cccccccccccccccc> FMFILL
11 <ffff0000ffff0000> FMFILL
12 <8142241818244281> FMFILL
13 <03060c183060c081> FMFILL
14 <8040201008040201> FMFILL
16 1 FMFILL
17 0.9 FMFILL
18 0.7 FMFILL
19 0.5 FMFILL
20 0.3 FMFILL
21 0.1 FMFILL
22 0.03 FMFILL
23 0 FMFILL
24 <f0e1c3870f1e3c78> FMFILL
25 <f0783c1e0f87c3e1> FMFILL
26 <3333333333333333> FMFILL
27 <0000ffff0000ffff> FMFILL
28 <7ebddbe7e7dbbd7e> FMFILL
29 <fcf9f3e7cf9f3f7e> FMFILL
30 <7fbfdfeff7fbfdfe> FMFILL
%%EndSetup
%%Page: "8" 1
%%BeginPaperSize: Letter
%%EndPaperSize
612 792 0 FMBEGINPAGE
[0 0 0 1 0 0 0]
[ 0 0 0 0 1 1 1]
[ 0 1 1 0 1 0 0]
[ 1 0 1 0 0 1 0]
[ 1 1 0 0 0 0 1]
[ 1 0 0 0 0 1 1]
[ 0 1 0 0 1 0 1]
[ 0 0 1 0 1 1 0]
 8 FrameSetSepColors
FrameNoSep
0 0 0 1 0 0 0 K
J
0 0 0 1 0 0 0 K
72 746 540 756 R
7 X
0 0 0 1 0 0 0 K
V
72 33.32 540 43.32 R
V
0 0 0 1 0 0 0 K
0 0 0 1 0 0 0 K
72 72 297 720 R
V
0 10 Q
0 X
3.5 (system. We are now considering how to introduce) 72 713.33 P
(dynamic merging of multiple class trees.) 72 701.33 T
1 12 Q
(9) 72 674 T
(Conclusion) 90 674 T
0 10 Q
4.02 (In this paper, we described the unification of) 90 657.33 P
3.47 (compile-time MOP and run-time MOP, to improve) 72 645.33 P
4.78 (efficiency and flexibility. We also introduced the) 72 633.33 P
11.4 (Cognac reflective object-oriented programming) 72 621.33 P
2.43 (system. In Cognac, each object has its u-meta-space) 72 609.33 P
5.44 (which defines both the semantics of the source) 72 597.33 P
1.17 (programming language and the execution environment) 72 585.33 P
(of the object.) 72 573.33 T
2.2 (The execution domain of an object is named an) 90 561.33 P
3.48 (object cluster, where some metaobjects support the) 72 549.33 P
2.23 (execution of the object at run-time. In Cognac, with) 72 537.33 P
9.17 (unification of active and passive objects at) 72 525.33 P
3.41 (programming-time, programmers can concentrate on) 72 513.33 P
1.3 (programming an algorithm without having to consider) 72 501.33 P
2.82 (how objects are used and executed. To achieve the) 72 489.33 P
5.23 (unification, meta-level scheduling control and the) 72 477.33 P
2.78 (situation-dependent object compilation are used, and) 72 465.33 P
1.63 (the scheduling policy is determined at object creation) 72 453.33 P
(time.) 72 441.33 T
1 12 Q
(Acknowledgement) 72 416 T
0 10 Q
4.32 (This research is supported by the cooperative) 90 398.33 P
1.95 (research project between the Apertos project at Sony) 72 386.33 P
1.81 (Computer Science Laboratory Inc., Tokyo, Japan and) 72 374.33 P
3.3 (the PANDA group at the departments of computer) 72 362.33 P
4.41 (science and of electric and computer engineering,) 72 350.33 P
2.75 (University of Victoria. We would like to thank our) 72 338.33 P
(colleagues in both groups.) 72 326.33 T
1 12 Q
(Refer) 72 301 T
(ences) 100.43 301 T
0 9 Q
([1]) 72 284 T
6.01 (Yasuhiko Yokote. Kernel Structuring for Object-) 90 284 P
0.96 (Oriented Operating Systems: The Apertos Approach, In) 90 274 P
1.5 (Proceedings of the International Symposium on Object) 90 264 P
(Technologies for Advanced Software \050ISOTAS\051, 1993.) 90 254 T
([2]) 72 244 T
3.07 (Takao Tenma. MC++ Language Manual, In Apertos) 90 244 P
(Manuals. 1994) 90 234 T
([3]) 72 224 T
4.22 (Gregor Kiczales, Jim des Rivieres, and Daniel G.) 90 224 P
3.68 (Bobrow. The Art of the Metaobject Protocol. MIT) 90 214 P
(Press,1991.) 90 204 T
([4]) 72 194 T
4.38 (Shigeru Chiba and Takashi Masuda. Designing an) 90 194 P
6.51 (Extensible Distributed Language with Meta-Level) 90 184 P
5.05 (Architecture. In Proceedings of the 7th European) 90 174 P
2.82 (Conference on Object-Oriented Programming, LNCS-) 90 164 P
(707, Springer-Verlag, 1993, pp.482-501.) 90 154 T
([5]) 72 144 T
2.13 (Adele Goldberg and David Robson. Smalltalk-80 The) 90 144 P
4.05 (Language and its implementation. Addison Wesley,) 90 134 P
(1983.) 90 124 T
([6]) 72 114 T
3.46 (Partha Dasgupta, Richard J. LeBlanc, Jr., Mustaque) 90 114 P
2.06 (Ahamad, and Umakishore Ramachandran. The Clouds) 90 104 P
1.34 (Distributed Operating System. In Computer. pp. 34-44,) 90 94 P
(Vol. 24, No. 11, November 1991.) 90 84 T
315 72 540 720 R
7 X
V
0 X
([7]) 315 714 T
1.67 (Akinori Yonezawa and Mario Tokoro, editors. Object-) 333 714 P
4.05 (Oriented Concurrent Programming. The MIT Press,) 333 704 P
(1987.) 333 694 T
([8]) 315 684 T
9.88 (Hidehiko Masuhara, Satoshi Matsuoka, Takuo) 333 684 P
5.01 (Watanebe, and Akinori Yonezawa. Object-Oriented) 333 674 P
2.16 (Concurrent Reflective Languages can be Implemented) 333 664 P
9.95 (Efficiently. In Proceedings of Object-Oriented) 333 654 P
4 (Programming Systems, Languages, and Applications) 333 644 P
(\050OOPSLA\051, 1992, pp.127-145.) 333 634 T
([9]) 315 624 T
0.8 (Hideaki Okamura, Yutaka Ishikawa, and Mario Tokoro.) 333 624 P
5.15 (AL-1/D: A Distributed Programming System with) 333 614 P
2.4 (MultiModel Reflection Framework. In Proceedings of) 333 604 P
5.92 (the International Workshop on New Models for) 333 594 P
5.11 (Software Architecture'92 Reflection and Meta-level) 333 584 P
(Architecture, November, 1992.) 333 574 T
([10]) 315 564 T
2.38 (John Lamping, Gregor Kiczales, Luis Rodriguez. and) 333 564 P
2.44 (Erik Ruf. An Architecture for an Open Compiler. In) 333 554 P
0.99 (proceedings of the IMSA'92 International Workshop on) 333 544 P
5.08 (Reflection and Meta-Level Architecture. November) 333 534 P
(1992.) 333 524 T
0 0 0 1 0 0 0 K
FMENDPAGE
%%EndPage: "8" 1
%%Page: "7" 2
612 792 0 FMBEGINPAGE
[0 0 0 1 0 0 0]
[ 0 0 0 0 1 1 1]
[ 0 1 1 0 1 0 0]
[ 1 0 1 0 0 1 0]
[ 1 1 0 0 0 0 1]
[ 1 0 0 0 0 1 1]
[ 0 1 0 0 1 0 1]
[ 0 0 1 0 1 1 0]
 8 FrameSetSepColors
FrameNoSep
0 0 0 1 0 0 0 K
72 746 540 756 R
7 X
0 0 0 1 0 0 0 K
V
72 33.32 540 43.32 R
V
0 0 0 1 0 0 0 K
0 0 0 1 0 0 0 K
72 72 297 720 R
V
0 10 Q
0 X
0.74 (\050We define a safe execution as only one execution) 90 713.33 P
4.24 (thread existing between the start and end of any) 72 701.33 P
1.85 (method execution of an object. We define a constant) 72 689.33 P
0.45 (object as an object whose internal data is stored only at) 72 677.33 P
4.69 (object creation time, and is never modified after) 72 665.33 P
1.45 (creation. These conditions guarantee mutual exclusion) 72 653.33 P
0.46 (in the execution of passive objects, because the method) 72 641.33 P
3.31 (of the passive object is only executed by a single) 72 629.33 P
(execution context.\051) 72 617.33 T
1.83 (If an object O is shared among active objects, it) 90 605.33 P
0.71 (must be active. Even though O is not shared by two or) 72 593.33 P
8.29 (more other objects, O sometimes must have) 72 581.33 P
1.71 (metaobjects. For example, a stack object should have) 72 569.33 P
0.94 (the ability to delay a pop request until there is data on) 72 557.33 P
2.87 (the stack. In such case, to be an active object, the) 72 545.33 P
4.17 (object should be explicitly tied to the meta-space) 72 533.33 P
4.59 (where all objects are generated as active by the) 72 521.33 P
(programmer.) 72 509.33 T
1 11 Q
(5.2) 72 483.67 T
(Compile-time Support for Unification) 90 483.67 T
0 10 Q
2.47 ( Membership in a cluster is initially determined) 90 467.33 P
2.58 (based on static information provided by the Cognac) 72 455.33 P
5.4 (compiler front-end. Moreover, the membership is) 72 443.33 P
3.93 (dynamically changed when an object is moved to) 72 431.33 P
1.03 (another cluster, for example, to reduce communication) 72 419.33 P
7.57 (overhead. The compiler back-end checks these) 72 407.33 P
(conditions using the meta-space definition.) 72 395.33 T
1 11 Q
(5.3) 72 369.67 T
(Run-time Support for Unification) 90 369.67 T
0 10 Q
1.12 (It is difficult to statically determine that condition) 90 353.33 P
2.94 (\050i\051 is true, at compile-time, so we also introduce a) 72 341.18 P
1.59 (mechanism to achieve condition \050iii\051 at run-time. The) 72 329.03 P
3.46 (object cluster is supported by some metaobjects; a) 72 317.03 P
3.84 (scheduler metaobject, a message queue metaobject,) 72 305.03 P
9.34 (and object status metaobjects. The scheduler) 72 293.03 P
4.4 (metaobject determines execution scheduling of the) 72 281.03 P
0.72 (member objects, the message queue metaobject is used) 72 269.03 P
2.68 (to spool messages from outside the cluster, and the) 72 257.03 P
1.79 (object status metaobjects hold the execution status of) 72 245.03 P
(each member object in the cluster.) 72 233.03 T
1.71 (When a message is sent to a member object, the) 90 221.03 P
2.82 (scheduler metaobject checks the status of the target) 72 209.03 P
2.64 (object. If the target object is of DORMANT status,) 72 197.03 P
0.76 (then the target object is invoked. If the object is not of) 72 185.03 P
3.97 (DORMANT status, the message is spooled in the) 72 173.03 P
4.45 (message queue, from which it will be eventually) 72 161.03 P
2.37 (picked out and the scheduler metaobject will do the) 72 149.03 P
3.34 (same action. By this meta-level scheduling control,) 72 137.03 P
3.18 (mutual exclusion is guaranteed. \050This action of the) 72 125.03 P
0.6 (scheduler metaobject looks similar to the scheduling of) 72 113.03 P
4.23 (active objects, but sending asynchronous messages) 72 101.03 P
2.17 (doesn't create any alternative execution thread in the) 72 89.03 P
0.73 (cluster, since only one execution context exists in each) 72 77.03 P
315 72 540 720 R
7 X
V
0 X
(cluster.\051) 315 713.33 T
3.3 (By this unification, objects can be modeled as) 333 701.33 P
3.72 (mobile entities, and each object has the ability to) 315 689.33 P
3.7 (migrate between address spaces. In this sense, the) 315 677.33 P
2.74 (distinction between active and passive objects is no) 315 665.33 P
4.35 (longer necessary. Programmers can concentrate on) 315 653.33 P
3.1 (programming the algorithm itself, and yet they can) 315 641.33 P
2.94 (enjoy improved efficiency, since not all objects are) 315 629.33 P
(active.) 315 617.33 T
1 12 Q
(6) 315 590 T
(Current status of the Implementation) 333 590 T
0 10 Q
6.26 (The prototype version of Cognac has been) 333 573.33 P
2.66 (implemented using Apertos emulation on top of the) 315 561.33 P
4.17 (UNIX operating system. A compiler front-end, an) 315 549.33 P
6.4 (interpreter which directly executes the produced) 315 537.33 P
3.76 (intermediate code, and a default meta-space which) 315 525.33 P
6.45 (supports concurrent object execution, have been) 315 513.33 P
2.78 (implemented. Since the meta-meta system is UNIX,) 315 501.33 P
0.47 (the semantics of message sending between meta-spaces) 315 489.33 P
4.81 (is fixed by the semantics of UNIX inter-process) 315 477.33 P
1.08 (communication, and we have to obey those semantics.) 315 465.33 P
1.22 (Also, the usage of the memory segment is determined) 315 453.33 P
7.18 (by standard UNIX, and object migration with) 315 441.33 P
4.88 (compilation is not yet achieved in the prototype) 315 429.33 P
3.42 (version. We are now implementing Cognac on the) 315 417.33 P
(Apertos operating system.) 315 405.33 T
1 12 Q
(7) 315 378 T
(Related work) 333 378 T
0 10 Q
5.61 (In [10], a technique to implement an open) 333 361.18 P
4.22 (compiler using the Scheme language is described.) 315 349.18 P
2.3 (However, this does not include the relationship with) 315 337.18 P
(run-time metaobjects.) 315 325.18 T
1 12 Q
(8) 315 297.85 T
(Future work) 333 297.85 T
0 10 Q
1.28 (We have not yet established the formal semantics) 333 281.18 P
2.97 (of the unified object model. We consider that it is) 315 269.18 P
4.81 (necessary to provide the semantics and to prove) 315 257.18 P
1.81 (correctness using the semantics, because the meaning) 315 245.18 P
3.34 (of the program depends on a set of objects to be) 315 233.18 P
(compiled in a cluster.) 315 221.18 T
7.79 (Since the bottom level meta-metaobject is) 333 209.18 P
1.07 (programmed using a standard sequential object model,) 315 197.18 P
7.18 (so far, we cannot modify the meta-meta-level) 315 185.18 P
3.58 (semantics. We are now also designing a reflective) 315 173.18 P
(system to create the metaobject at run-time.) 315 161.18 T
0.57 (In our current implementation, all object interfaces) 333 149.18 P
3.66 (must be fixed before compiling them, because the) 315 137.18 P
1.05 (definition of the interface is used for attribute analysis) 315 125.18 P
0.75 (by the compiler. An object created from a class cannot) 315 113.18 P
3.14 (be understood by other objects which have already) 315 101.18 P
1.71 (been created before the class is programmed. For the) 315 89.18 P
1.49 (same reason, only one class hierarchy is allowed in a) 315 77.18 P
0 0 0 1 0 0 0 K
FMENDPAGE
%%EndPage: "7" 2
%%Page: "6" 3
612 792 0 FMBEGINPAGE
[0 0 0 1 0 0 0]
[ 0 0 0 0 1 1 1]
[ 0 1 1 0 1 0 0]
[ 1 0 1 0 0 1 0]
[ 1 1 0 0 0 0 1]
[ 1 0 0 0 0 1 1]
[ 0 1 0 0 1 0 1]
[ 0 0 1 0 1 1 0]
 8 FrameSetSepColors
FrameNoSep
0 0 0 1 0 0 0 K
72 746 540 756 R
7 X
0 0 0 1 0 0 0 K
V
72 33.32 540 43.32 R
V
0 0 0 1 0 0 0 K
0 0 0 1 0 0 0 K
72 72 297 720 R
V
0 10 Q
0 X
(cluster is a subset of the Apertos reflector.) 72 551.33 T
1 12 Q
(5) 72 524 T
10.42 (Unification of active and passive) 90 524 P
(objects in Cognac) 90 510 T
0 10 Q
5.46 (The passive object/thread model[6] has good) 90 493.18 P
2.78 (execution performance, but it is difficult to manage) 72 481.18 P
2.18 (mutual exclusion by programmers within this model.) 72 469.18 P
0.8 (On the other hand, the active object model[7] provides) 72 457.03 P
0.32 (us with a simple view of concurrent executable entities,) 72 445.03 P
0.65 (but its performance is poor if the granularity of objects) 72 433.03 P
2.02 (is too fine, owing to context switching overhead. To) 72 421.03 P
6.01 (lessen this performance penalty, some languages) 72 409.03 P
(introduce another notion for an object\325s instance data.) 72 397.03 T
0.63 (Most actor-based languages, like ABCL/R2[8] and) 90 384.87 P
1.86 (AL-1/D[9] provide internal instance data as primitive) 72 372.72 P
5.59 (data, which is not seen as an object, and the) 72 360.72 P
2.86 (programmer cannot add to or modify its behaviour.) 72 348.72 P
4.65 (Some other languages like MC++[2], use passive) 72 336.57 P
3.62 (objects to reduce context switching between active) 72 324.57 P
1 (objects. However, it is the programmer's responsibility) 72 312.57 P
3.24 (to use a passive object only inside a single active) 72 300.57 P
2.46 (object to avoid execution conflicts. The programmer) 72 288.57 P
6 (therefore always has to consider the choice of) 72 276.57 P
0.53 (activeness or passiveness for each object. This means a) 72 264.57 P
4.73 (message exchanged between active objects cannot) 72 252.57 P
0.9 (contain a pointer to an internal passive object. And, as) 72 240.57 P
2.26 (it is very difficult to share passive objects correctly,) 72 228.57 P
(programming is difficult in this model.) 72 216.57 T
1.46 (In the real world, objects exist not only as active) 90 204.57 P
1.48 (entities, but also as passive entities. In that sense, the) 72 192.57 P
0.89 (activeness or passiveness is externally determined, and) 72 180.57 P
3.75 (this attribute should be determined by the object's) 72 168.57 P
1.05 (environment and usage. If the model of the object can) 72 156.57 P
0.96 (be determined taking into account the set of objects to) 72 144.57 P
1.57 (be executed in a certain domain, the programmer can) 72 132.57 P
4.45 (concentrate on programming the behaviour of the) 72 120.57 P
0.56 (object itself without considering how the object is used) 72 108.57 P
(or shared.) 72 96.57 T
1.58 (For example, in Figure 5, an array object Array1) 90 84.41 P
72 72 297 720 C
72.56 558 296.44 720 C
0 0 0 1 0 0 0 K
0 0 0 1 0 0 0 K
81.56 585 288.56 720 R
7 X
0 0 0 1 0 0 0 K
V
0.5 H
2 Z
0 X
N
2 9 Q
(umCommon) 153.44 698.25 T
180.56 693 126.56 666 2 L
1 H
N
180.56 693 171.56 666 2 L
N
180.56 693 243.56 666 2 L
N
(umSequencial) 223.06 655.12 T
(umCOOP) 151.99 653.3 T
(umCOOPnonPreemptive) 173.06 611.67 T
171.56 648 216.56 621 2 L
N
171.56 648 135.56 621 2 L
N
J
109.38 655.12 131.88 655.12 2 L
J
109.38 655.12 113.13 655.12 2 L
0.5 H
N
[5.488 4.756] 5.488 I
113.13 655.12 128.12 655.12 2 L
N
J
128.12 655.12 131.88 655.12 2 L
N
J
116.88 614.5 145.63 614.5 2 L
J
116.88 614.5 120.63 614.5 2 L
N
[7.774 6.738] 7.774 I
120.63 614.5 141.88 614.5 2 L
N
J
141.88 614.5 145.63 614.5 2 L
N
81.56 567 288.56 576 R
7 X
V
3 10 Q
0 X
(Figure 4: U-meta-space class hierarchy) 91.97 569.33 T
J
J
72 72 297 720 C
0 -208 1000 792 C
315 72 540 720 R
7 X
0 0 0 1 0 0 0 K
V
0 10 Q
0 X
1.77 (can be passive, if the array is only used in an active) 315 533.33 P
1.24 (object O5, so that the overhead of accessing the array) 315 521.33 P
1.12 (object can be minimized. The Array class is also used) 315 509.33 P
1.3 (to create an active Array object Array2 as well, when) 315 497.33 P
0.75 (the array is shared among more than one active object.) 315 485.33 P
4.61 (In this sense, the programmer cannot predict the) 315 473.33 P
1.47 (activeness or passiveness of the instance of the Array) 315 461.33 P
3.58 (class at programming-time. If this attribute can be) 315 449.33 P
9.67 (determined by the system automatically, the) 315 437.33 P
4.53 (programmer doesn\325t have to consider it, and can) 315 425.33 P
(concentrate on programming the object\325s algorithm.) 315 413.33 T
2.46 (To avoid potential confusion between activeness) 333 401.33 P
1.51 (and passiveness in object programming, we provide a) 315 389.33 P
5.33 (unification of these attributes using Cognac. We) 315 377.33 P
1.12 (separate the concept of execution domain from that of) 315 365.33 P
1.85 (object programming, and provide a way to execute a) 315 353.33 P
5.36 (method as a passive object. Also, we introduce) 315 341.33 P
3.71 (dynamic object scheduling control based on object) 315 329.33 P
1.29 (status at run-time, to provide a mechanism for mutual) 315 317.33 P
2.54 (exclusion. The execution domain is called an object) 315 305.33 P
1.28 (cluster, where member objects share the same address) 315 293.33 P
(space and scheduling policy.) 315 281.33 T
1 11 Q
(5.1) 315 255.67 T
(Conditions for passive and active objects) 333 255.67 T
0 10 Q
4.06 (A passive object is invoked by the execution) 333 239.33 P
2.2 (context of the caller\325s object. On the other hand, an) 315 227.33 P
0.98 (active object is invoked by the object\325s own execution) 315 215.33 P
1.67 (context. If the active object\325s context is busy when a) 315 203.33 P
1.12 (message arrives at the object, the message is stored in) 315 191.33 P
(the message queue metaobject to wait for a free context.) 315 179.33 T
1.27 (A sufficient condition to guarantee safe execution) 333 167.33 P
1.19 (of the program is that an object is only passive if one) 315 155.33 P
(of the following conditions is true) 315 143.33 T
(\050i\051) 324 131.33 T
1.28 (it receives messages from only one other) 351 131.33 P
(object, or) 351 119.33 T
(\050ii\051) 324 107.33 T
(it is a constant object, or) 351 107.33 T
(\050iii\051) 324 95.33 T
4.92 (its status is DORMANT whenever it) 351 95.33 P
(receives a message to invoke a method.) 351 83.33 T
315 72 540 720 C
315 540 540 720 C
0 0 0 1 0 0 0 K
0 0 0 1 0 0 0 K
368.44 621 421 599 2 L
4 H
2 Z
0 X
0 0 0 1 0 0 0 K
N
481.88 630.75 429 595 2 L
N
340 587 512.5 603.25 R
5 X
V
0.5 H
0 X
90 450 22.5 13.5 426.94 688.5 A
7 X
90 450 13.5 9 417.94 639 G
0 X
90 450 13.5 9 417.94 639 A
7 X
90 450 27 18 368.44 639 G
0 X
90 450 27 18 368.44 639 A
341.44 603 512.44 603 2 L
1 H
N
392.9 642.31 404.44 639 392.9 635.69 392.9 639 4 Y
V
377.44 639 392.9 639 2 L
N
2 X
90 450 4.5 4.5 375.44 639.5 G
0.5 H
0 X
90 450 4.5 4.5 375.44 639.5 A
425.82 657.75 419.38 647.62 419.47 659.62 422.64 658.69 4 Y
V
427.5 675.12 422.65 658.69 2 L
N
469.61 655.45 478.13 647 466.42 649.65 468.01 652.55 4 Y
V
426.88 675.12 468.02 652.55 2 L
N
0 10 Q
(Array) 414.5 691.12 T
(Class) 417.5 682.12 T
(O5) 352.5 635.75 T
(Array1) 406.88 621.37 T
(Array2) 489.38 622 T
7 X
90 450 13.5 9 485.31 639.12 G
0 X
90 450 13.5 9 485.31 639.12 A
(Meta-Space) 405 592 T
323.44 549 530.44 576 R
7 X
V
3 F
0 X
(Figure 5: Example of Activeness and) 339.69 569.33 T
(Passiveness) 396.92 557.33 T
323.44 585 530.44 720 R
N
315 72 540 720 C
0 -208 1000 792 C
0 0 0 1 0 0 0 K
FMENDPAGE
%%EndPage: "6" 3
%%Page: "5" 4
612 792 0 FMBEGINPAGE
[0 0 0 1 0 0 0]
[ 0 0 0 0 1 1 1]
[ 0 1 1 0 1 0 0]
[ 1 0 1 0 0 1 0]
[ 1 1 0 0 0 0 1]
[ 1 0 0 0 0 1 1]
[ 0 1 0 0 1 0 1]
[ 0 0 1 0 1 1 0]
 8 FrameSetSepColors
FrameNoSep
0 0 0 1 0 0 0 K
72 746 540 756 R
7 X
0 0 0 1 0 0 0 K
V
72 33.32 540 43.32 R
V
0 0 0 1 0 0 0 K
0 0 0 1 0 0 0 K
72 360 540 720 R
V
72 360 540 720 C
72 360 540 720 C
0 0 0 1 0 0 0 K
0 0 0 1 0 0 0 K
76.8 396 531 720 R
7 X
0 0 0 1 0 0 0 K
V
0.5 H
2 Z
0 X
N
85.8 594 297 693 R
7 X
V
4 9 Q
0 X
(Cognac newClass: #HelloWorld) 94.8 687 T
(superClass: #Object) 112.8 676 T
(defaultMeta: #umCOOP) 112.8 665 T
(instanceVariables: \325 \325) 112.8 654 T
(!) 94.8 643 T
(! HelloWorld method @ Strings !) 94.8 632 T
(hello) 94.8 621 T
(^ \325Hello World!\325) 112.8 610 T
(!!) 94.8 599 T
161.4 703.43 85.8 703.43 2 L
V
0.36 H
0 Z
N
(Source Program) 85.8 704.17 T
167.4 703.35 161.4 703.35 2 L
V
0.4 H
N
4 10 Q
(:) 161.4 704.17 T
85.8 432 297 558 R
7 X
V
4 9 Q
0 X
(className: #HelloWorld) 94.8 552 T
(methodName: #hello) 94.8 541 T
(code: {) 94.8 530 T
(@MethodStart;) 112.8 519 T
(@Reply \050_str_1\051;) 112.8 508 T
(@MethodEnd) 112.8 497 T
(}) 94.8 486 T
(constant: {) 94.8 475 T
(\050_str_, \325Hello World!\325, #Strings\051) 112.8 464 T
(};) 94.8 453 T
184.8 568.12 87.6 568.12 2 L
V
0.36 H
N
(Intermediate Code:) 87.6 568.86 T
306 405 522 693 R
7 X
V
0 X
(Cognac newMetaspace:) 315 687 T
(   #umCOOPnonPreemptive) 333 676 T
(superMetaspace: #umCOOP) 333 665 T
(defaultMeta: #umCommon) 333 654 T
(compilerVariables: \325 \325) 333 643 T
(instanceVariables: \325debuglog\325) 333 632 T
("-- umCOOPnonPreemptive supports) 315 621 T
(producing non-preemptable code --") 315 610 T
(!) 315 599 T
(! umCOOPnonPreemptive compiler !) 315 588 T
(genMethodStart) 315 577 T
(self genInterruptDisable.) 333 566 T
(self genInvokeMeta: #debug:) 333 555 T
(   with: \050self methodName\051.) 333 544 T
(super genMethodStart) 333 533 T
(!!) 315 522 T
(!umCOOPnonPreemptive compiler !) 315 511 T
(genMethodEnd) 315 500 T
(self genInterruptEnable.) 333 489 T
(super genMethodEnd) 333 478 T
(!!) 315 467 T
(! umCOOPnonPreemptive runtime !) 315 456 T
(debug: msg) 315 445 T
(debuglog logmsg: msg) 333 434 T
(!!) 315 423 T
(...) 315 412 T
397.8 703.12 306 703.12 2 L
V
N
(Meta Programming:) 306 703.86 T
0 0 0 1 0 0 0 K
0 0 0 1 0 0 0 K
90 378 513 387 R
7 X
V
3 10 Q
0 X
(Figure 3: Example of source program, intermediate code, and meta-programming) 108.68 380.33 T
72 360 540 720 C
0 0 612 792 C
72 72 297 351 R
7 X
0 0 0 1 0 0 0 K
V
0 10 Q
0 X
1.17 (space, called meta-meta-space. For example, in Figure) 72 344.33 P
0.73 (3, umCommon is the meta-space of the run-time meta-) 72 332.18 P
(level definition code of the umCOOPnonPreemptive.) 72 320.18 T
0.81 (Because the relation between base-level and meta-) 90 308.18 P
1.71 (level is relative, the metaobjects defined in the meta-) 72 296.18 P
1.22 (meta-space can also be base-level objects. This is like) 72 284.18 P
0.8 (the Apertos meta-level architecture as described in [1].) 72 272.03 P
0.56 (The base/meta relation is terminated by a special meta-) 72 260.03 P
0.79 (metaobject named MetaCore in Apertos. Since Cognac) 72 248.03 P
1.3 (is designed for Apertos, we also use MetaCore as our) 72 236.03 P
(bottom-level metaobject.) 72 224.03 T
1 11 Q
(4.4) 72 198.36 T
(U-meta-space compatibility) 90 198.36 T
0 10 Q
2.74 (To support object migration across meta-spaces,) 90 182.03 P
1.01 (we have to ensure compatible interfaces. To solve this) 72 170.03 P
0.25 (problem neatly, we have introduced a notion of u-meta-) 72 158.03 P
4.73 (space compatibility. In Cognac, u-meta-spaces are) 72 146.03 P
2.99 (defined in a hierarchal tree called the u-meta-space) 72 134.03 P
5.75 (class hierarchy \050Figure 4\051 like Apertos reflector) 72 121.87 P
1.05 (hierarchy[1]. The top of the tree is the umCommon u-) 72 109.72 P
0.56 (meta-space, which only defines object code generation.) 72 97.72 P
0.45 (Programmers can define a new u-meta-space by adding) 72 85.72 P
315 72 540 351 R
7 X
V
0 X
1.84 (it to the hierarchy as a subclass of an existing meta-) 315 344.33 P
0.81 (space. Objects can move to a subclass u-meta-space of) 315 332.33 P
2.06 (the its default u-meta-space at any time, because the) 315 320.33 P
6.31 (interface of each meta-operation defined in the) 315 308.33 P
8.95 (subclass u-meta-space is compatible with the) 315 296.33 P
3.29 (superclass u-meta-space. However, the semantics of) 315 284.33 P
6.43 (the operation might be different. We call this) 315 272.33 P
(compatibility,) 315 260.33 T
5 F
(u-meta-space compatibility) 373.34 260.33 T
0 F
(.) 482.49 260.33 T
1 11 Q
(4.5) 315 234.67 T
(Relation to Apertos Meta-space) 333 234.67 T
0 10 Q
0.58 (Apertos has a hierarchal meta-level architecture. A) 333 218.33 P
0.65 (set of metaobjects is called a meta-space and the meta-) 315 206.33 P
0.96 (space is managed by a special object called a reflector) 315 194.33 P
3.06 (in Apertos. Since Cognac is based on Apertos, the) 315 182.33 P
1.16 (reflector which defines the interface to the meta-space) 315 170.33 P
4.59 (for objects looks similar to the object cluster in) 315 158.33 P
0.68 (Cognac. However, Apertos assumes that all objects are) 315 146.33 P
1.42 (active, so that there is no direct invocation of passive) 315 134.33 P
2.74 (objects. Also, the reflector manages not only object) 315 122.33 P
2.78 (scheduling, but also the variable components of the) 315 110.33 P
1.58 (object environment such as memory management and) 315 98.33 P
2.27 (message delivering. In that sense, the Cognac object) 315 86.33 P
0 0 0 1 0 0 0 K
FMENDPAGE
%%EndPage: "5" 4
%%Page: "4" 5
612 792 0 FMBEGINPAGE
[0 0 0 1 0 0 0]
[ 0 0 0 0 1 1 1]
[ 0 1 1 0 1 0 0]
[ 1 0 1 0 0 1 0]
[ 1 1 0 0 0 0 1]
[ 1 0 0 0 0 1 1]
[ 0 1 0 0 1 0 1]
[ 0 0 1 0 1 1 0]
 8 FrameSetSepColors
FrameNoSep
0 0 0 1 0 0 0 K
72 746 540 756 R
7 X
0 0 0 1 0 0 0 K
V
72 33.32 540 43.32 R
V
0 0 0 1 0 0 0 K
0 0 0 1 0 0 0 K
72 72 297 720 R
V
0 10 Q
0 X
1.81 (very well-suited to express message sending patterns,) 72 713.33 P
1.61 (because all entities are represented as objects and the) 72 701.33 P
0.56 (invocation of a method is simply expressed as message) 72 689.33 P
5.24 (sending. This makes it easy to produce Cognac) 72 677.33 P
(intermediate code.) 72 665.33 T
4.66 (In Cognac, there are a few additions to the) 90 653.33 P
(Smalltalk-80 syntax:) 72 641.33 T
(1.) 90 629.33 T
4.08 (optional type declaration for variables,) 108 629.33 P
(arguments and method return value) 108 617.33 T
(2.) 90 605.33 T
(asynchronous message sending expression) 108 605.33 T
(3.) 90 593.33 T
7.66 (asynchronous reply message sending) 108 593.33 P
(expression) 108 581.33 T
1.36 (Many more additions can be easily introduced by) 90 569.33 P
4.45 (users, because the Cognac compiler itself can be) 72 557.33 P
4.18 (modified by reflective programming. However, for) 72 545.33 P
1.67 (simplicity, we defined this as the base-level language) 72 533.33 P
(syntax of Cognac.) 72 521.33 T
1 11 Q
(4.2) 72 495.67 T
(The Compiler) 90 495.67 T
0 10 Q
2.15 (The Cognac compiler is composed of two parts:) 90 479.33 P
2.23 (one converts a source program to intermediate code,) 72 467.33 P
1.16 (and the other produces actual, executable, binary code) 72 455.33 P
2.23 (for the base-level object from the intermediate code,) 72 443.33 P
0.87 (using a meta-space definition. The former is called the) 72 431.33 P
1.15 (Cognac compiler front-end, and the latter is called the) 72 419.33 P
(Cognac compiler back-end.) 72 407.33 T
1 F
(4.2.1 Intermediate Representation of Method Code) 72 383.33 T
0 F
1.73 (To reduce the overhead of compilation whenever) 90 367.33 P
1.15 (the semantics of an object is changed, an intermediate) 72 355.33 P
5.98 (representation of object code is introduced. We) 72 343.33 P
4.18 (implement an executable intermediate code for an) 72 331.33 P
2.86 (object as a sequence of meta-operations in Cognac.) 72 319.33 P
0.36 (Each meta-operation is composed of an operation name) 72 307.33 P
(and its arguments, written as:) 72 295.33 T
(@) 90 271.33 T
5 F
(m_op) 99.21 271.33 T
0 F
( <) 121.43 271.33 T
5 F
(args) 132.07 271.33 T
0 F
(, ... >) 149.85 271.33 T
1.81 (@) 90 247.33 P
5 F
1.81 (m_op) 99.21 247.33 P
0 F
1.81 ( denotes the type of meta-operation, such) 121.43 247.33 P
2.82 (as @SyncSend for synchronous message sending or) 72 235.33 P
1.28 (@ASyncSend for asynchronous message sending. The) 72 223.33 P
1.45 (meanings of the arguments depend on the type of the) 72 211.33 P
0.51 (meta-operation. For example, the synchronous message) 72 199.33 P
(sending meta-operation is used as:) 72 187.33 T
(@SyncSend <) 90 163.33 T
5 F
(id) 149.85 163.33 T
0 F
(,) 157.63 163.33 T
5 F
(method) 162.63 163.33 T
0 F
(,) 192.07 163.33 T
5 F
(msg) 197.07 163.33 T
0 F
(,) 213.18 163.33 T
5 F
(reply) 218.18 163.33 T
0 F
( >) 238.73 163.33 T
3.23 (In this example,) 90 139.33 P
5 F
3.23 (id) 166.34 139.33 P
0 F
3.23 ( represents the target object) 174.12 139.33 P
0.34 (identifier,) 72 127.33 P
5 F
0.34 (method) 114 127.33 P
0 F
0.34 ( is the target method name,) 143.44 127.33 P
5 F
0.34 (msg) 256.32 127.33 P
0 F
0.34 ( is the) 272.42 127.33 P
2.56 (actual body of the message to be sent to the target) 72 115.33 P
2.47 (object, and) 72 103.33 P
5 F
2.47 (reply) 123.33 103.33 P
0 F
2.47 ( points to the storage area for data) 143.88 103.33 P
(received as a reply.) 72 91.33 T
2.01 (The meaning of each meta-operation depends on) 90 79.33 P
315 72 540 720 R
7 X
V
0 X
4.59 (the semantics which the metaobjects support. For) 315 713.33 P
2.12 (example, a meta-operation for asynchronous message) 315 701.33 P
1.89 (sending might cause the creation of a context by the) 315 689.33 P
0.98 (metaobjects supporting an object/thread model. On the) 315 677.33 P
0.64 (other hand, the metaobjects supporting an active object) 315 665.33 P
2.71 (model might just put the message into the message) 315 653.33 P
(queue.) 315 641.33 T
2.47 (A set of meta-operations provided by a u-meta-) 333 629.33 P
1.01 (space is defined in the definition of that u-meta-space.) 315 617.33 P
2.64 (Later, we will discuss u-meta-space compatibility to) 315 605.33 P
(support object migration.) 315 593.33 T
1 F
(4.2.2 The compiler front-end) 315 569.33 T
0 F
1.73 (The compiler front-end reads the source program) 333 553.33 P
0.47 (of an object, checks for syntax errors, and produces the) 315 541.33 P
1.51 (intermediate code. The set of meta-operations used in) 315 529.33 P
5.01 (the produced intermediate code is determined by) 315 517.33 P
4.82 (specifying the default u-meta-space in the source) 315 505.33 P
1.71 (program. The produced code can be used to generate) 315 493.33 P
1.12 (actual binary code with respect to the u-meta-space or) 315 481.33 P
5.15 (its subclass u-meta-spaces as described later. An) 315 469.33 P
(example of intermediate code is shown in Figure 3.) 315 457.18 T
1 F
(4.2.3 The compiler back-end) 315 433.18 T
0 F
5.35 (The compiler back-end produces the object\325s) 333 417.18 P
2.19 (binary code from the intermediate code produced by) 315 405.18 P
1.15 (the compiler front-end, and the binary code is directly) 315 393.18 P
2.12 (executed by the processor. This code is generated at) 315 381.18 P
0.98 (object creation-time, because the target run-time meta-) 315 369.18 P
3.26 (space can not be fixed before object creation-time.) 315 357.18 P
1.6 (Although the syntax analysis is done by the compiler) 315 345.18 P
3.85 (front-end, this on-the-fly code generation from the) 315 333.18 P
2.37 (intermediate code causes a performance penalty. We) 315 321.18 P
1.05 (are now considering a way to prepare compiled object) 315 309.18 P
4.49 (binary code for each u-meta-space in advance to) 315 297.18 P
(reduce this overhead.) 315 285.18 T
1.3 ( The compiler back-end is also used to reproduce) 333 273.18 P
2.92 (the object binary code when the object migrates to) 315 261.18 P
(another meta-space.) 315 249.18 T
4.8 (The compiler back-end uses the compile-time) 333 237.18 P
2.41 (meta-definition defined in the target u-meta-space to) 315 225.18 P
0.8 (generate object binary code. An example of meta-level) 315 213.18 P
1.14 (programming is shown in Figure 3. In this example, a) 315 201.03 P
2.37 (meta-space which supports non-preemptive execution) 315 189.03 P
10.4 (of methods is defined, and it is named) 315 177.03 P
9.38 (umCOOPnonPreemptive. The definition of the) 315 165.03 P
5.39 (compile-time meta-definition is programmed as a) 315 153.03 P
5 F
(compiler method) 315 141.03 T
0 F
( in the definition of the u-meta-space.) 382.49 141.03 T
1 11 Q
(4.3) 315 115.36 T
(The meta-meta-space) 333 115.36 T
0 10 Q
1.01 (Since all metaobjects are objects, the execution of) 333 99.03 P
2.82 (the metaobjects themselves is supported by a meta-) 315 87.03 P
0 0 0 1 0 0 0 K
FMENDPAGE
%%EndPage: "4" 5
%%Page: "3" 6
612 792 0 FMBEGINPAGE
[0 0 0 1 0 0 0]
[ 0 0 0 0 1 1 1]
[ 0 1 1 0 1 0 0]
[ 1 0 1 0 0 1 0]
[ 1 1 0 0 0 0 1]
[ 1 0 0 0 0 1 1]
[ 0 1 0 0 1 0 1]
[ 0 0 1 0 1 1 0]
 8 FrameSetSepColors
FrameNoSep
0 0 0 1 0 0 0 K
72 746 540 756 R
7 X
0 0 0 1 0 0 0 K
V
72 33.32 540 43.32 R
V
0 0 0 1 0 0 0 K
0 0 0 1 0 0 0 K
72 72 297 720 R
V
0 10 Q
0 X
(metaobjects reduces the system performance.) 72 713.33 T
1.87 (However, much of the modification of semantics) 90 701.33 P
1.64 (could be fixed at compile-time, and thus achieved by) 72 689.33 P
3.26 (modifying the object binary code by compiler. For) 72 677.33 P
2.19 (example, the policy of static method look-up can be) 72 665.33 P
4.53 (achieved by replacing a method table, instead of) 72 653.33 P
4.76 (looking up the table at run-time. If the cost of) 72 641.33 P
1.31 (compilation of object code is not too great, and if the) 72 629.33 P
1.02 (change of semantics rarely occurs, we could reduce or) 72 617.33 P
2.87 (eliminate the run-time overhead by this compilation) 72 605.33 P
(strategy.) 72 593.33 T
1 11 Q
(3.2) 72 567.67 T
(Run-time Meta-level Definition) 90 567.67 T
0 10 Q
2.46 (Even though the compile-time meta-definition is) 90 551.33 P
0.72 (used, run-time execution support for objects might still) 72 539.33 P
3.55 (be necessary when the semantics can not be fully) 72 527.33 P
8.52 (determined at compile-time. In such a case,) 72 515.33 P
1.19 (metaobjects take care of the run-time execution of the) 72 503.33 P
5.98 (base-level object. Since Cognac is designed for) 72 491.33 P
0.11 (Apertos, a set of metaobjects comprise a run-time meta-) 72 479.33 P
(space just as in Apertos \050Figure 2\051.) 72 467.18 T
1 11 Q
(3.3) 72 441.51 T
4.8 (Unification of Two Kinds of Meta-level) 90 441.51 P
(Definitions) 90 428.51 T
0 10 Q
1.75 (In Cognac, the definition of the semantics of the) 90 412.18 P
7.73 (base-level language and its run-time execution) 72 400.18 P
3.7 (environment are defined by the unification of two) 72 388.18 P
1.67 (kinds of meta-definitions, which is named the) 72 376.18 P
5 F
1.67 (unified) 269.22 376.18 P
0.99 (meta-space) 72 361.51 P
0 F
0.99 (, or) 117.54 361.51 P
5 F
0.99 (u-meta-space) 135.34 361.51 P
0 8 Q
0.79 (1) 189.21 365.51 P
0 10 Q
0.99 (. One part of the u-meta-) 193.21 361.51 P
3.74 (space defines how to generate object binary code,) 72 349.51 P
1.08 (which is executed by the processor directly. The other) 72 337.51 P
3.22 (part defines how to use metaobjects which support) 72 325.51 P
0.68 (execution of the object code at run-time. The former is) 72 313.51 P
1.81 (named the) 72 301.51 P
5 F
1.81 (compile-time meta-definition) 119.5 301.51 P
0 F
1.81 (, and the later) 237.13 301.51 P
5.61 (is named the) 72 289.51 P
5 F
5.61 (run-time meta-definition) 141.87 289.51 P
0 F
5.61 (, and their) 245.52 289.51 P
7.17 (definitions are documented as the) 72 277.51 P
5 F
7.17 (compile-time) 244.79 277.51 P
5.95 (metaobject protocol) 72 265.51 P
0 F
5.95 ( and the) 158.22 265.51 P
5 F
5.95 (run-time metaobject) 210.23 265.51 P
(protocol) 72 253.51 T
0 F
(.) 105.89 253.51 T
1.23 (When a compiler processes the source code of an) 90 241.51 P
2.71 (object, it selects a u-meta-space for the object. The) 72 229.51 P
0.51 (compile-time meta-level definition in this u-meta-space) 72 217.51 P
1.72 (represents how to generate the base-level object code) 72 205.51 P
1.57 (by the compiler, and includes the semantics of object) 72 193.51 P
1 (invocation, variable scope rule, class look-up rule, etc.) 72 181.51 P
5.28 (The compiler produces the code along with the) 72 169.51 P
4.35 (definition. For example, the compiler may simply) 72 157.51 P
2.21 (produces procedure call instructions for local object) 72 142.85 P
0 8 Q
1.77 (2) 293 146.85 P
72 122 297 137 C
0 0 0 1 0 0 0 K
0 0 0 1 0 0 0 K
81 135 225 135 2 L
0.5 H
2 Z
0 X
0 0 0 1 0 0 0 K
N
0 0 612 792 C
0 8 Q
0 X
0 0 0 1 0 0 0 K
(1.) 90 116.67 T
(Note that the Cognac u-meta-space is both a program-) 102 116.67 T
(ming-time and a run-time concept, and is dif) 102 106.67 T
(ferent) 244.5 106.67 T
(from the usual \050Apertos\051 meta-space. The latter) 102 96.67 T
(includes only run-time environments.) 102 86.67 T
(2.) 90 76.67 T
(an object located in the same meta-space) 102 76.67 T
315 72 540 720 R
7 X
V
0 10 Q
0 X
1.43 (invocation. Thus an object is invoked without context) 315 425.33 P
(switching inside the meta-space.) 315 413.33 T
5.06 (The compiler may also generate code which) 333 401.33 P
1.25 (invokes run-time metaobjects, defined by the run-time) 315 389.33 P
0.75 (meta-level definition, when run-time control is needed.) 315 377.33 P
1.64 (These metaobjects are also compiled, and are used at) 315 365.33 P
2.64 (run-time to support base-level object execution. The) 315 353.33 P
1.53 (invocation of the metaobject is initiated by the object) 315 341.33 P
1.22 (binary code, which is produced by the compiler along) 315 329.33 P
6.34 (with the compile-time meta-level definition. For) 315 317.33 P
3.01 (example, the compiler may produces instructions to) 315 305.33 P
2.58 (invoke the run-time) 315 293.33 P
5 F
2.58 (mailer) 404.13 293.33 P
0 F
2.58 ( metaobject for an object) 430.24 293.33 P
1.32 (invocation. Then, the mailer metaobject will take care) 315 281.33 P
0.87 (of message sending to target objects at run-time, when) 315 269.33 P
0.39 (the sender object invokes a remote object) 315 254.67 P
0 8 Q
0.31 (3) 482.88 258.67 P
0 10 Q
0.39 (. In Figure 2,) 486.88 254.67 P
2.27 (O1 and O2 are compiled with scheduling meta-level) 315 242.67 P
2.93 (code, so if O1 invokes O2, O2 is directly invoked) 315 230.67 P
(instead of using the Mailer and Scheduler1 metaobjects.) 315 218.67 T
1 12 Q
(4) 315 191.33 T
(Cognac Architecture) 333 191.33 T
1 11 Q
(4.1) 315 165 T
(Base-language Syntax) 333 165 T
0 10 Q
12.45 (Cognac\325s base-level language syntax is) 333 148.67 P
1.11 (intentionally similar to that of Smalltalk-80[5]. This is) 315 136.51 P
3.33 (for two reasons. First, Smalltalk is well-known, so) 315 124.51 P
4.45 (programmers can easily become familiar with the) 315 112.51 P
0.74 (Cognac language. Secondly, the Smalltalk-80 syntax is) 315 100.51 P
315 82 540 97 C
0 0 0 1 0 0 0 K
0 0 0 1 0 0 0 K
324 95 468 95 2 L
0.5 H
2 Z
0 X
0 0 0 1 0 0 0 K
N
0 0 612 792 C
0 8 Q
0 X
0 0 0 1 0 0 0 K
(3.) 333 76.67 T
(an object located in other meta-spaces) 345 76.67 T
315 72 540 720 C
315.56 432 539.44 720 C
0 0 0 1 0 0 0 K
0 0 0 1 0 0 0 K
6 X
0 0 0 1 0 0 0 K
90 450 68.62 36 399.1 617.63 G
0.5 H
0 Z
0 X
90 450 68.62 36 399.1 617.63 A
6 X
90 450 66.44 36 462.16 626.63 G
0 X
90 450 66.44 36 462.16 626.63 A
6 X
90 450 63 36 440.73 523 G
0 X
90 450 63 36 440.73 523 A
387.54 595.63 433.54 553.63 2 L
3 H
2 Z
N
442.54 604.63 433.54 553.63 2 L
N
491.54 609.63 434.54 553.63 2 L
N
469.75 606 516 615.37 4.69 RR
3 X
V
0.5 H
0 X
N
472.23 608.5 514.85 626.5 9 RR
7 X
V
0 Z
0 X
N
358 590.87 404.25 600.25 4.69 RR
3 X
V
2 Z
0 X
N
358.98 593 401.6 611 9 RR
7 X
V
0 Z
0 X
N
483.75 684.5 513.75 694.5 5 RR
3 X
V
2 Z
0 X
N
432.5 686.37 463.13 695.75 4.69 RR
3 X
V
0 X
N
341.25 673.87 413.13 683.25 4.69 RR
3 X
V
0 X
N
393.54 652.63 400.18 687.63 2 L
3 H
N
324.56 450 531.56 459 R
7 X
V
3 10 Q
0 X
(Figure 2: Cognac Run-time Architecture) 333.33 452.33 T
358.18 675.63 392.54 652.63 2 L
N
384.6 678.88 411.6 696.88 9 RR
7 X
V
0.5 H
0 Z
0 X
N
466.73 630.88 509.35 648.88 9 RR
7 X
V
0 X
N
342.73 676.63 369.73 694.63 9 RR
7 X
V
0 X
N
433.73 689.63 460.73 707.63 9 RR
7 X
V
0 X
N
485.73 688.63 512.73 706.63 9 RR
7 X
V
0 X
N
446.73 506.63 473.73 524.63 9 RR
7 X
V
0 X
N
402.73 518.63 429.73 536.63 9 RR
7 X
V
0 X
N
463.54 661.63 449.73 689.63 2 L
3 H
2 Z
N
464.54 661.63 494.73 689.63 2 L
N
348.41 603.63 344.41 576.63 2 L
0.5 H
N
386.54 527.63 359.54 560.63 2 L
N
2 9 Q
(Meta-space) 334.54 563.63 T
325.48 474.63 532.77 718.63 R
0 Z
N
0 10 Q
(O1) 351.23 682.92 T
(O3) 442.48 695.38 T
0 8 Q
(Segment1) 365.48 599.13 T
(Segment2) 478.11 616.5 T
J
7 X
90 450 32.31 7.62 462.67 660.75 G
2 Z
0 X
90 450 32.31 7.62 462.67 660.75 A
0 10 Q
(reflectorB) 444.7 658.12 T
(O2) 392.36 683.67 T
(O4) 494.23 694.88 T
J
7 X
90 450 32.31 7.62 395.05 652.75 G
0 X
90 450 32.31 7.62 395.05 652.75 A
(reflectorA) 374.7 651.25 T
349.73 619.75 392.35 637.75 9 RR
7 X
V
0 Z
0 X
N
417.6 601.88 460.23 619.88 9 RR
7 X
V
0 X
N
406.23 624.5 448.85 642.5 9 RR
7 X
V
0 X
N
7 X
90 450 32.31 7.62 435.05 556.5 G
2 Z
0 X
90 450 32.31 7.62 435.05 556.5 A
508.75 608.25 509.38 577.62 2 L
N
0 7 Q
(Compiled) 495 569.5 T
(Meta-level) 495 561.37 T
(Code) 496.88 553.25 T
0 8 Q
(Mailer) 417.36 629.25 T
(Scheduler1) 353.98 626.13 T
(Scheduler2) 469.48 637.63 T
(Namer) 429.73 609.38 T
J
315 72 540 720 C
0 0 612 792 C
0 0 0 1 0 0 0 K
FMENDPAGE
%%EndPage: "3" 6
%%Page: "2" 7
612 792 0 FMBEGINPAGE
[0 0 0 1 0 0 0]
[ 0 0 0 0 1 1 1]
[ 0 1 1 0 1 0 0]
[ 1 0 1 0 0 1 0]
[ 1 1 0 0 0 0 1]
[ 1 0 0 0 0 1 1]
[ 0 1 0 0 1 0 1]
[ 0 0 1 0 1 1 0]
 8 FrameSetSepColors
FrameNoSep
0 0 0 1 0 0 0 K
72 746 540 756 R
7 X
0 0 0 1 0 0 0 K
V
72 33.32 540 43.32 R
V
0 0 0 1 0 0 0 K
0 0 0 1 0 0 0 K
72 72 297 720 R
V
1 11 Q
0 X
(2.1) 72 712.67 T
5.15 (Meta-level Definition in Object-Oriented) 90 712.67 P
(Programming Languages) 90 699.67 T
0 10 Q
4.47 (Existing reflective object-oriented programming) 90 683.33 P
2.76 (languages, such as CLOS[3] and OpenC++[4], have) 72 671.18 P
1.71 (been implemented to provide a way for programmers) 72 659.18 P
0.48 (to modify or program metaobjects. Metaobjects exist at) 72 647.18 P
5.43 (run-time to manage base-level objects' execution.) 72 635.18 P
3.46 (Since the basic metaobjects are pre-defined by the) 72 623.18 P
4.8 (language and since the protocol of the usage is) 72 611.18 P
8.23 (documented as a Metaobject Protocol \050MOP\051,) 72 599.18 P
2.78 (programmers can add to it or modify it easily. For) 72 587.18 P
0.64 (example, the) 72 575.18 P
5 F
0.64 (Meta_MethodCall) 126.89 575.18 P
0 F
0.64 ( metaobject's method in) 200.22 575.18 P
5.44 (OpenC++ is invoked when the base-level object) 72 563.18 P
0.94 (invokes a method, and the programmer need modify it) 72 551.18 P
(only once to produce debug code[4].) 72 539.03 T
2.17 (The ABCL/R2[8] reflective programming system) 90 526.87 P
3.02 (has a notion of group meta-system, which supports) 72 514.87 P
9.32 (common meta-resource management for group) 72 502.87 P
4.22 (member objects. The implementation of ABCL/R2) 72 490.87 P
2.73 (includes implementation techniques to get efficiency) 72 478.87 P
2.34 (using partial compilation and light-weight objects[8].) 72 466.72 P
5.23 (By using partial compilation, some non-reflective) 72 454.72 P
8.06 (operations are statically compiled without any) 72 442.72 P
2.29 (reflective feature, to eliminate unnecessary overhead.) 72 430.72 P
3.8 (Light-weight objects are directly invoked from the) 72 418.72 P
11.16 (caller's execution context. The non-reflective) 72 406.72 P
2.14 (operations and the light-weight objects, however, are) 72 394.72 P
1.57 (statically determined by the compiler, and there is no) 72 382.72 P
(user-definable flexibility in the compiler.) 72 370.72 T
1 11 Q
(2.2) 72 345.05 T
( Meta-level Architecture in Apertos) 90 345.05 T
0 10 Q
2.72 (In Apertos, a set of metaobjects called a meta-) 90 328.72 P
2.41 (space defines the run-time execution environment of) 72 316.72 P
2.47 (each object \050Figure 1\051. Multiple objects can share a) 72 304.57 P
2.1 (meta-space and meta-spaces can overlap. Each meta-) 72 292.57 P
2.26 (space has a interface to its supported objects, which) 72 280.57 P
6.21 (includes meta-level operations such as) 72 268.57 P
5 F
6.21 (Call) 259.4 268.57 P
0 F
6.21 ( for) 276.63 268.57 P
3.94 (synchronous message sending, and) 72 256.57 P
5 F
3.94 (New) 230.24 256.57 P
0 F
3.94 ( for object) 248.02 256.57 P
1.44 (creation. These operations are invoked from the base-) 72 244.57 P
2.36 (level object code which is compiled from a C++ or) 72 232.57 P
1.89 (MC++ source program, and are handled by a special) 72 220.57 P
(metaobject named the) 72 208.57 T
5 F
(reflector) 162.26 208.57 T
0 F
(.) 196.7 208.57 T
2.94 (In Figure 1, O1 and O2 are objects which are) 90 196.41 P
2.3 (supported by meta-space MS1. MS1 is composed of) 72 184.41 P
8.27 (metaobjects Schuduler1, Segment1, Mailer, and) 72 172.41 P
0.98 (Namer. O3 and O4 are supported by meta-space MS2,) 72 160.41 P
4.63 (which is composed of the Scheduler2, Segment2,) 72 148.41 P
3.74 (Mailer and Namer metaobjects. When O1 sends a) 72 136.41 P
4.21 (message to O3, the Mailer metaobject is invoked) 72 124.41 P
2.37 (through reflectorA to pass the message to the target) 72 112.41 P
0.32 (object. The message is eventually passed to O3 through) 72 100.41 P
(reflectorB when the Scheduler2 schedules O3.) 72 88.41 T
0.39 (The actual computation of the operation is done by) 90 76.41 P
315 72 540 720 R
7 X
V
0 X
1.16 (the metaobjects which comprise the meta-space. Since) 315 434.33 P
0.6 (all metaobjects are also objects, a base-level object can) 315 422.33 P
5.09 (modify its execution environment at run-time by) 315 410.33 P
5.12 (simply sending messages via the reflector to its) 315 398.33 P
(metaobjects.) 315 386.33 T
3.08 (The meta-space and its interface, which clearly) 333 374.33 P
1.04 (separates the meta-level from the base-level, allow the) 315 362.33 P
0.52 (programmer to create an object with variable execution) 315 350.33 P
3.66 (environments, varied by simply specifying a meta-) 315 338.33 P
1.19 (space at object creation time or at run-time. However,) 315 326.33 P
2.04 (the compiled binary code is fixed, so that the object) 315 314.33 P
4.03 (can migrate only to a new meta-space where the) 315 302.33 P
1.3 (interface is compatible. Also, all meta-level behaviour) 315 290.33 P
1.45 (is defined by the metaobjects, at run-time, so that the) 315 278.33 P
(system performance is relatively poor.) 315 266.33 T
1 12 Q
(3) 315 239 T
2.46 (Compile-time and Run-time meta-level) 333 239 P
(definitions) 333 225 T
1 11 Q
(3.1) 315 198.67 T
(Compile-time Meta-level Definition) 333 198.67 T
0 10 Q
5.51 (Reflective programming languages provide us) 333 182.33 P
1.32 (with the ability to modify the language semantics and) 315 170.33 P
8.12 (the object execution environment, by defining) 315 158.33 P
1.71 (metaobjects which support the execution of an object) 315 146.33 P
4.27 (at run-time. However, most such languages suffer) 315 134.33 P
0.6 (performance penalties due to the increase in meta-level) 315 122.33 P
1.84 (computation at run-time. This is because most of the) 315 110.33 P
1.05 (decisions about semantics are made at run-time by the) 315 98.33 P
8.2 (metaobjects, and the overhead to invoke the) 315 86.33 P
315 72 540 720 C
316.16 441 538.84 720 C
0 0 0 1 0 0 0 K
0 0 0 1 0 0 0 K
6 X
0 0 0 1 0 0 0 K
90 450 66.62 39.5 400.78 615.5 G
0.5 H
0 Z
0 X
90 450 66.62 39.5 400.78 615.5 A
6 X
90 450 63.88 44 463.28 620 G
0 X
90 450 63.88 44 463.28 620 A
6 X
90 450 63 36 440.4 524.38 G
0 X
90 450 63 36 440.4 524.38 A
387.21 597 433.21 555 2 L
3 H
2 Z
N
442.21 606 433.21 555 2 L
N
491.21 611 434.21 555 2 L
N
466.4 632.25 509.03 650.25 9 RR
7 X
V
0.5 H
0 Z
0 X
N
446.4 508 473.4 526 9 RR
7 X
V
0 X
N
402.4 520 429.4 538 9 RR
7 X
V
0 X
N
471.9 609.88 514.53 627.88 9 RR
7 X
V
0 X
N
417.28 603.25 459.9 621.25 9 RR
7 X
V
0 X
N
405.9 625.88 448.53 643.88 9 RR
7 X
V
0 X
N
358.65 594.38 401.28 612.38 9 RR
7 X
V
0 X
N
349.4 621.12 392.03 639.12 9 RR
7 X
V
0 X
N
357.85 677 392.21 654 2 L
3 H
2 Z
N
387.4 689 414.4 707 9 RR
0.5 H
0 Z
N
342.4 678 369.4 696 9 RR
N
433.4 691 460.4 709 9 RR
N
485.4 690 512.4 708 9 RR
N
393.21 654 399.85 689 2 L
3 H
2 Z
N
463.21 663 449.4 691 2 L
N
464.21 663 494.4 691 2 L
N
325.16 476 532.44 720 R
0.5 H
0 Z
N
325.16 459 532.16 468 R
7 X
V
3 10 Q
0 X
(Figure 1: Apertos Meta-level Architecture) 330.86 461.33 T
0 F
(O1) 350.91 684.29 T
(O3) 442.16 696.75 T
0 8 Q
(Mailer) 417.04 630.62 T
(Scheduler1) 353.66 627.5 T
(Scheduler2) 469.16 639 T
(Segment1) 365.16 600.5 T
(Segment2) 477.79 617.88 T
(Namer) 429.41 610.75 T
J
7 X
90 450 32.31 7.62 462.35 662.12 G
2 Z
0 X
90 450 32.31 7.62 462.35 662.12 A
0 10 Q
(reflectorB) 444.38 659.5 T
(O2) 395.79 694.42 T
(O4) 493.91 696.25 T
J
7 X
90 450 32.31 7.62 394.72 654.12 G
0 X
90 450 32.31 7.62 394.72 654.12 A
(reflectorA) 374.38 652.62 T
7 X
90 450 32.31 7.62 434.72 557.87 G
0 X
90 450 32.31 7.62 434.72 557.87 A
1 14 Q
(MS2) 494.16 587 T
(MS1) 335.16 585 T
(MS3) 479.16 497 T
315 72 540 720 C
0 0 612 792 C
0 0 0 1 0 0 0 K
FMENDPAGE
%%EndPage: "2" 7
%%Page: "1" 8
612 792 0 FMBEGINPAGE
[0 0 0 1 0 0 0]
[ 0 0 0 0 1 1 1]
[ 0 1 1 0 1 0 0]
[ 1 0 1 0 0 1 0]
[ 1 1 0 0 0 0 1]
[ 1 0 0 0 0 1 1]
[ 0 1 0 0 1 0 1]
[ 0 0 1 0 1 1 0]
 8 FrameSetSepColors
FrameNoSep
0 0 0 1 0 0 0 K
72 746 540 756 R
7 X
0 0 0 1 0 0 0 K
V
72 33.32 540 43.32 R
V
0 0 0 1 0 0 0 K
0 0 0 1 0 0 0 K
72 540 540 720 R
V
1 14 Q
0 X
(Uni\336cation of Compile-time and Run-time Metaobject Pr) 114.43 672.67 T
(otocols) 456.35 672.67 T
0 12 Q
(Kenichi Murata) 165.22 637.8 T
0 9.6 Q
(1,2) 240.86 642.6 T
0 12 Q
(, R. Nigel Horspool) 252.86 637.8 T
0 9.6 Q
(2) 347.2 642.6 T
0 12 Q
(, Eric G. Manning) 352 637.8 T
0 9.6 Q
(2) 438.98 642.6 T
0 12 Q
(,) 443.78 637.8 T
(Y) 211.57 620.6 T
(asuhiko Y) 219.03 620.6 T
(okote) 266.83 620.6 T
0 9.6 Q
(3) 293.49 625.4 T
0 12 Q
( and Mario T) 298.29 620.6 T
(okoro) 360.44 620.6 T
0 9.6 Q
(1,3) 388.43 625.4 T
0 12 Q
(1\051 Department of Computer Science, Keio University) 161.25 592.6 T
(, Japan) 417.43 592.6 T
(2\051 Department of Computer Science, University of V) 142.39 578.6 T
(ictoria, Canada) 396.96 578.6 T
(3\051 Sony Computer Science Laboratory Inc., Japan) 186.02 564.6 T
72 72 297 531 R
7 X
V
1 11 Q
0 X
(Abstract) 164.04 523.67 T
5 10 Q
4.89 (In this paper, we propose the unification of) 90 511.33 P
7.37 (compile-time and run-time Metaobject Protocols) 72 499.33 P
3.02 (\050MOPs\051, to improve the efficiency and flexibility of) 72 487.33 P
1.72 (object-oriented operating systems. We also propose a) 72 475.33 P
1.39 (reflective programming system, named Cognac, which) 72 463.33 P
0.36 (employs unified MOPs and provides language and run-) 72 451.33 P
8.95 (time facilities for the Apertos object-oriented) 72 439.33 P
2.22 (distributed operating system. In Cognac, each object) 72 427.33 P
0.83 (has a single unified meta-space which defines both the) 72 415.33 P
2.78 (semantics of the source programming language and) 72 403.33 P
0.4 (the execution environment for the object. The definition) 72 391.33 P
4.33 (of the unified meta-space comprises two parts: a) 72 379.33 P
4.5 (compile-time meta-definition which defines how to) 72 367.33 P
1.08 (generate the object binary code, and a run-time meta-) 72 355.33 P
7.39 (definition which defines the run-time execution) 72 343.33 P
1.71 (environment of the object code. Using this technique,) 72 331.33 P
1.74 (the unification of active and passive objects can also) 72 319.33 P
2.41 (be achieved. With this unification, programmers can) 72 307.33 P
4.17 (concentrate on programming an algorithm without) 72 295.33 P
0.8 (having to consider how objects are used and executed.) 72 283.33 P
(Also, distributed objects can be more easily migrated.) 72 271.33 T
1 12 Q
(1) 72 244 T
(Introduction) 90 244 T
0 10 Q
0.8 (Apertos[1] is a reflective object-oriented operating) 90 227.18 P
1.31 (system in which the execution environment of objects) 72 215.18 P
3.42 (is defined by run-time metaobjects. In the Apertos) 72 203.18 P
5.02 (project, C++ had been used to program objects.) 72 191.18 P
2.76 (Apertos active objects were defined as sets of C++) 72 179.18 P
5 (objects, so that the granularity of objects varied) 72 167.18 P
1.02 (depending on the program. However, grouping objects) 72 155.18 P
1.35 (and representing active objects were difficult, because) 72 143.18 P
0.9 (an Apertos active object was not a C++ object, so that) 72 131.18 P
3.13 (the programmer needed to write stub code to send) 72 119.18 P
(messages between active objects.) 72 107.18 T
8.15 (To reduce this complexity, MC++[2] was) 90 95.03 P
2.27 (introduced. In MC++, the active keyword is used to) 72 83.03 P
315 72 540 531 R
7 X
V
0 X
1.27 (specify an active class \050an instance of the active class) 315 524.33 P
5.49 (is an active object\051. In an active object, many) 315 512.33 P
3.99 (traditional C++ objects can be defined as internal) 315 500.33 P
2.54 (instance data, which is passive and directly invoked) 315 488.33 P
6.34 (without dispatching an execution context. Using) 315 476.33 P
2.52 (MC++, the programmer can program with the usual) 315 464.33 P
4.15 (C++ syntax to send a message to Apertos active) 315 452.33 P
5.34 (objects, as well as invoke passive C++ objects.) 315 440.33 P
0.37 (However, there are some problems with MC++. First, a) 315 428.33 P
1.89 (pointer to a passive object cannot be passed to other) 315 416.33 P
4.56 (active objects, because mutual exclusion problems) 315 404.33 P
4.42 (occur if a method code of the passive object is) 315 392.33 P
2.84 (executed by more than one active objects' contexts.) 315 380.33 P
0.42 (Secondly, a passive object cannot migrate, because it is) 315 368.33 P
1.58 (statically compiled into an active object's code and is) 315 356.33 P
(therefore not seen as an object by the operating system.) 315 344.33 T
0.73 (From our experience in programming with MC++,) 333 332.33 P
2.94 (we felt that there is great need for a programming) 315 320.33 P
1.81 (system where all objects are viewed as equal entities) 315 308.33 P
3.89 (and have equal ability to migrate to find suitable) 315 296.33 P
1.07 (execution environments. To achieve this unification of) 315 284.33 P
2.12 (active and passive objects, it is necessary to provide) 315 272.33 P
2.22 (not only suitable support for run-time execution, but) 315 260.33 P
(also control of object code generation.) 315 248.33 T
2.43 (In this paper, we introduce a new programming) 333 236.33 P
1.73 (language and translation/execution support system for) 315 224.33 P
9.62 (Apertos, called Cognac. It provides portable) 315 212.33 P
8.96 (intermediate method code, method compilation) 315 200.33 P
(depending on the meta-level definition, and reflection.) 315 188.33 T
1 12 Q
(2) 315 161 T
7.34 (Meta-level Control in Programming) 333 161 P
(Languages and Operating Systems) 333 147 T
0 10 Q
0.93 (In this section, we review some existing reflective) 333 130.33 P
7.84 (languages which employ meta-level control of) 315 118.33 P
1.67 (language semantics and of the execution environment) 315 106.33 P
0.39 (of objects. We also review the reflective architecture of) 315 94.33 P
(Apertos.) 315 82.33 T
0 0 0 1 0 0 0 K
FMENDPAGE
%%EndPage: "1" 8
%%Trailer
%%BoundingBox: 0 0 612 792
%%PageOrder: Descend
%%Pages: 8
%%DocumentFonts: Times-Roman
%%+ Times-Bold
%%+ Helvetica
%%+ Helvetica-Bold
%%+ Courier
%%+ Times-Italic
%%EOF
