%!PS-Adobe-3.0
%%BoundingBox: (atend)
%%Pages: (atend)
%%PageOrder: (atend)
%%DocumentFonts: (atend)
%%Creator: Frame 4.0
%%DocumentData: Clean7Bit
%%EndComments
%%BeginProlog
%
% Frame ps_prolog 4.0, for use with Frame 4.0 products
% This ps_prolog file is Copyright (c) 1986-1993 Frame Technology
% Corporation.  All rights reserved.  This ps_prolog file may be
% freely copied and distributed in conjunction with documents created
% using FrameMaker, FrameBuilder and FrameViewer as long as this 
% copyright notice is preserved.
%
% Frame products normally print colors as their true color on a color printer
% or as shades of gray, based on luminance, on a black-and white printer. The
% following flag, if set to True, forces all non-white colors to print as pure
% black. This has no effect on bitmap images.
/FMPrintAllColorsAsBlack             false def
%
% Frame products can either set their own line screens or use a printer's 
% default settings. Three flags below control this separately for no 
% separations, spot separations and process separations. If a flag
% is true, then the default printer settings will not be changed. If it is
% false, Frame products will use their own settings from a table based on
% the printer's resolution.
/FMUseDefaultNoSeparationScreen      true  def
/FMUseDefaultSpotSeparationScreen    true  def
/FMUseDefaultProcessSeparationScreen false def
%
% For any given PostScript printer resolution, Frame products have two sets of 
% screen angles and frequencies for printing process separations, which are 
% recomended by Adobe. The following variable chooses the higher frequencies
% when set to true or the lower frequencies when set to false. This is only
% effective if the appropriate FMUseDefault...SeparationScreen flag is false.
/FMUseHighFrequencyScreens true def
%
% PostScript Level 2 printers contain an "Accurate Screens" feature which can
% improve process separation rendering at the expense of compute time. This 
% flag is ignored by PostScript Level 1 printers.
/FMUseAcccurateScreens true def
%
% The following PostScript procedure defines the spot function that Frame
% products will use for process separations. You may un-comment-out one of
% the alternative functions below, or use your own.
%
% Dot function
/FMSpotFunction {abs exch abs 2 copy add 1 gt 
		{1 sub dup mul exch 1 sub dup mul add 1 sub }
		{dup mul exch dup mul add 1 exch sub }ifelse } def
%
% Line function
% /FMSpotFunction { pop } def
%
% Elipse function
% /FMSpotFunction { dup 5 mul 8 div mul exch dup mul exch add 
%		sqrt 1 exch sub } def
%
%
/FMversion (4.0) def 
/FMLevel1 /languagelevel where {pop languagelevel} {1} ifelse 2 lt def
/FMPColor
	FMLevel1 {
		false
		/colorimage where {pop pop true} if
	} {
		true
	} ifelse
def
/FrameDict 400 dict def 
systemdict /errordict known not {/errordict 10 dict def
		errordict /rangecheck {stop} put} if
% The readline in PS 23.0 doesn't recognize cr's as nl's on AppleTalk
FrameDict /tmprangecheck errordict /rangecheck get put 
errordict /rangecheck {FrameDict /bug true put} put 
FrameDict /bug false put 
mark 
% Some PS machines read past the CR, so keep the following 3 lines together!
currentfile 5 string readline
00
0000000000
cleartomark 
errordict /rangecheck FrameDict /tmprangecheck get put 
FrameDict /bug get { 
	/readline {
		/gstring exch def
		/gfile exch def
		/gindex 0 def
		{
			gfile read pop 
			dup 10 eq {exit} if 
			dup 13 eq {exit} if 
			gstring exch gindex exch put 
			/gindex gindex 1 add def 
		} loop
		pop 
		gstring 0 gindex getinterval true 
		} bind def
	} if
/FMshowpage /showpage load def
/FMquit /quit load def
/FMFAILURE { 
	dup = flush 
	FMshowpage 
	/Helvetica findfont 12 scalefont setfont
	72 200 moveto
	show FMshowpage 
	FMquit 
	} def 
/FMVERSION {
	FMversion ne {
		(Frame product version does not match ps_prolog!) FMFAILURE
		} if
	} def 
/FMBADEPSF { 
	(PostScript Lang. Ref. Man., 2nd Ed., H.2.4 says EPS must not call X              )
	dup dup (X) search pop exch pop exch pop length 
	4 -1 roll 
	putinterval 
	FMFAILURE
	} def
/FMLOCAL {
	FrameDict begin
	0 def 
	end 
	} def 
/concatprocs
	{
	/proc2 exch cvlit def/proc1 exch cvlit def/newproc proc1 length proc2 length add array def
	newproc 0 proc1 putinterval newproc proc1 length proc2 putinterval newproc cvx
}def
FrameDict begin 
/FMnone 0 def
/FMcyan 1 def
/FMmagenta 2 def
/FMyellow 3 def
/FMblack 4 def
/FMcustom 5 def
/FrameNegative false def 
/FrameSepIs FMnone def 
/FrameSepBlack 0 def
/FrameSepYellow 0 def
/FrameSepMagenta 0 def
/FrameSepCyan 0 def
/FrameSepRed 1 def
/FrameSepGreen 1 def
/FrameSepBlue 1 def
/FrameCurGray 1 def
/FrameCurPat null def
/FrameCurColors [ 0 0 0 1 0 0 0 ] def 
/FrameColorEpsilon .001 def	
/eqepsilon {		
	sub dup 0 lt {neg} if
	FrameColorEpsilon le
} bind def
/FrameCmpColorsCMYK { 
	2 copy 0 get exch 0 get eqepsilon {
		2 copy 1 get exch 1 get eqepsilon {
			2 copy 2 get exch 2 get eqepsilon {
				3 get exch 3 get eqepsilon
			} {pop pop false} ifelse
		}{pop pop false} ifelse
	} {pop pop false} ifelse
} bind def
/FrameCmpColorsRGB { 
	2 copy 4 get exch 0 get eqepsilon {
		2 copy 5 get exch 1 get eqepsilon {
			6 get exch 2 get eqepsilon
		}{pop pop false} ifelse
	} {pop pop false} ifelse
} bind def
/RGBtoCMYK { 
	1 exch sub 
	3 1 roll 
	1 exch sub 
	3 1 roll 
	1 exch sub 
	3 1 roll 
	3 copy 
	2 copy 
	le { pop } { exch pop } ifelse 
	2 copy 
	le { pop } { exch pop } ifelse 
	dup dup dup 
	6 1 roll 
	4 1 roll 
	7 1 roll 
	sub 
	6 1 roll 
	sub 
	5 1 roll 
	sub 
	4 1 roll 
} bind def
/CMYKtoRGB { 
	dup dup 4 -1 roll add 						  
	5 1 roll 3 -1 roll add 						  
	4 1 roll add 								  
	1 exch sub dup 0 lt {pop 0} if 3 1 roll 	  
	1 exch sub dup 0 lt {pop 0} if exch 	      
	1 exch sub dup 0 lt {pop 0} if exch	  		  
} bind def
/FrameSepInit {
	1.0 RealSetgray
} bind def
/FrameSetSepColor { 
	/FrameSepBlue exch def
	/FrameSepGreen exch def
	/FrameSepRed exch def
	/FrameSepBlack exch def
	/FrameSepYellow exch def
	/FrameSepMagenta exch def
	/FrameSepCyan exch def
	/FrameSepIs FMcustom def
	setCurrentScreen	
} bind def
/FrameSetCyan {
	/FrameSepBlue 1.0 def
	/FrameSepGreen 1.0 def
	/FrameSepRed 0.0 def
	/FrameSepBlack 0.0 def
	/FrameSepYellow 0.0 def
	/FrameSepMagenta 0.0 def
	/FrameSepCyan 1.0 def
	/FrameSepIs FMcyan def
	setCurrentScreen	
} bind def
 
/FrameSetMagenta {
	/FrameSepBlue 1.0 def
	/FrameSepGreen 0.0 def
	/FrameSepRed 1.0 def
	/FrameSepBlack 0.0 def
	/FrameSepYellow 0.0 def
	/FrameSepMagenta 1.0 def
	/FrameSepCyan 0.0 def
	/FrameSepIs FMmagenta def
	setCurrentScreen
} bind def
 
/FrameSetYellow {
	/FrameSepBlue 0.0 def
	/FrameSepGreen 1.0 def
	/FrameSepRed 1.0 def
	/FrameSepBlack 0.0 def
	/FrameSepYellow 1.0 def
	/FrameSepMagenta 0.0 def
	/FrameSepCyan 0.0 def
	/FrameSepIs FMyellow def
	setCurrentScreen
} bind def
 
/FrameSetBlack {
	/FrameSepBlue 0.0 def
	/FrameSepGreen 0.0 def
	/FrameSepRed 0.0 def
	/FrameSepBlack 1.0 def
	/FrameSepYellow 0.0 def
	/FrameSepMagenta 0.0 def
	/FrameSepCyan 0.0 def
	/FrameSepIs FMblack def
	setCurrentScreen
} bind def
 
/FrameNoSep { 
	/FrameSepIs FMnone def
	setCurrentScreen
} bind def
/FrameSetSepColors { 
	FrameDict begin
	[ exch 1 add 1 roll ]
	/FrameSepColors  
	exch def end
	} bind def
/FrameColorInSepListCMYK { 
	FrameSepColors {  
       		exch dup 3 -1 roll 
       		FrameCmpColorsCMYK 
       		{ pop true exit } if
    	} forall 
	dup true ne {pop false} if
	} bind def
/FrameColorInSepListRGB { 
	FrameSepColors {  
       		exch dup 3 -1 roll 
       		FrameCmpColorsRGB 
       		{ pop true exit } if
    	} forall 
	dup true ne {pop false} if
	} bind def
/RealSetgray /setgray load def
/RealSetrgbcolor /setrgbcolor load def
/RealSethsbcolor /sethsbcolor load def
end 
/setgray { 
	FrameDict begin
	FrameSepIs FMnone eq
		{ RealSetgray } 
		{ 
		FrameSepIs FMblack eq 
			{ RealSetgray } 
			{ FrameSepIs FMcustom eq 
			  FrameSepRed 0 eq and
			  FrameSepGreen 0 eq and
			  FrameSepBlue 0 eq and {
			  	RealSetgray
			  } {
				1 RealSetgray pop 
			  } ifelse
			} ifelse
		} ifelse
	end
} bind def
/setrgbcolor { 
	FrameDict begin
	FrameSepIs FMnone eq
	{  RealSetrgbcolor }
	{
		3 copy [ 4 1 roll ] 
		FrameColorInSepListRGB
		{
				FrameSepBlue eq exch 
			 	FrameSepGreen eq and exch 
			 	FrameSepRed eq and
			 	{ 0 } { 1 } ifelse
		}
		{
			FMPColor {
				RealSetrgbcolor
				currentcmykcolor
			} {
				RGBtoCMYK
			} ifelse
			FrameSepIs FMblack eq
			{1.0 exch sub 4 1 roll pop pop pop} {
			FrameSepIs FMyellow eq
			{pop 1.0 exch sub 3 1 roll pop pop} {
			FrameSepIs FMmagenta eq
			{pop pop 1.0 exch sub exch pop } {
			FrameSepIs FMcyan eq
			{pop pop pop 1.0 exch sub } 
			{pop pop pop pop 1} ifelse } ifelse } ifelse } ifelse 
		} ifelse
		RealSetgray
	} 
	ifelse
	end
} bind def
/sethsbcolor {
	FrameDict begin
	FrameSepIs FMnone eq 
	{ RealSethsbcolor } 
	{
		RealSethsbcolor 
		currentrgbcolor  
		setrgbcolor 
	} 
	ifelse
	end
} bind def
FrameDict begin
/setcmykcolor where {
	pop /RealSetcmykcolor /setcmykcolor load def
} {
	/RealSetcmykcolor {
		4 1 roll
		3 { 3 index add 0 max 1 min 1 exch sub 3 1 roll} repeat 
		setrgbcolor pop
	} bind def
} ifelse
userdict /setcmykcolor { 
		FrameDict begin
		FrameSepIs FMnone eq
		{ RealSetcmykcolor } 
		{
			4 copy [ 5 1 roll ]
			FrameColorInSepListCMYK
			{
				FrameSepBlack eq exch 
				FrameSepYellow eq and exch 
				FrameSepMagenta eq and exch 
				FrameSepCyan eq and 
				{ 0 } { 1 } ifelse
			}
			{
				FrameSepIs FMblack eq
				{1.0 exch sub 4 1 roll pop pop pop} {
				FrameSepIs FMyellow eq
				{pop 1.0 exch sub 3 1 roll pop pop} {
				FrameSepIs FMmagenta eq
				{pop pop 1.0 exch sub exch pop } {
				FrameSepIs FMcyan eq
				{pop pop pop 1.0 exch sub } 
				{pop pop pop pop 1} ifelse } ifelse } ifelse } ifelse 
			} ifelse
			RealSetgray
		}
		ifelse
		end
	} bind put
FMLevel1 not { 
	
	/patProcDict 5 dict dup begin
		<0f1e3c78f0e1c387> { 3 setlinewidth -1 -1 moveto 9 9 lineto stroke 
											4 -4 moveto 12 4 lineto stroke
											-4 4 moveto 4 12 lineto stroke} bind def
		<0f87c3e1f0783c1e> { 3 setlinewidth -1 9 moveto 9 -1 lineto stroke 
											-4 4 moveto 4 -4 lineto stroke
											4 12 moveto 12 4 lineto stroke} bind def
		<8142241818244281> { 1 setlinewidth -1 9 moveto 9 -1 lineto stroke
											-1 -1 moveto 9 9 lineto stroke } bind def
		<03060c183060c081> { 1 setlinewidth -1 -1 moveto 9 9 lineto stroke 
											4 -4 moveto 12 4 lineto stroke
											-4 4 moveto 4 12 lineto stroke} bind def
		<8040201008040201> { 1 setlinewidth -1 9 moveto 9 -1 lineto stroke 
											-4 4 moveto 4 -4 lineto stroke
											4 12 moveto 12 4 lineto stroke} bind def
	end def
	/patDict 15 dict dup begin
		/PatternType 1 def		
		/PaintType 2 def		
		/TilingType 3 def		
		/BBox [ 0 0 8 8 ] def 	
		/XStep 8 def			
		/YStep 8 def			
		/PaintProc {
			begin
			patProcDict bstring known {
				patProcDict bstring get exec
			} {
				8 8 true [1 0 0 -1 0 8] bstring imagemask
			} ifelse
			end
		} bind def
	end def
} if
/combineColor {
    FrameSepIs FMnone eq
	{
		graymode FMLevel1 or not {
			
			[/Pattern [/DeviceCMYK]] setcolorspace
			FrameCurColors 0 4 getinterval aload pop FrameCurPat setcolor
		} {
			FrameCurColors 3 get 1.0 ge {
				FrameCurGray RealSetgray
			} {
				FMPColor graymode and {
					0 1 3 { 
						FrameCurColors exch get
						1 FrameCurGray sub mul
					} for
					RealSetcmykcolor
				} {
					4 1 6 {
						FrameCurColors exch get
						graymode {
							1 exch sub 1 FrameCurGray sub mul 1 exch sub
						} {
							1.0 lt {FrameCurGray} {1} ifelse
						} ifelse
					} for
					RealSetrgbcolor
				} ifelse
			} ifelse
		} ifelse
	} { 
		FrameCurColors 0 4 getinterval aload
		FrameColorInSepListCMYK {
			FrameSepBlack eq exch 
			FrameSepYellow eq and exch 
			FrameSepMagenta eq and exch 
			FrameSepCyan eq and
			FrameSepIs FMcustom eq and
			{ FrameCurGray } { 1 } ifelse
		} {
			FrameSepIs FMblack eq
			{FrameCurGray 1.0 exch sub mul 1.0 exch sub 4 1 roll pop pop pop} {
			FrameSepIs FMyellow eq
			{pop FrameCurGray 1.0 exch sub mul 1.0 exch sub 3 1 roll pop pop} {
			FrameSepIs FMmagenta eq
			{pop pop FrameCurGray 1.0 exch sub mul 1.0 exch sub exch pop } {
			FrameSepIs FMcyan eq
			{pop pop pop FrameCurGray 1.0 exch sub mul 1.0 exch sub } 
			{pop pop pop pop 1} ifelse } ifelse } ifelse } ifelse 
		} ifelse
		graymode FMLevel1 or not {
			
			[/Pattern [/DeviceGray]] setcolorspace
			FrameCurPat setcolor
		} { 
			graymode not FMLevel1 and {
				
				dup 1 lt {pop FrameCurGray} if
			} if
			RealSetgray
		} ifelse
	} ifelse
} bind def
/savematrix {
	orgmatrix currentmatrix pop
	} bind def
/restorematrix {
	orgmatrix setmatrix
	} bind def
/dmatrix matrix def
/dpi    72 0 dmatrix defaultmatrix dtransform
    dup mul exch   dup mul add   sqrt def
	
/freq dpi dup 72 div round dup 0 eq {pop 1} if 8 mul div def
/sangle 1 0 dmatrix defaultmatrix dtransform exch atan def
/dpiranges   [  2540    2400    1693     1270    1200     635      600      0      ] def
/CMLowFreqs  [ 100.402  94.8683 89.2289 100.402  94.8683  66.9349  63.2456 47.4342 ] def
/YLowFreqs   [  95.25   90.0    84.65    95.25   90.0     70.5556  66.6667 50.0    ] def
/KLowFreqs   [  89.8026 84.8528 79.8088  89.8026 84.8528  74.8355  70.7107 53.033  ] def
/CLowAngles  [  71.5651 71.5651 71.5651 71.5651  71.5651  71.5651  71.5651 71.5651 ] def
/MLowAngles  [  18.4349 18.4349 18.4349 18.4349  18.4349  18.4349  18.4349 18.4349 ] def
/YLowTDot    [  true    true    false    true    true     false    false   false   ] def
/CMHighFreqs [ 133.87  126.491 133.843  108.503 102.523  100.402   94.8683 63.2456 ] def
/YHighFreqs  [ 127.0   120.0   126.975  115.455 109.091   95.25    90.0    60.0    ] def
/KHighFreqs  [ 119.737 113.137 119.713  128.289 121.218   89.8026  84.8528 63.6395 ] def
/CHighAngles [  71.5651 71.5651 71.5651  70.0169 70.0169  71.5651  71.5651 71.5651 ] def
/MHighAngles [  18.4349 18.4349 18.4349  19.9831 19.9831  18.4349  18.4349 18.4349 ] def
/YHighTDot   [  false   false   true     false   false    true     true    false   ] def
/PatFreq     [	10.5833 10.0     9.4055  10.5833 10.0	  10.5833  10.0	   9.375   ] def
/screenIndex {
	0 1 dpiranges length 1 sub { dup dpiranges exch get 1 sub dpi le {exit} {pop} ifelse } for
} bind def
/getCyanScreen {
	FMUseHighFrequencyScreens { CHighAngles CMHighFreqs} {CLowAngles CMLowFreqs} ifelse
		screenIndex dup 3 1 roll get 3 1 roll get /FMSpotFunction load
} bind def
/getMagentaScreen {
	FMUseHighFrequencyScreens { MHighAngles CMHighFreqs } {MLowAngles CMLowFreqs} ifelse
		screenIndex dup 3 1 roll get 3 1 roll get /FMSpotFunction load
} bind def
/getYellowScreen {
	FMUseHighFrequencyScreens { YHighTDot YHighFreqs} { YLowTDot YLowFreqs } ifelse
		screenIndex dup 3 1 roll get 3 1 roll get { 3 div
			{2 { 1 add 2 div 3 mul dup floor sub 2 mul 1 sub exch} repeat
			FMSpotFunction } } {/FMSpotFunction load } ifelse
			0.0 exch
} bind def
/getBlackScreen  {
	FMUseHighFrequencyScreens { KHighFreqs } { KLowFreqs } ifelse
		screenIndex get 45.0 /FMSpotFunction load 
} bind def
/getSpotScreen {
	getBlackScreen
} bind def
/getCompositeScreen {
	getBlackScreen
} bind def
/FMSetScreen 
	FMLevel1 { /setscreen load 
	}{ {
		8 dict begin
		/HalftoneType 1 def
		/SpotFunction exch def
		/Angle exch def
		/Frequency exch def
		/AccurateScreens FMUseAcccurateScreens def
		currentdict end sethalftone
	} bind } ifelse
def
/setDefaultScreen {
	FMPColor {
		orgrxfer cvx orggxfer cvx orgbxfer cvx orgxfer cvx setcolortransfer
	}
	{
		orgxfer cvx settransfer
	} ifelse
	orgfreq organgle orgproc cvx setscreen
} bind def
/setCurrentScreen {
	FrameSepIs FMnone eq {
		FMUseDefaultNoSeparationScreen {
			setDefaultScreen
		} {
			getCompositeScreen FMSetScreen
		} ifelse
	} {
		FrameSepIs FMcustom eq {
			FMUseDefaultSpotSeparationScreen {
				setDefaultScreen
			} {
				getSpotScreen FMSetScreen
			} ifelse
		} {
			FMUseDefaultProcessSeparationScreen {
				setDefaultScreen
			} {
				FrameSepIs FMcyan eq {
					getCyanScreen FMSetScreen
				} {
					FrameSepIs FMmagenta eq {
						getMagentaScreen FMSetScreen
					} {
						FrameSepIs FMyellow eq {
							getYellowScreen FMSetScreen
						} {
							getBlackScreen FMSetScreen
						} ifelse
					} ifelse
				} ifelse
			} ifelse
		} ifelse
	} ifelse 
} bind def
end
	/gstring FMLOCAL
	/gfile FMLOCAL
	/gindex FMLOCAL
	/orgrxfer FMLOCAL
	/orggxfer FMLOCAL
	/orgbxfer FMLOCAL
	/orgxfer FMLOCAL
	/orgproc FMLOCAL
	/orgrproc FMLOCAL
	/orggproc FMLOCAL
	/orgbproc FMLOCAL
	/organgle FMLOCAL
	/orgrangle FMLOCAL
	/orggangle FMLOCAL
	/orgbangle FMLOCAL
	/orgfreq FMLOCAL
	/orgrfreq FMLOCAL
	/orggfreq FMLOCAL
	/orgbfreq FMLOCAL
	/yscale FMLOCAL
	/xscale FMLOCAL
	/edown FMLOCAL
	/manualfeed FMLOCAL
	/paperheight FMLOCAL
	/paperwidth FMLOCAL
/FMDOCUMENT { 
	array /FMfonts exch def 
	/#copies exch def
	FrameDict begin
	0 ne /manualfeed exch def
	/paperheight exch def
	/paperwidth exch def
	0 ne /FrameNegative exch def 
	0 ne /edown exch def 
	/yscale exch def
	/xscale exch def
	FMLevel1 {
		manualfeed {setmanualfeed} if
		/FMdicttop countdictstack 1 add def 
		/FMoptop count def 
		setpapername 
		manualfeed {true} {papersize} ifelse 
		{manualpapersize} {false} ifelse 
		{desperatepapersize} {false} ifelse 
		{ (Can't select requested paper size for Frame print job!) FMFAILURE } if
		count -1 FMoptop {pop pop} for
		countdictstack -1 FMdicttop {pop end} for 
		}
		{{1 dict dup /PageSize [paperwidth paperheight]put setpagedevice}stopped
		{ (Can't select requested paper size for Frame print job!) FMFAILURE } if
		 {1 dict dup /ManualFeed manualfeed put setpagedevice } stopped pop }
	ifelse 
	
	FMPColor {
		currentcolorscreen
			cvlit /orgproc exch def
				  /organgle exch def 
				  /orgfreq exch def
			cvlit /orgbproc exch def
				  /orgbangle exch def 
				  /orgbfreq exch def
			cvlit /orggproc exch def
				  /orggangle exch def 
				  /orggfreq exch def
			cvlit /orgrproc exch def
				  /orgrangle exch def 
				  /orgrfreq exch def
			currentcolortransfer 
			FrameNegative {
				1 1 4 { 
					pop { 1 exch sub } concatprocs 4 1 roll
				} for
				4 copy
				setcolortransfer
			} if
			cvlit /orgxfer exch def
			cvlit /orgbxfer exch def
			cvlit /orggxfer exch def
			cvlit /orgrxfer exch def
	} {
		currentscreen 
			cvlit /orgproc exch def
				  /organgle exch def 
				  /orgfreq exch def
				  
		currenttransfer 
		FrameNegative {
			{ 1 exch sub } concatprocs
			dup settransfer
		} if 
		cvlit /orgxfer exch def
	} ifelse
	end 
} def 
/pagesave FMLOCAL
/orgmatrix FMLOCAL
/landscape FMLOCAL
/pwid FMLOCAL
/FMBEGINPAGE { 
	FrameDict begin 
	/pagesave save def
	3.86 setmiterlimit
	/landscape exch 0 ne def
	landscape { 
		90 rotate 0 exch dup /pwid exch def neg translate pop 
	}{
		pop /pwid exch def
	} ifelse
	edown { [-1 0 0 1 pwid 0] concat } if
	0 0 moveto paperwidth 0 lineto paperwidth paperheight lineto 
	0 paperheight lineto 0 0 lineto 1 setgray fill
	xscale yscale scale
	/orgmatrix matrix def
	gsave 
} def 
/FMENDPAGE {
	grestore 
	pagesave restore
	end 
	showpage
	} def 
/FMFONTDEFINE { 
	FrameDict begin
	findfont 
	ReEncode 
	1 index exch 
	definefont 
	FMfonts 3 1 roll 
	put
	end 
	} def 
/FMFILLS {
	FrameDict begin dup
	array /fillvals exch def
	dict /patCache exch def
	end 
	} def 
/FMFILL {
	FrameDict begin
	 fillvals 3 1 roll put
	end 
	} def 
/FMNORMALIZEGRAPHICS { 
	newpath
	0.0 0.0 moveto
	1 setlinewidth
	0 setlinecap
	0 0 0 sethsbcolor
	0 setgray 
	} bind def
	/fx FMLOCAL
	/fy FMLOCAL
	/fh FMLOCAL
	/fw FMLOCAL
	/llx FMLOCAL
	/lly FMLOCAL
	/urx FMLOCAL
	/ury FMLOCAL
/FMBEGINEPSF { 
	end 
	/FMEPSF save def 
	/showpage {} def 
% See Adobe's "PostScript Language Reference Manual, 2nd Edition", page 714.
% "...the following operators MUST NOT be used in an EPS file:" (emphasis ours)
	/banddevice {(banddevice) FMBADEPSF} def
	/clear {(clear) FMBADEPSF} def
	/cleardictstack {(cleardictstack) FMBADEPSF} def 
	/copypage {(copypage) FMBADEPSF} def
	/erasepage {(erasepage) FMBADEPSF} def
	/exitserver {(exitserver) FMBADEPSF} def
	/framedevice {(framedevice) FMBADEPSF} def
	/grestoreall {(grestoreall) FMBADEPSF} def
	/initclip {(initclip) FMBADEPSF} def
	/initgraphics {(initgraphics) FMBADEPSF} def
	/initmatrix {(initmatrix) FMBADEPSF} def
	/quit {(quit) FMBADEPSF} def
	/renderbands {(renderbands) FMBADEPSF} def
	/setglobal {(setglobal) FMBADEPSF} def
	/setpagedevice {(setpagedevice) FMBADEPSF} def
	/setshared {(setshared) FMBADEPSF} def
	/startjob {(startjob) FMBADEPSF} def
	/lettertray {(lettertray) FMBADEPSF} def
	/letter {(letter) FMBADEPSF} def
	/lettersmall {(lettersmall) FMBADEPSF} def
	/11x17tray {(11x17tray) FMBADEPSF} def
	/11x17 {(11x17) FMBADEPSF} def
	/ledgertray {(ledgertray) FMBADEPSF} def
	/ledger {(ledger) FMBADEPSF} def
	/legaltray {(legaltray) FMBADEPSF} def
	/legal {(legal) FMBADEPSF} def
	/statementtray {(statementtray) FMBADEPSF} def
	/statement {(statement) FMBADEPSF} def
	/executivetray {(executivetray) FMBADEPSF} def
	/executive {(executive) FMBADEPSF} def
	/a3tray {(a3tray) FMBADEPSF} def
	/a3 {(a3) FMBADEPSF} def
	/a4tray {(a4tray) FMBADEPSF} def
	/a4 {(a4) FMBADEPSF} def
	/a4small {(a4small) FMBADEPSF} def
	/b4tray {(b4tray) FMBADEPSF} def
	/b4 {(b4) FMBADEPSF} def
	/b5tray {(b5tray) FMBADEPSF} def
	/b5 {(b5) FMBADEPSF} def
	FMNORMALIZEGRAPHICS 
	[/fy /fx /fh /fw /ury /urx /lly /llx] {exch def} forall 
	fx fw 2 div add fy fh 2 div add  translate
	rotate
	fw 2 div neg fh 2 div neg translate
	fw urx llx sub div fh ury lly sub div scale 
	llx neg lly neg translate 
	/FMdicttop countdictstack 1 add def 
	/FMoptop count def 
	} bind def
/FMENDEPSF {
	count -1 FMoptop {pop pop} for 
	countdictstack -1 FMdicttop {pop end} for 
	FMEPSF restore
	FrameDict begin 
	} bind def
FrameDict begin 
/setmanualfeed {
%%BeginFeature *ManualFeed True
	 statusdict /manualfeed true put
%%EndFeature
	} bind def
/max {2 copy lt {exch} if pop} bind def
/min {2 copy gt {exch} if pop} bind def
/inch {72 mul} def
/pagedimen { 
	paperheight sub abs 16 lt exch 
	paperwidth sub abs 16 lt and
	{/papername exch def} {pop} ifelse
	} bind def
	/papersizedict FMLOCAL
/setpapername { 
	/papersizedict 14 dict def 
	papersizedict begin
	/papername /unknown def 
		/Letter 8.5 inch 11.0 inch pagedimen
		/LetterSmall 7.68 inch 10.16 inch pagedimen
		/Tabloid 11.0 inch 17.0 inch pagedimen
		/Ledger 17.0 inch 11.0 inch pagedimen
		/Legal 8.5 inch 14.0 inch pagedimen
		/Statement 5.5 inch 8.5 inch pagedimen
		/Executive 7.5 inch 10.0 inch pagedimen
		/A3 11.69 inch 16.5 inch pagedimen
		/A4 8.26 inch 11.69 inch pagedimen
		/A4Small 7.47 inch 10.85 inch pagedimen
		/B4 10.125 inch 14.33 inch pagedimen
		/B5 7.16 inch 10.125 inch pagedimen
	end
	} bind def
/papersize {
	papersizedict begin
		/Letter {lettertray letter} def
		/LetterSmall {lettertray lettersmall} def
		/Tabloid {11x17tray 11x17} def
		/Ledger {ledgertray ledger} def
		/Legal {legaltray legal} def
		/Statement {statementtray statement} def
		/Executive {executivetray executive} def
		/A3 {a3tray a3} def
		/A4 {a4tray a4} def
		/A4Small {a4tray a4small} def
		/B4 {b4tray b4} def
		/B5 {b5tray b5} def
		/unknown {unknown} def
	papersizedict dup papername known {papername} {/unknown} ifelse get
	end
	statusdict begin stopped end 
	} bind def
/manualpapersize {
	papersizedict begin
		/Letter {letter} def
		/LetterSmall {lettersmall} def
		/Tabloid {11x17} def
		/Ledger {ledger} def
		/Legal {legal} def
		/Statement {statement} def
		/Executive {executive} def
		/A3 {a3} def
		/A4 {a4} def
		/A4Small {a4small} def
		/B4 {b4} def
		/B5 {b5} def
		/unknown {unknown} def
	papersizedict dup papername known {papername} {/unknown} ifelse get
	end
	stopped 
	} bind def
/desperatepapersize {
	statusdict /setpageparams known
		{
		paperwidth paperheight 0 1 
		statusdict begin
		{setpageparams} stopped 
		end
		} {true} ifelse 
	} bind def
/DiacriticEncoding [
/.notdef /.notdef /.notdef /.notdef /.notdef /.notdef /.notdef
/.notdef /.notdef /.notdef /.notdef /.notdef /.notdef /.notdef
/.notdef /.notdef /.notdef /.notdef /.notdef /.notdef /.notdef
/.notdef /.notdef /.notdef /.notdef /.notdef /.notdef /.notdef
/.notdef /.notdef /.notdef /.notdef /space /exclam /quotedbl
/numbersign /dollar /percent /ampersand /quotesingle /parenleft
/parenright /asterisk /plus /comma /hyphen /period /slash /zero /one
/two /three /four /five /six /seven /eight /nine /colon /semicolon
/less /equal /greater /question /at /A /B /C /D /E /F /G /H /I /J /K
/L /M /N /O /P /Q /R /S /T /U /V /W /X /Y /Z /bracketleft /backslash
/bracketright /asciicircum /underscore /grave /a /b /c /d /e /f /g /h
/i /j /k /l /m /n /o /p /q /r /s /t /u /v /w /x /y /z /braceleft /bar
/braceright /asciitilde /.notdef /Adieresis /Aring /Ccedilla /Eacute
/Ntilde /Odieresis /Udieresis /aacute /agrave /acircumflex /adieresis
/atilde /aring /ccedilla /eacute /egrave /ecircumflex /edieresis
/iacute /igrave /icircumflex /idieresis /ntilde /oacute /ograve
/ocircumflex /odieresis /otilde /uacute /ugrave /ucircumflex
/udieresis /dagger /.notdef /cent /sterling /section /bullet
/paragraph /germandbls /registered /copyright /trademark /acute
/dieresis /.notdef /AE /Oslash /.notdef /.notdef /.notdef /.notdef
/yen /.notdef /.notdef /.notdef /.notdef /.notdef /.notdef
/ordfeminine /ordmasculine /.notdef /ae /oslash /questiondown
/exclamdown /logicalnot /.notdef /florin /.notdef /.notdef
/guillemotleft /guillemotright /ellipsis /.notdef /Agrave /Atilde
/Otilde /OE /oe /endash /emdash /quotedblleft /quotedblright
/quoteleft /quoteright /.notdef /.notdef /ydieresis /Ydieresis
/fraction /currency /guilsinglleft /guilsinglright /fi /fl /daggerdbl
/periodcentered /quotesinglbase /quotedblbase /perthousand
/Acircumflex /Ecircumflex /Aacute /Edieresis /Egrave /Iacute
/Icircumflex /Idieresis /Igrave /Oacute /Ocircumflex /.notdef /Ograve
/Uacute /Ucircumflex /Ugrave /dotlessi /circumflex /tilde /macron
/breve /dotaccent /ring /cedilla /hungarumlaut /ogonek /caron
] def
/ReEncode { 
	dup 
	length 
	dict begin 
	{
	1 index /FID ne 
		{def} 
		{pop pop} ifelse 
	} forall 
	0 eq {/Encoding DiacriticEncoding def} if 
	currentdict 
	end 
	} bind def
FMPColor 
	
	{
	/BEGINBITMAPCOLOR { 
		BITMAPCOLOR} def
	/BEGINBITMAPCOLORc { 
		BITMAPCOLORc} def
	/BEGINBITMAPTRUECOLOR { 
		BITMAPTRUECOLOR } def
	/BEGINBITMAPTRUECOLORc { 
		BITMAPTRUECOLORc } def
	}
	
	{
	/BEGINBITMAPCOLOR { 
		BITMAPGRAY} def
	/BEGINBITMAPCOLORc { 
		BITMAPGRAYc} def
	/BEGINBITMAPTRUECOLOR { 
		BITMAPTRUEGRAY } def
	/BEGINBITMAPTRUECOLORc { 
		BITMAPTRUEGRAYc } def
	}
ifelse
/K { 
	FMPrintAllColorsAsBlack {
		dup 1 eq 2 index 1 eq and 3 index 1 eq and not
			{7 {pop} repeat 0 0 0 1 0 0 0} if
	} if 
	FrameCurColors astore 
	pop combineColor
} bind def
/graymode true def
	/bwidth FMLOCAL
	/bpside FMLOCAL
	/bstring FMLOCAL
	/onbits FMLOCAL
	/offbits FMLOCAL
	/xindex FMLOCAL
	/yindex FMLOCAL
	/x FMLOCAL
	/y FMLOCAL
/setPatternMode {
	FMLevel1 {
		/bwidth  exch def
		/bpside  exch def
		/bstring exch def
		/onbits 0 def  /offbits 0 def
		freq sangle landscape {90 add} if 
			{/y exch def
			 /x exch def
			 /xindex x 1 add 2 div bpside mul cvi def
			 /yindex y 1 add 2 div bpside mul cvi def
			 bstring yindex bwidth mul xindex 8 idiv add get
			 1 7 xindex 8 mod sub bitshift and 0 ne FrameNegative {not} if
			 {/onbits  onbits  1 add def 1}
			 {/offbits offbits 1 add def 0}
			 ifelse
			}
			setscreen
		offbits offbits onbits add div FrameNegative {1.0 exch sub} if
		/FrameCurGray exch def
	} { 
		pop pop
		dup patCache exch known {
			patCache exch get
		} { 
			dup
			patDict /bstring 3 -1 roll put
			patDict 
			9 PatFreq screenIndex get div dup matrix scale
			makepattern
			dup 
			patCache 4 -1 roll 3 -1 roll put
		} ifelse
		/FrameCurGray 0 def
		/FrameCurPat exch def
	} ifelse
	/graymode false def
	combineColor
} bind def
/setGrayScaleMode {
	graymode not {
		/graymode true def
		FMLevel1 {
			setCurrentScreen
		} if
	} if
	/FrameCurGray exch def
	combineColor
} bind def
/normalize {
	transform round exch round exch itransform
	} bind def
/dnormalize {
	dtransform round exch round exch idtransform
	} bind def
/lnormalize { 
	0 dtransform exch cvi 2 idiv 2 mul 1 add exch idtransform pop
	} bind def
/H { 
	lnormalize setlinewidth
	} bind def
/Z {
	setlinecap
	} bind def
	
/PFill {
	graymode FMLevel1 or not {
		gsave 1 setgray eofill grestore
	} if
} bind def
/PStroke {
	graymode FMLevel1 or not {
		gsave 1 setgray stroke grestore
	} if
	stroke
} bind def
	/fillvals FMLOCAL
/X { 
	fillvals exch get
	dup type /stringtype eq
	{8 1 setPatternMode} 
	{setGrayScaleMode}
	ifelse
	} bind def
/V { 
	PFill gsave eofill grestore
	} bind def
/Vclip {
	clip
	} bind def
/Vstrk {
	currentlinewidth exch setlinewidth PStroke setlinewidth
	} bind def
/N { 
	PStroke
	} bind def
/Nclip {
	strokepath clip newpath
	} bind def
/Nstrk {
	currentlinewidth exch setlinewidth PStroke setlinewidth
	} bind def
/M {newpath moveto} bind def
/E {lineto} bind def
/D {curveto} bind def
/O {closepath} bind def
	/n FMLOCAL
/L { 
 	/n exch def
	newpath
	normalize
	moveto 
	2 1 n {pop normalize lineto} for
	} bind def
/Y { 
	L 
	closepath
	} bind def
	/x1 FMLOCAL
	/x2 FMLOCAL
	/y1 FMLOCAL
	/y2 FMLOCAL
/R { 
	/y2 exch def
	/x2 exch def
	/y1 exch def
	/x1 exch def
	x1 y1
	x2 y1
	x2 y2
	x1 y2
	4 Y 
	} bind def
	/rad FMLOCAL
/rarc 
	{rad 
	 arcto
	} bind def
/RR { 
	/rad exch def
	normalize
	/y2 exch def
	/x2 exch def
	normalize
	/y1 exch def
	/x1 exch def
	mark
	newpath
	{
	x1 y1 rad add moveto
	x1 y2 x2 y2 rarc
	x2 y2 x2 y1 rarc
	x2 y1 x1 y1 rarc
	x1 y1 x1 y2 rarc
	closepath
	} stopped {x1 y1 x2 y2 R} if 
	cleartomark
	} bind def
/RRR { 
	/rad exch def
	normalize /y4 exch def /x4 exch def
	normalize /y3 exch def /x3 exch def
	normalize /y2 exch def /x2 exch def
	normalize /y1 exch def /x1 exch def
	newpath
	normalize moveto 
	mark
	{
	x2 y2 x3 y3 rarc
	x3 y3 x4 y4 rarc
	x4 y4 x1 y1 rarc
	x1 y1 x2 y2 rarc
	closepath
	} stopped
	 {x1 y1 x2 y2 x3 y3 x4 y4 newpath moveto lineto lineto lineto closepath} if
	cleartomark
	} bind def
/C { 
	grestore
	gsave
	R 
	clip
	setCurrentScreen
} bind def
/CP { 
	grestore
	gsave
	Y 
	clip
	setCurrentScreen
} bind def
	/FMpointsize FMLOCAL
/F { 
	FMfonts exch get
	FMpointsize scalefont
	setfont
	} bind def
/Q { 
	/FMpointsize exch def
	F 
	} bind def
/T { 
	moveto show
	} bind def
/RF { 
	rotate
	0 ne {-1 1 scale} if
	} bind def
/TF { 
	gsave
	moveto 
	RF
	show
	grestore
	} bind def
/P { 
	moveto
	0 32 3 2 roll widthshow
	} bind def
/PF { 
	gsave
	moveto 
	RF
	0 32 3 2 roll widthshow
	grestore
	} bind def
/S { 
	moveto
	0 exch ashow
	} bind def
/SF { 
	gsave
	moveto
	RF
	0 exch ashow
	grestore
	} bind def
/B { 
	moveto
	0 32 4 2 roll 0 exch awidthshow
	} bind def
/BF { 
	gsave
	moveto
	RF
	0 32 4 2 roll 0 exch awidthshow
	grestore
	} bind def
/G { 
	gsave
	newpath
	normalize translate 0.0 0.0 moveto 
	dnormalize scale 
	0.0 0.0 1.0 5 3 roll arc 
	closepath 
	PFill fill
	grestore
	} bind def
/Gstrk {
	savematrix
    newpath
    2 index 2 div add exch 3 index 2 div sub exch 
    normalize 2 index 2 div sub exch 3 index 2 div add exch 
    translate
    scale 
    0.0 0.0 1.0 5 3 roll arc 
    restorematrix
    currentlinewidth exch setlinewidth PStroke setlinewidth
    } bind def
/Gclip { 
	newpath
	savematrix
	normalize translate 0.0 0.0 moveto 
	dnormalize scale 
	0.0 0.0 1.0 5 3 roll arc 
	closepath 
	clip newpath
	restorematrix
	} bind def
/GG { 
	gsave
	newpath
	normalize translate 0.0 0.0 moveto 
	rotate 
	dnormalize scale 
	0.0 0.0 1.0 5 3 roll arc 
	closepath
	PFill
	fill
	grestore
	} bind def
/GGclip { 
	savematrix
	newpath
    normalize translate 0.0 0.0 moveto 
    rotate 
    dnormalize scale 
    0.0 0.0 1.0 5 3 roll arc 
    closepath
	clip newpath
	restorematrix
	} bind def
/GGstrk { 
	savematrix
    newpath
    normalize translate 0.0 0.0 moveto 
    rotate 
    dnormalize scale 
    0.0 0.0 1.0 5 3 roll arc 
    closepath 
	restorematrix
    currentlinewidth exch setlinewidth PStroke setlinewidth
	} bind def
/A { 
	gsave
	savematrix
	newpath
	2 index 2 div add exch 3 index 2 div sub exch 
	normalize 2 index 2 div sub exch 3 index 2 div add exch 
	translate 
	scale 
	0.0 0.0 1.0 5 3 roll arc 
	restorematrix
	PStroke
	grestore
	} bind def
/Aclip {
	newpath
	savematrix
	normalize translate 0.0 0.0 moveto 
	dnormalize scale 
	0.0 0.0 1.0 5 3 roll arc 
	closepath 
	strokepath clip newpath
	restorematrix
} bind def
/Astrk {
	Gstrk
} bind def
/AA { 
	gsave
	savematrix
	newpath
	
	3 index 2 div add exch 4 index 2 div sub exch 
	
	normalize 3 index 2 div sub exch 4 index 2 div add exch
	translate 
	rotate 
	scale 
	0.0 0.0 1.0 5 3 roll arc 
	restorematrix
	PStroke
	grestore
	} bind def
/AAclip {
	savematrix
	newpath
    normalize translate 0.0 0.0 moveto 
    rotate 
    dnormalize scale 
    0.0 0.0 1.0 5 3 roll arc 
    closepath
	strokepath clip newpath
	restorematrix
} bind def
/AAstrk {
	GGstrk
} bind def
	/x FMLOCAL
	/y FMLOCAL
	/w FMLOCAL
	/h FMLOCAL
	/xx FMLOCAL
	/yy FMLOCAL
	/ww FMLOCAL
	/hh FMLOCAL
	/FMsaveobject FMLOCAL
	/FMoptop FMLOCAL
	/FMdicttop FMLOCAL
/BEGINPRINTCODE { 
	/FMdicttop countdictstack 1 add def 
	/FMoptop count 7 sub def 
	/FMsaveobject save def
	userdict begin 
	/showpage {} def 
	FMNORMALIZEGRAPHICS 
	3 index neg 3 index neg translate
	} bind def
/ENDPRINTCODE {
	count -1 FMoptop {pop pop} for 
	countdictstack -1 FMdicttop {pop end} for 
	FMsaveobject restore 
	} bind def
/gn { 
	0 
	{	46 mul 
		cf read pop 
		32 sub 
		dup 46 lt {exit} if 
		46 sub add 
		} loop
	add 
	} bind def
	/str FMLOCAL
/cfs { 
	/str sl string def 
	0 1 sl 1 sub {str exch val put} for 
	str def 
	} bind def
/ic [ 
	0 0 0 0 0 0 0 0 0 0 0 0 0 0 0 0223
	0 0 0 0 0 0 0 0 0 0 0 0 0 0 0 0223
	0
	{0 hx} {1 hx} {2 hx} {3 hx} {4 hx} {5 hx} {6 hx} {7 hx} {8 hx} {9 hx}
	{10 hx} {11 hx} {12 hx} {13 hx} {14 hx} {15 hx} {16 hx} {17 hx} {18 hx}
	{19 hx} {gn hx} {0} {1} {2} {3} {4} {5} {6} {7} {8} {9} {10} {11} {12}
	{13} {14} {15} {16} {17} {18} {19} {gn} {0 wh} {1 wh} {2 wh} {3 wh}
	{4 wh} {5 wh} {6 wh} {7 wh} {8 wh} {9 wh} {10 wh} {11 wh} {12 wh}
	{13 wh} {14 wh} {gn wh} {0 bl} {1 bl} {2 bl} {3 bl} {4 bl} {5 bl} {6 bl}
	{7 bl} {8 bl} {9 bl} {10 bl} {11 bl} {12 bl} {13 bl} {14 bl} {gn bl}
	{0 fl} {1 fl} {2 fl} {3 fl} {4 fl} {5 fl} {6 fl} {7 fl} {8 fl} {9 fl}
	{10 fl} {11 fl} {12 fl} {13 fl} {14 fl} {gn fl}
	] def
	/sl FMLOCAL
	/val FMLOCAL
	/ws FMLOCAL
	/im FMLOCAL
	/bs FMLOCAL
	/cs FMLOCAL
	/len FMLOCAL
	/pos FMLOCAL
/ms { 
	/sl exch def 
	/val 255 def 
	/ws cfs 
	/im cfs 
	/val 0 def 
	/bs cfs 
	/cs cfs 
	} bind def
400 ms 
/ip { 
	is 
	0 
	cf cs readline pop 
	{	ic exch get exec 
		add 
		} forall 
	pop 
	
	} bind def
/rip { 
	   
	  
	  bis ris copy pop 
      is
      0
      cf cs readline pop 
      {       ic exch get exec 
              add 
              } forall 
	  pop pop 
	  ris gis copy pop 
	  dup is exch 
	  
      cf cs readline pop 
      {       ic exch get exec 
              add 
              } forall 
	  pop pop
	  gis bis copy pop 
	  dup add is exch 
	  
      cf cs readline pop 
      {       ic exch get exec 
              add 
              } forall 
      pop 
      
      } bind def
/wh { 
	/len exch def 
	/pos exch def 
	ws 0 len getinterval im pos len getinterval copy pop
	pos len 
	} bind def
/bl { 
	/len exch def 
	/pos exch def 
	bs 0 len getinterval im pos len getinterval copy pop
	pos len 
	} bind def
/s1 1 string def
/fl { 
	/len exch def 
	/pos exch def 
	/val cf s1 readhexstring pop 0 get def
	pos 1 pos len add 1 sub {im exch val put} for
	pos len 
	} bind def
/hx { 
	3 copy getinterval 
	cf exch readhexstring pop pop 
	} bind def
	/h FMLOCAL
	/w FMLOCAL
	/d FMLOCAL
	/lb FMLOCAL
	/bitmapsave FMLOCAL
	/is FMLOCAL
	/cf FMLOCAL
/wbytes { 
      dup dup
      24 eq { pop pop 3 mul }
      { 8 eq {pop} {1 eq {7 add 8 idiv} {3 add 4 idiv} ifelse} ifelse } ifelse
	} bind def
/BEGINBITMAPBWc { 
	1 {} COMMONBITMAPc
	} bind def
/BEGINBITMAPGRAYc { 
	8 {} COMMONBITMAPc
	} bind def
/BEGINBITMAP2BITc { 
	2 {} COMMONBITMAPc
	} bind def
/COMMONBITMAPc { 
		 
	/r exch def
	/d exch def
	gsave
	
	3 index 2 div add exch	
	4 index 2 div add exch	
	translate		
	rotate			
	1 index 2 div neg	
	1 index 2 div neg	
	translate		
	scale			
	/h exch def /w exch def
	/lb w d wbytes def 
	sl lb lt {lb ms} if 
	/bitmapsave save def 
	r                    
	/is im 0 lb getinterval def 
	ws 0 lb getinterval is copy pop 
	/cf currentfile def 
	w h d [w 0 0 h neg 0 h] 
	{ip} image 
	bitmapsave restore 
	grestore
	} bind def
/BEGINBITMAPBW { 
	1 {} COMMONBITMAP
	} bind def
/BEGINBITMAPGRAY { 
	8 {} COMMONBITMAP
	} bind def
/BEGINBITMAP2BIT { 
	2 {} COMMONBITMAP
	} bind def
/COMMONBITMAP { 
	/r exch def
	/d exch def
	gsave
	
	3 index 2 div add exch	
	4 index 2 div add exch	
	translate		
	rotate			
	1 index 2 div neg	
	1 index 2 div neg	
	translate		
	scale			
	/h exch def /w exch def
	/bitmapsave save def 
	r                    
	/is w d wbytes string def
	/cf currentfile def 
	w h d [w 0 0 h neg 0 h] 
	{cf is readhexstring pop} image
	bitmapsave restore 
	grestore
	} bind def
/ngrayt 256 array def
/nredt 256 array def
/nbluet 256 array def
/ngreent 256 array def
	/gryt FMLOCAL
	/blut FMLOCAL
	/grnt FMLOCAL
	/redt FMLOCAL
	/indx FMLOCAL
	/cynu FMLOCAL
	/magu FMLOCAL
	/yelu FMLOCAL
	/k FMLOCAL
	/u FMLOCAL
FMLevel1 {
/colorsetup {
	currentcolortransfer
	/gryt exch def
	/blut exch def
	/grnt exch def
	/redt exch def
	0 1 255 {
		/indx exch def
		/cynu 1 red indx get 255 div sub def
		/magu 1 green indx get 255 div sub def
		/yelu 1 blue indx get 255 div sub def
		/k cynu magu min yelu min def
		/u k currentundercolorremoval exec def
%		/u 0 def
		nredt indx 1 0 cynu u sub max sub redt exec put
		ngreent indx 1 0 magu u sub max sub grnt exec put
		nbluet indx 1 0 yelu u sub max sub blut exec put
		ngrayt indx 1 k currentblackgeneration exec sub gryt exec put
	} for
	{255 mul cvi nredt exch get}
	{255 mul cvi ngreent exch get}
	{255 mul cvi nbluet exch get}
	{255 mul cvi ngrayt exch get}
	setcolortransfer
	{pop 0} setundercolorremoval
	{} setblackgeneration
	} bind def
}
{
/colorSetup2 {
	[ /Indexed /DeviceRGB 255 
		{dup red exch get 255 div 
		 exch dup green exch get 255 div 
		 exch blue exch get 255 div}
	] setcolorspace
} bind def
} ifelse
	/tran FMLOCAL
/fakecolorsetup {
	/tran 256 string def
	0 1 255 {/indx exch def 
		tran indx
		red indx get 77 mul
		green indx get 151 mul
		blue indx get 28 mul
		add add 256 idiv put} for
	currenttransfer
	{255 mul cvi tran exch get 255.0 div}
	exch concatprocs settransfer
} bind def
/BITMAPCOLOR { 
	/d 8 def
	gsave
	
	3 index 2 div add exch	
	4 index 2 div add exch	
	translate		
	rotate			
	1 index 2 div neg	
	1 index 2 div neg	
	translate		
	scale			
	/h exch def /w exch def
	/bitmapsave save def
	FMLevel1 {	
		colorsetup
		/is w d wbytes string def
		/cf currentfile def 
		w h d [w 0 0 h neg 0 h] 
		{cf is readhexstring pop} {is} {is} true 3 colorimage 
	} {
		colorSetup2
		/is w d wbytes string def
		/cf currentfile def 
		7 dict dup begin
			/ImageType 1 def
			/Width w def
			/Height h def
			/ImageMatrix [w 0 0 h neg 0 h] def
			/DataSource {cf is readhexstring pop} bind def
			/BitsPerComponent d def
			/Decode [0 255] def
		end image	
	} ifelse
	bitmapsave restore 
	grestore
	} bind def
/BITMAPCOLORc { 
	/d 8 def
	gsave
	
	3 index 2 div add exch	
	4 index 2 div add exch	
	translate		
	rotate			
	1 index 2 div neg	
	1 index 2 div neg	
	translate		
	scale			
	/h exch def /w exch def
	/lb w d wbytes def 
	sl lb lt {lb ms} if 
	/bitmapsave save def 
	FMLevel1 {	
		colorsetup
		/is im 0 lb getinterval def 
		ws 0 lb getinterval is copy pop 
		/cf currentfile def 
		w h d [w 0 0 h neg 0 h] 
		{ip} {is} {is} true 3 colorimage
	} {
		colorSetup2
		/is im 0 lb getinterval def 
		ws 0 lb getinterval is copy pop 
		/cf currentfile def 
		7 dict dup begin
			/ImageType 1 def
			/Width w def
			/Height h def
			/ImageMatrix [w 0 0 h neg 0 h] def
			/DataSource {ip} bind def
			/BitsPerComponent d def
			/Decode [0 255] def
		end image	
	} ifelse
	bitmapsave restore 
	grestore
	} bind def
/BITMAPTRUECOLORc { 
	/d 24 def
        gsave
 	
	3 index 2 div add exch	
	4 index 2 div add exch	
	translate		
	rotate			
	1 index 2 div neg	
	1 index 2 div neg	
	translate		
	scale			
	/h exch def /w exch def
	/lb w d wbytes def 
	sl lb lt {lb ms} if 
        /bitmapsave save def 
        
	/is im 0 lb getinterval def	
	/ris im 0 w getinterval def	
	/gis im w w getinterval def	
	/bis im w 2 mul w getinterval def 
        
        ws 0 lb getinterval is copy pop 
        /cf currentfile def 
        w h 8 [w 0 0 h neg 0 h] 
        {w rip pop ris} {gis} {bis} true 3 colorimage
        bitmapsave restore 
        grestore
        } bind def
/BITMAPTRUECOLOR { 
        gsave
		
		3 index 2 div add exch	
		4 index 2 div add exch	
		translate		
		rotate			
		1 index 2 div neg	
		1 index 2 div neg	
		translate		
		scale			
		/h exch def /w exch def
        /bitmapsave save def 
        /is w string def
        /gis w string def
        /bis w string def
        /cf currentfile def 
        w h 8 [w 0 0 h neg 0 h] 
        { cf is readhexstring pop } 
        { cf gis readhexstring pop } 
        { cf bis readhexstring pop } 
        true 3 colorimage 
        bitmapsave restore 
        grestore
        } bind def
/BITMAPTRUEGRAYc { 
	/d 24 def
        gsave
	
	3 index 2 div add exch	
	4 index 2 div add exch	
	translate		
	rotate			
	1 index 2 div neg	
	1 index 2 div neg	
	translate		
	scale			
	/h exch def /w exch def
	/lb w d wbytes def 
	sl lb lt {lb ms} if 
        /bitmapsave save def 
        
	/is im 0 lb getinterval def	
	/ris im 0 w getinterval def	
	/gis im w w getinterval def	
	/bis im w 2 mul w getinterval def 
        ws 0 lb getinterval is copy pop 
        /cf currentfile def 
        w h 8 [w 0 0 h neg 0 h] 
        {w rip pop ris gis bis w gray} image
        bitmapsave restore 
        grestore
        } bind def
/ww FMLOCAL
/r FMLOCAL
/g FMLOCAL
/b FMLOCAL
/i FMLOCAL
/gray { 
        /ww exch def
        /b exch def
        /g exch def
        /r exch def
        0 1 ww 1 sub { /i exch def r i get .299 mul g i get .587 mul
			b i get .114 mul add add r i 3 -1 roll floor cvi put } for
        r
        } bind def
/BITMAPTRUEGRAY { 
        gsave
		
		3 index 2 div add exch	
		4 index 2 div add exch	
		translate		
		rotate			
		1 index 2 div neg	
		1 index 2 div neg	
		translate		
		scale			
		/h exch def /w exch def
        /bitmapsave save def 
        /is w string def
        /gis w string def
        /bis w string def
        /cf currentfile def 
        w h 8 [w 0 0 h neg 0 h] 
        { cf is readhexstring pop 
          cf gis readhexstring pop 
          cf bis readhexstring pop w gray}  image
        bitmapsave restore 
        grestore
        } bind def
/BITMAPGRAY { 
	8 {fakecolorsetup} COMMONBITMAP
	} bind def
/BITMAPGRAYc { 
	8 {fakecolorsetup} COMMONBITMAPc
	} bind def
/ENDBITMAP {
	} bind def
end 
	/ALDsave FMLOCAL
	/ALDmatrix matrix def ALDmatrix currentmatrix pop
/StartALD {
	/ALDsave save def
	 savematrix
	 ALDmatrix setmatrix
	} bind def
/InALD {
	 restorematrix
	} bind def
/DoneALD {
	 ALDsave restore
	} bind def
/I { setdash } bind def
/J { [] 0 setdash } bind def
%%EndProlog
%%BeginSetup
(4.0) FMVERSION
1 1 0 0 612 792 0 1 17 FMDOCUMENT
0 0 /Times-Roman FMFONTDEFINE
1 0 /Times-Bold FMFONTDEFINE
2 0 /Times-Italic FMFONTDEFINE
3 0 /Helvetica-Bold FMFONTDEFINE
4 0 /Courier-Oblique FMFONTDEFINE
5 0 /Bookman-Light FMFONTDEFINE
6 1 /ZapfDingbats FMFONTDEFINE
32 FMFILLS
0 0 FMFILL
1 0.1 FMFILL
2 0.3 FMFILL
3 0.5 FMFILL
4 0.7 FMFILL
5 0.9 FMFILL
6 0.97 FMFILL
7 1 FMFILL
8 <0f1e3c78f0e1c387> FMFILL
9 <0f87c3e1f0783c1e> FMFILL
10 <cccccccccccccccc> FMFILL
11 <ffff0000ffff0000> FMFILL
12 <8142241818244281> FMFILL
13 <03060c183060c081> FMFILL
14 <8040201008040201> FMFILL
16 1 FMFILL
17 0.9 FMFILL
18 0.7 FMFILL
19 0.5 FMFILL
20 0.3 FMFILL
21 0.1 FMFILL
22 0.03 FMFILL
23 0 FMFILL
24 <f0e1c3870f1e3c78> FMFILL
25 <f0783c1e0f87c3e1> FMFILL
26 <3333333333333333> FMFILL
27 <0000ffff0000ffff> FMFILL
28 <7ebddbe7e7dbbd7e> FMFILL
29 <fcf9f3e7cf9f3f7e> FMFILL
30 <7fbfdfeff7fbfdfe> FMFILL
%%EndSetup
%%Page: "4" 1
%%BeginPaperSize: Letter
%%EndPaperSize
612 792 0 FMBEGINPAGE
[0 0 0 1 0 0 0]
[ 0 0 0 0 1 1 1]
[ 0 1 1 0 1 0 0]
[ 1 0 1 0 0 1 0]
[ 1 1 0 0 0 0 1]
[ 1 0 0 0 0 1 1]
[ 0 1 0 0 1 0 1]
[ 0 0 1 0 1 1 0]
 8 FrameSetSepColors
FrameNoSep
0 0 0 1 0 0 0 K
J
0 0 0 1 0 0 0 K
271.63 574.38 369.63 642.12 R
7 X
0 0 0 1 0 0 0 K
V
0.5 H
2 Z
0 X
N
168 574.25 266 642 R
7 X
V
0 X
N
63 567 558 720 R
N
63 144 297 531 R
7 X
V
0 10 Q
0 X
1.49 (sending between object clusters is determined by UNIX) 63 524.33 P
1.36 (inter-process communication, all metaobjects must share) 63 512.33 P
1.23 (the same meta-meta system. We now plan to implement) 63 500.33 P
1.21 (Cognac on Apertos, which provides a hierarchical meta-) 63 488.33 P
8.69 (space architecture, so that metaobjects can be) 63 476.33 P
(programmed on top of different meta-meta spaces.) 63 464.33 T
1 12 Q
(6  Related work) 63 439 T
0 10 Q
1.35 (Apertos has a hierarchal meta architecture. A set of) 81 414.33 P
0.96 (metaobjects is called a meta space and the meta space is) 63 402.33 P
4.74 (managed by a special object named a) 63 390.33 P
2 F
4.74 (reflector) 247.54 390.33 P
0 F
4.74 ( in) 281.98 390.33 P
1.89 (Apertos. Since the Cognac design is based on Apertos,) 63 378.33 P
0.36 (the reflector which defines the interface to the meta space) 63 366.33 P
1.13 (for objects looks similar to the object cluster in Cognac.) 63 354.33 P
1.47 (However, all Apertos objects are active, so that there is) 63 342.33 P
1.73 (no direct invocation of objects. Also, reflectors manage) 63 330.33 P
6.13 (not only object scheduling, but also the object\325s) 63 318.33 P
3.09 (environment, including memory management, message) 63 306.33 P
2.36 (delivering, and so on. In this sense, an Cognac object) 63 294.33 P
1.71 (cluster is a subset of an Apertos reflector. We are now) 63 282.33 P
(trying to merge Cognac into Apertos.) 63 270.33 T
1 12 Q
(7  Futur) 63 245 T
(e work) 104.78 245 T
0 10 Q
(Our current goals are:) 81 220.33 T
(1.) 77.4 208.33 T
(To implement Cognac on Apertos.) 95.4 208.33 T
(2.) 77.4 196.33 T
0.69 (T) 95.4 196.33 P
0.69 (o establish the formal semantics of the uni\336ed) 100.81 196.33 P
(object model.) 95.4 184.33 T
(3.) 77.4 172.33 T
1.64 (T) 95.4 172.33 P
1.64 (o achieve re\337ection by dynamic modi\336cation) 100.81 172.33 P
(of metaobject de\336nition.) 95.4 160.33 T
(4.) 77.4 148.33 T
(T) 95.4 148.33 T
(o implement an object migration support.) 100.81 148.33 T
324 144 558 531 R
7 X
V
1 12 Q
0 X
(8  Conclusion) 324 523 T
0 10 Q
1.97 (In this paper, we describe the unification of active) 342 498.33 P
1.09 (and passive objects in object-oriented operating systems.) 324 486.33 P
2.52 (This unification simplifies programming and simplifies) 324 474.33 P
12.31 (the migration of objects between execution) 324 462.33 P
2.11 (environments. A meta-level scheduling strategy is used) 324 450.33 P
7.38 (to achieve unification. The scheduling policy is) 324 438.33 P
(determined at run-time.) 324 426.33 T
1 12 Q
(Acknowledgement) 324 401 T
0 10 Q
2.07 (We would like to thank Mantis Cheng and Robert) 342 376.33 P
(Bryce for helpful discussions.) 324 364.33 T
1 12 Q
(Refer) 324 339 T
(ences) 352.43 339 T
0 9 Q
3.47 ([1] Akinori Yonezawa and Mario Tokoro, editors.) 324 315 P
2 F
3.47 (Object-) 531.01 315 P
(Oriented Concurrent Programming) 324 305 T
0 F
(. The MIT Press, 1987.) 452.49 305 T
1.96 ([2] Yasuhiko Yokote.) 324 295 P
2 F
1.96 (Kernel Structuring for Object-Oriented) 410.37 295 P
1.65 (Operating Systems: The Apertos Approach) 324 285 P
0 F
1.65 (, In Proceedings of) 485.07 285 P
4.75 (the International Symposium on Object Technologies for) 324 275 P
(Advanced Software \050ISOTAS\051, 1993.) 324 265 T
4.3 ([3] Takao Tenma.) 324 255 P
2 F
4.3 (MC++ Language Manual,) 403.89 255 P
0 F
4.3 ( In Apertos) 508.9 255 P
(Manuals. 1994) 324 245 T
5.01 ([4] Partha Dasgupta, Richard J. LeBlanc, Jr., Mustaque) 324 235 P
7.56 (Ahamad, and Umakishore Ramachandran.) 324 225 P
2 F
7.56 (The Clouds) 509.19 225 P
1.14 (Distributed Operating System.) 324 215 P
0 F
1.14 (In Computer. pp34-44, Vol. 24,) 439.43 215 P
(No. 11, November 1991.) 324 205 T
0.41 ([5] Hideaki Okamura, Yutaka Ishikawa, and Mario Tokoro.) 324 195 P
2 F
0.41 (AL-) 544.5 195 P
4 (1/D: A Distributed Programming System with MultiModel) 324 185 P
3.96 (Reflection Framework) 324 175 P
0 F
3.96 (. In Proceedings of the International) 408.7 175 P
5.01 (Workshop on New Models for Software Architecture\32592) 324 165 P
(Reflection and Meta-level Architecutre, November, 1992.) 324 155 T
180 612 315 702 R
N
180 648 315 648 2 L
3 H
N
234 676 261 694 9 RR
0.5 H
N
198 675 225 693 9 RR
N
270 675 297 693 9 RR
N
288 684 342 693 2 L
N
315 663.25 363.75 667 2 L
N
198 621 225 639 9 RR
N
279 621 306 639 9 RR
N
234 621 261 639 9 RR
N
207 630 146.88 645.12 2 L
N
3 F
(Object) 351 693 T
(Object Cluster) 369 666 T
(Metaobject) 95.88 643.88 T
169.12 592.12 266.25 592.12 2 L
3 H
N
(Meta-Meta System) 181 581.62 T
208.07 663.46 211.38 675 214.68 663.46 211.38 663.46 4 Y
V
214.68 659.54 211.38 648 208.07 659.54 211.38 659.54 4 Y
V
211.38 663.46 211.38 659.54 2 L
0.5 H
0 Z
N
243.57 664.45 246.88 675.98 250.18 664.45 246.88 664.45 4 Y
V
250.18 659.39 246.88 647.85 243.57 659.39 246.88 659.39 4 Y
V
246.88 664.45 246.88 659.39 2 L
N
280.32 662.46 283.62 674 286.93 662.46 283.62 662.46 4 Y
V
286.93 658.54 283.62 647 280.32 658.54 283.62 658.54 4 Y
V
283.62 662.46 283.62 658.54 2 L
N
243.69 608.46 247 620 250.31 608.46 247 608.46 4 Y
V
250.31 603.41 247 591.88 243.69 603.41 247 603.41 4 Y
V
247 608.46 247 603.41 2 L
N
63 549 558 558 R
7 X
V
3 10 Q
0 X
( Figure 3: Structure of Cognac Object Clusters) 200.2 551.33 T
155 680.75 198 649.5 2 L
2 Z
N
3 9 Q
(Meta Interface) 90 679.75 T
208.57 607.96 211.88 619.5 215.18 607.96 211.88 607.96 4 Y
V
215.18 602.91 211.88 591.38 208.57 602.91 211.88 602.91 4 Y
V
211.88 607.96 211.88 602.91 2 L
0 Z
N
272.75 592.25 369.88 592.25 2 L
3 H
2 Z
N
(Meta-Meta System) 280.88 579.88 T
289.19 609.21 292.5 620.75 295.81 609.21 292.5 609.21 4 Y
V
295.81 604.16 292.5 592.62 289.19 604.16 292.5 604.16 4 Y
V
292.5 609.21 292.5 604.16 2 L
0.5 H
0 Z
N
369.88 622.12 418.63 632.12 2 L
2 Z
N
(Object Cluster) 423.88 629.25 T
(for Metaobjects) 424.38 618.62 T
0 0 0 1 0 0 0 K
FMENDPAGE
%%EndPage: "4" 1
%%Page: "3" 2
612 792 0 FMBEGINPAGE
[0 0 0 1 0 0 0]
[ 0 0 0 0 1 1 1]
[ 0 1 1 0 1 0 0]
[ 1 0 1 0 0 1 0]
[ 1 1 0 0 0 0 1]
[ 1 0 0 0 0 1 1]
[ 0 1 0 0 1 0 1]
[ 0 0 1 0 1 1 0]
 8 FrameSetSepColors
FrameNoSep
0 0 0 1 0 0 0 K
326.13 645.25 407.38 697.75 R
7 X
0 0 0 1 0 0 0 K
V
0.5 H
2 Z
3 X
N
63 81 297 540 R
7 X
V
0 10 Q
0 X
1.05 (reject a pop request when it has no data on the stack. In) 63 533.33 P
1.3 (this situation, such an object should be explicitly placed) 63 521.33 P
1.96 (by the programmer in an object cluster which supports) 63 509.33 P
0.4 (the active object model. Also, if an object is constant \050i.e.) 63 497.33 P
1.27 (all internal data is stored only at creation time, and it is) 63 485.33 P
0.93 (never modified after creation\051, the object can be passive.) 63 473.33 P
3.38 (However, it is difficult to determine this property at) 63 461.33 P
(compile time. Therefore, we determine it at run-time.) 63 449.33 T
0.86 (Using this unification, the distinction between active) 81 437.33 P
1.06 (and passive objects is no longer necessary. Also, objects) 63 425.33 P
0.32 (can be modeled as mobile entities, so that each object can) 63 413.33 P
(migrate between address spaces.) 63 401.33 T
1 12 Q
(4  Cognac Ar) 63 376 T
(chitectur) 130.44 376 T
(e) 176.21 376 T
1 11 Q
(4.1  Object Cluster and Metaobjects) 63 350.67 T
0 10 Q
1.22 (To achieve the unification described in the previous) 81 327.33 P
2.96 (section, we separate the concept of execution domain) 63 315.33 P
1.1 (from object programming, and provide a way to execute) 63 303.33 P
0.29 (a method as a passive object. Also, we introduce dynamic) 63 291.33 P
2.88 (object scheduling control based on object status. This) 63 279.33 P
7.01 (provides a mechanism of mutual exclusion. Our) 63 267.33 P
0.7 (execution domain is called an) 63 255.33 P
2 F
0.7 (object cluster.) 187.85 255.33 P
0 F
0.7 ( In an object) 245.2 255.33 P
0.4 (cluster, member objects share the same address space and) 63 243.33 P
(the same scheduling policy.) 63 231.33 T
0.47 (The object cluster includes some meta objects. These) 81 219.33 P
0.46 (are: a) 63 207.33 P
2 F
0.46 (scheduler) 88.35 207.33 P
0 F
0.46 ( metaobject, a) 127.23 207.33 P
2 F
0.46 (message queue) 186.94 207.33 P
0 F
0.46 ( metaobject,) 247.66 207.33 P
1.46 (and) 63 195.33 P
2 F
1.46 (object status) 81.4 195.33 P
0 F
1.46 ( metaobjects. The scheduler metaobject) 133.14 195.33 P
1.46 (determines the execution scheduling of member objects.) 63 183.33 P
4.18 (the message queue metaobject is used to spool the) 63 171.33 P
3.47 (incoming messages from outside the cluster; and the) 63 159.33 P
3.07 (object status metaobjects hold the execution status of) 63 147.33 P
(each member object in the cluster.) 63 135.33 T
0.54 ( Membership in a cluster is initially determined from) 81 123.33 P
4.05 (static information provided by the Cognac compiler.) 63 111.33 P
2.25 (Membership can be dynamically changed by migrating) 63 99.33 P
3.08 (an object to another cluster to reduce communication) 63 87.33 P
324 81 558 540 R
7 X
V
0 X
1.77 (overhead. Dynamic object migration is managed by the) 324 533.33 P
(object monitor metaobject.) 324 521.33 T
0.08 (These metaobjects are themselves supported by meta-) 342 509.33 P
5.86 (meta objects which provide system wide resource) 324 497.33 P
1.41 (management such as memory management and message) 324 485.33 P
(handling between object clusters.) 324 473.33 T
1 11 Q
(4.2  Interface to meta-meta system) 324 449.67 T
0 10 Q
3.69 (The meta-meta system supports the execution of) 342 426.33 P
3.31 (metaobjects, such as inter-meta space communication,) 324 414.33 P
3.81 (memory management and naming management. Each) 324 402.33 P
1.58 (object cluster has an interface to the meta-meta system.) 324 390.33 P
1.49 (For example, the) 324 378.33 P
4 9 Q
3.22 (Invoke) 398.46 378.33 P
0 10 Q
1.49 ( interface is provided to allow) 430.86 378.33 P
1.25 (invocation of an object from outside of the cluster. This) 324 366.33 P
0.79 (interface depends on the kind of model which the cluster) 324 354.33 P
(supports.) 324 342.33 T
1 11 Q
(4.3  Meta interface compatibility) 324 318.67 T
0 10 Q
2.35 (To support object migration across object clusters,) 342 295.33 P
2.73 (we introduce a notion of compatibility of interface to) 324 283.33 P
1.41 (metaobjects. In Cognac, the class of an object cluster is) 324 271.33 P
1.24 (defined in a hierarchical class system. A subclass object) 324 259.33 P
0.37 (cluster supports operations which are defined in its super-) 324 247.33 P
3.35 (class object cluster, so that objects can move to the) 324 235.33 P
5.12 (subclass object cluster at any time. We call such) 324 223.33 P
2.8 (compatibility) 324 211.33 P
2 F
2.8 (meta interface compatibility) 382.64 211.33 P
0 F
2.8 (, because the) 501.02 211.33 P
0.64 (interface of the operation is compatible but the semantics) 324 199.33 P
(of the operation might be different.) 324 187.33 T
1 12 Q
(5  Implementation) 324 162 T
0 10 Q
9.15 (A prototype version of Cognac has been) 342 137.33 P
3.18 (implemented on top of UNIX. Each object cluster is) 324 125.33 P
0.33 (implemented as a UNIX process, which contains the code) 324 113.33 P
4.89 (for the necessary metaobjects. Since the meta-meta) 324 101.33 P
0.73 (system is the UNIX kernel and the semantics of message) 324 89.33 P
63 549 558 720 C
0 0 0 1 0 0 0 K
0 0 0 1 0 0 0 K
190.75 647.5 272.63 698.12 R
7 X
0 0 0 1 0 0 0 K
V
0.5 H
2 Z
3 X
N
371.5 605.5 442.75 642.37 R
7 X
V
3 X
N
411.63 646 482.88 697.88 R
7 X
V
3 X
N
105 605.12 187.5 698.87 R
7 X
V
3 X
N
210.63 656.71 259.2 686 14.64 RR
7 X
V
0 Z
0 X
N
344.7 658.36 393.27 687.64 14.64 RR
7 X
V
0 X
N
424.13 657.5 472.7 686.79 14.64 RR
7 X
V
0 X
N
147.06 610.11 170.63 627.25 8.57 RR
7 X
V
0 X
N
394.7 614.07 418.27 631.21 8.57 RR
7 X
V
0 X
N
180.29 670.57 168.75 673.87 180.29 677.18 179.08 673.87 4 Y
V
196.59 677.18 208.13 673.87 196.59 670.57 197.79 673.87 4 Y
V
179.08 673.87 197.79 673.87 2 L
N
404.66 669.48 393.13 672.79 404.66 676.09 403.46 672.79 4 Y
V
413.02 676.09 424.56 672.79 413.02 669.48 414.23 672.79 4 Y
V
403.46 672.79 414.23 672.79 2 L
N
424.33 637.08 415.27 629.21 418.78 640.69 420.9 637.88 4 Y
V
424.78 649.92 433.84 657.79 430.33 646.31 428.21 649.12 4 Y
V
420.9 637.88 428.21 649.12 2 L
N
382.31 647.55 377.41 658.5 387.37 651.81 384.07 650.6 4 Y
V
395.37 642.31 400.27 631.36 390.31 638.05 393.61 639.26 4 Y
V
384.07 650.6 393.62 639.26 2 L
N
144.21 646.77 142.77 658.68 150.3 649.34 146.79 649.16 4 Y
V
154.9 638.45 156.34 626.54 148.81 635.88 152.32 636.05 4 Y
V
146.79 649.16 152.32 636.05 2 L
N
3 9 Q
(Possibly passive) 205.9 619.48 T
460.63 625.75 409.38 620.75 2 L
2 Z
N
(Must be active) 466.04 621.93 T
(Some Non-shared objects may be passive) 124.11 591.18 T
(Shared object must be active) 354.2 591.09 T
119.31 657.06 167.88 686.34 14.64 RR
7 X
V
0 Z
0 X
N
63 561 558 570 R
7 X
V
3 10 Q
0 X
( Figure 2: Active/Passive Object Determination) 199.63 563.33 T
201.25 622 162.5 617.62 2 L
2 Z
N
102.79 668.4 91.25 671.71 102.79 675.02 101.58 671.71 4 Y
V
107.57 675.02 119.11 671.71 107.57 668.4 108.78 671.71 4 Y
V
101.58 671.71 108.78 671.71 2 L
0 Z
N
270.73 668.97 259.25 672.46 270.84 675.59 269.58 672.3 4 Y
V
277.27 675.49 288.75 672 277.17 668.87 278.42 672.16 4 Y
V
269.58 672.3 278.42 672.16 2 L
N
322.16 668.03 310.63 671.34 322.16 674.64 320.96 671.34 4 Y
V
331.08 674.64 342.61 671.34 331.08 668.03 332.28 671.34 4 Y
V
320.96 671.34 332.28 671.34 2 L
N
484.29 667.53 472.75 670.84 484.29 674.14 483.08 670.84 4 Y
V
495.34 674.14 506.88 670.84 495.34 667.53 496.55 670.84 4 Y
V
483.08 670.84 496.55 670.84 2 L
N
272.5 655.75 303.75 628.87 2 L
2 Z
N
325.63 657.62 315.63 630.75 2 L
N
3 9 Q
(Object Cluster) 291.25 620.12 T
72 576 549 720 R
N
(Active) 435.62 673.62 T
(Object) 435 665.5 T
0 0 0 1 0 0 0 K
0 0 0 1 0 0 0 K
(Active) 130.5 673.12 T
(Object) 129.87 665 T
0 0 0 1 0 0 0 K
0 0 0 1 0 0 0 K
(Active) 221.62 672.62 T
(Object) 221 664.5 T
0 0 0 1 0 0 0 K
0 0 0 1 0 0 0 K
(Active) 355.25 674.62 T
(Object) 354.62 666.5 T
0 0 0 1 0 0 0 K
0 0 0 1 0 0 0 K
0 -208 1000 792 C
0 0 0 1 0 0 0 K
FMENDPAGE
%%EndPage: "3" 2
%%Page: "2" 3
612 792 0 FMBEGINPAGE
[0 0 0 1 0 0 0]
[ 0 0 0 0 1 1 1]
[ 0 1 1 0 1 0 0]
[ 1 0 1 0 0 1 0]
[ 1 1 0 0 0 0 1]
[ 1 0 0 0 0 1 1]
[ 0 1 0 0 1 0 1]
[ 0 0 1 0 1 1 0]
 8 FrameSetSepColors
FrameNoSep
0 0 0 1 0 0 0 K
63 81 297 720 R
7 X
0 0 0 1 0 0 0 K
V
0 10 Q
0 X
6.58 (conventional object-oriented system, the notion of) 63 452.33 P
1.85 (execution threads was introduced in some systems, e.g.) 63 440.33 P
1.53 (Clouds[4]. A model in which concurrency is introduced) 63 428.18 P
(in this way is called an) 63 416.18 T
2 F
(object / thread model) 156.88 416.18 T
0 F
(.) 242.15 416.18 T
1.45 (In this model, objects are passive entities, and each) 81 404.18 P
0.51 (thread can execute object method code at any time. Good) 63 392.18 P
4.52 (response times and good performance are expected.) 63 380.18 P
1.42 (However, since threads execute independently, a mutual) 63 368.18 P
3.55 (exclusion problem might occur when more than two) 63 356.18 P
3.77 (threads simultaneously execute the same method. To) 63 344.18 P
3.8 (avoid this problem, a locking mechanism such as a) 63 332.18 P
3.28 (semaphore must be used to control access to critical) 63 320.18 P
(sections in a method.) 63 308.18 T
0.7 (This model has the advantage of familiarity, because) 81 296.18 P
0.5 (a conventional programming language is used as the base) 63 284.18 P
1.1 (language. However, there are two great disadvantages in) 63 272.18 P
0.38 (programming. First, since the original base language does) 63 260.18 P
1.93 (not have ability to control concurrent execution, a new) 63 248.18 P
0.68 (external \050unprogrammable\051 entity that represents a thread) 63 236.18 P
4.19 (must be introduced. Second, the locking mechanism) 63 224.18 P
11.91 (makes programming difficult, especially when) 63 212.18 P
4.66 (inheritance is used. For example, when Class_B is) 63 200.18 P
2.17 (defined in Figure 1, Method_1 in Class_A, which was) 63 188.18 P
3.86 (previously programmed and is inherited by Class_B,) 63 176.18 P
(must be modified to use locking for variable x.) 63 164.18 T
1 11 Q
(2.2  Active Object Model) 63 140.51 T
0 10 Q
0.64 (The active object model views an object as an active) 81 117.18 P
0.53 (entity which communicates with other objects by sending) 63 105.18 P
2.86 (messages. In this model, an object is composed from) 63 93.18 P
63 81 297 720 C
0 0 0 1 0 0 0 K
63.63 459 296.37 720 C
0 0 0 1 0 0 0 K
72.64 495 288.64 711 R
7 X
0 0 0 1 0 0 0 K
V
0.5 H
2 Z
0 X
N
5 8 Q
(// programmed first) 81.64 696.67 T
(class Class_A {) 81.64 686.67 T
(private:) 81.64 676.67 T
(int) 99.64 666.67 T
(x;) 126.64 666.67 T
(public:) 81.64 656.67 T
(void) 99.64 646.67 T
(Method_1 \050 \051 { x = 0; }) 126.64 646.67 T
(// must be modified when) 126.64 636.67 T
(// subclass Class_B is added) 126.64 626.67 T
(};) 81.64 616.67 T
(// programmed later) 81.64 596.67 T
(class Class_B : public Class_A {) 81.64 586.67 T
(public:) 81.64 576.67 T
(void) 99.64 566.67 T
(Method_2 \050 \051 {) 126.64 566.67 T
(Lock \050x\051;) 126.64 556.67 T
(x = 100;) 126.64 546.67 T
(// conflict with Class_A::Method_1) 126.64 536.67 T
(Unlock \050x\051;) 126.64 526.67 T
(}) 99.64 516.67 T
(};) 81.64 506.67 T
72.64 468 288.64 486 R
7 X
V
3 10 Q
0 X
( Figure 1: Mutual Exclusion Problem in Inher-) 73.11 479.33 T
(itance) 166.18 468.33 T
0 0 0 1 0 0 0 K
63 81 297 720 C
0 0 612 792 C
0 0 0 1 0 0 0 K
0 0 0 1 0 0 0 K
0 0 0 1 0 0 0 K
324 81 558 720 R
7 X
0 0 0 1 0 0 0 K
V
0 10 Q
0 X
3.45 (instance data, a communication module, an incoming) 324 713.33 P
3.83 (message queue and its own execution context. Each) 324 701.33 P
1.35 (message arriving at the object is, at first, spooled in the) 324 689.33 P
4.05 (message queue by the communication module. Each) 324 677.33 P
1.68 (object also has the ability to select a message from the) 324 665.33 P
1.88 (queue to be executed next. If the object decides not to) 324 653.33 P
2.24 (handle a message at this moment, the message can be) 324 641.33 P
1.79 (pushed back into the message queue. Since each active) 324 629.33 P
5.95 (object communicates with others only by sending) 324 617.33 P
(messages, they can run concurrently.) 324 605.33 T
1.5 (An active object is called) 342 593.33 P
2 F
1.5 (atomic) 453.11 593.33 P
0 F
1.5 ( if there is exactly) 480.33 593.33 P
4.19 (one thread of control. In this case, since execution) 324 581.33 P
0.54 (context is unique for each object, messages are processed) 324 569.33 P
1.3 (sequentially, and the programmer of the object need not) 324 557.33 P
4.66 (consider mutual exclusion. In this paper, all active) 324 545.33 P
(objects are assumed to be atomic.) 324 533.33 T
12.76 (Some programming languages have been) 342 521.33 P
0.42 (implemented using this model, as seen in [1]. Most actor-) 324 509.18 P
4.14 (base languages, like ABCL/1[1], AL-1/D[5], manage) 324 497.03 P
3.56 (internal instance data as primitive data which is not) 324 485.03 P
5.82 (viewed as an object, and is accessed by special) 324 473.03 P
1.18 (predefined operations. If the object is fine-grained, there) 324 461.03 P
2.13 (is much message passing among objects, and it causes) 324 449.03 P
7.56 (much context switching. This leads to a large) 324 437.03 P
(performance penalty in a big system.) 324 425.03 T
2.61 (To manage the granularity of the objects, internal) 342 413.03 P
1.71 (instance data can be also defined as an object, called a) 324 401.03 P
0.82 (passive object. There are two different ways to introduce) 324 389.03 P
2.2 (passive objects: \0501\051 using another language to describe) 324 377.03 P
0.33 (passive objects, and \0502\051 defining passive objects using the) 324 365.03 P
(same language in which the active object is described.) 324 353.03 T
1.98 (MC++ uses passive objects in the latter manner to) 342 341.03 P
0.49 (reduce context switching among active objects. However,) 324 329.03 P
2.93 (it is the programmer\325s responsibility to use a passive) 324 317.03 P
5.16 (object only inside a single active object to avoid) 324 305.03 P
3.37 (execution conflicts. The programmer therefore always) 324 293.03 P
0.61 (has to consider the choice between active and passive for) 324 281.03 P
5.81 (each object. This means that messages exchanged) 324 269.03 P
2.8 (between active objects cannot contain a pointer to an) 324 257.03 P
1.19 (internal passive object. As it is difficult to share passive) 324 245.03 P
(objects correctly, programming is difficult.) 324 233.03 T
1 12 Q
(3  Uni\336cation of Active and Passive Object) 324 207.69 T
0 10 Q
0.98 (The programming task becomes much simpler if the) 342 183.03 P
3.08 (distinction between active and passive objects can be) 324 171.03 P
(eliminated.) 324 159.03 T
0.41 (A necessary but not sufficient condition for an object) 342 147.03 P
2.44 (O to be passive is, that it is used by only one active) 324 135.03 P
1.05 (object. This is, if O is shared among two or more active) 324 123.03 P
1.8 (objects, it must be active \050to deal with possible mutual) 324 111.03 P
0.69 (exclusion problems\051. And, this condition is necessary but) 324 99.03 P
1.55 (not sufficient because, for example, a stack object must) 324 87.03 P
0 0 0 1 0 0 0 K
FMENDPAGE
%%EndPage: "2" 3
%%Page: "1" 4
612 792 0 FMBEGINPAGE
[0 0 0 1 0 0 0]
[ 0 0 0 0 1 1 1]
[ 0 1 1 0 1 0 0]
[ 1 0 1 0 0 1 0]
[ 1 1 0 0 0 0 1]
[ 1 0 0 0 0 1 1]
[ 0 1 0 0 1 0 1]
[ 0 0 1 0 1 1 0]
 8 FrameSetSepColors
FrameNoSep
0 0 0 1 0 0 0 K
63 468 558 720 R
7 X
0 0 0 1 0 0 0 K
V
1 14 Q
0 X
(Uni\336cation of Active and Passive Objects in an Object-Oriented Operating System) 64.35 653.67 T
0 12 Q
(Kenichi Murata) 82.5 608.8 T
6 9.6 Q
(=) 158.15 613.6 T
0 F
(,\340) 162.89 613.6 T
0 12 Q
(, R. Nigel Horspool) 170.09 608.8 T
0 9.6 Q
(\340) 264.43 613.6 T
0 12 Q
(, Eric G. Manning) 269.23 608.8 T
0 9.6 Q
(\340) 356.21 613.6 T
0 12 Q
(, Y) 361.01 608.8 T
(asuhiko Y) 374.48 608.8 T
(okote) 422.27 608.8 T
0 9.6 Q
(*) 448.94 613.6 T
0 12 Q
(, Mario T) 453.74 608.8 T
(okoro) 498.56 608.8 T
6 9.6 Q
(=) 526.55 613.6 T
0 F
(,) 531.3 613.6 T
(*) 533.7 613.6 T
6 12 Q
(=) 185.56 580.8 T
0 F
( Department of Computer Science Keio University) 191.48 580.8 T
(3-14-1 Hiyoshi, Kouhoku-ku, Y) 181.83 566.8 T
(okohama 223 JAP) 334.95 566.8 T
(AN) 421.84 566.8 T
(\340 Department of Computer Science, University of V) 169.88 548.8 T
(ictoria) 420.46 548.8 T
(V) 194.2 534.8 T
(ictoria, British Columbia V8W 3P6 CANADA) 202.14 534.8 T
(*) 209.18 516.8 T
( Sony Computer Science Laboratory Inc.) 215.18 516.8 T
(3-14-13 Higashi-gotanda, Shinagawa-ku, T) 164.66 502.8 T
(okyo 141 JAP) 372.11 502.8 T
(AN) 439.01 502.8 T
63 81 297 459 R
7 X
V
1 11 Q
0 X
(Abstract) 159.54 451.67 T
2 10 Q
2.8 (This paper proposes the unification of active and) 81 439.33 P
4.58 (passive objects in object-oriented operating systems.) 63 427.33 P
2.47 (With such a unification, programmers can concentrate) 63 415.33 P
0.37 (on programming an algorithm without having to consider) 63 403.33 P
0.97 (how objects are used and executed. Also, all objects can) 63 391.33 P
3.45 (be migrated in a distributed system. To achieve this) 63 379.33 P
1.69 (unification, meta level scheduling control is introduced,) 63 367.33 P
5.38 (and the scheduling policy is determined at object) 63 355.33 P
0.61 (creation time. We named this system Cognac. In Cognac,) 63 343.33 P
0.76 (the execution domain of an object is an object cluster, in) 63 331.33 P
0.7 (which some metaobjects control the execution of member) 63 319.33 P
2.11 (objects at run-time. The scheduler metaobject manages) 63 307.33 P
1.44 (method invocation and the status of its member objects.) 63 295.33 P
0.65 (Since all objects\325 attributes are managed by metaobjects,) 63 283.33 P
(mutual exclusion is guaranteed.) 63 271.33 T
1 12 Q
(1  Intr) 63 234 T
(oduction) 95.45 234 T
0 10 Q
2.93 (The object-oriented paradigm has become popular) 81 209.33 P
4.29 (and it is now widely accepted as a good tool for) 63 197.33 P
4.84 (constructing large, complex systems, because of its) 63 185.33 P
5.1 (excellent modularity. It is also helpful in building) 63 173.33 P
(concurrent systems.) 63 161.33 T
6.92 (Several concurrent object-oriented programming) 81 149.33 P
2.3 (languages have been designed and implemented, based) 63 137.33 P
1.45 (on the concurrent object model[1], where each object is) 63 125.18 P
2.9 (an active entity. From the viewpoint of the operating) 63 113.18 P
2.95 (system, each object is a process, with its own single) 63 101.18 P
(thread of control.) 63 89.18 T
324 81 558 459 R
7 X
V
0 X
3.6 (Apertos[2] is an object-oriented operating system) 342 452.18 P
3.08 (which supports concurrent objects and which is itself) 324 440.18 P
0.46 (composed of concurrent objects. At first, in programming) 324 428.18 P
3.19 (for Apertos, C++ was used as the primary language.) 324 416.18 P
3.49 (However, we needed to write a lot of stub code to) 324 404.18 P
3.87 (represent the active objects. In the latest version of) 324 392.18 P
1.66 (Apertos, we use MC++[3] for programming an Apertos) 324 380.03 P
1.69 (object, where we can declare an active/passive attribute) 324 368.03 P
3.79 (in the C++ class definition. In MC++, internal data) 324 356.03 P
1.03 (structures are also modeled as objects, where the objects) 324 344.03 P
2.83 (are passive entities and are only accessed in a single) 324 332.03 P
2.9 (active object. However, the distinction between active) 324 320.03 P
1.51 (and passive objects is confusing to programmers, and it) 324 308.03 P
(makes programming more difficult.) 324 296.03 T
6.26 (From our experience with programming using) 342 284.03 P
2.14 (MC++, we felt that there was a great need for system) 324 272.03 P
0.48 (support where all objects are viewed as equal entities and) 324 260.03 P
2.93 (have equal ability to migrate amongclusters to find a) 324 248.03 P
0.44 (suitable execution environment. To achieve unification of) 324 236.03 P
0.66 (active and passive objects, we introduced run-time object) 324 224.03 P
2.48 (scheduling suitable for this set of objects, and plug-in) 324 212.03 P
5.81 (intermediate method code. We named this system) 324 200.03 P
2 F
(Cognac) 324 185.36 T
0 8 Q
(1) 355.11 189.36 T
0 10 Q
(.) 359.11 185.36 T
1 12 Q
(2  Concurr) 324 160.03 T
(ency in Object Models) 379.78 160.03 T
1 11 Q
(2.1  Object/Thr) 324 134.69 T
(ead Model) 396.21 134.69 T
0 10 Q
10.26 (To incorporate concurrent constructs in a) 342 111.36 P
0 0 0 1 0 0 0 K
324 91 558 106 C
0 0 0 1 0 0 0 K
333 104 477 104 2 L
0.5 H
2 Z
0 X
0 0 0 1 0 0 0 K
N
0 0 0 1 0 0 0 K
0 0 612 792 C
0 0 0 1 0 0 0 K
0 8 Q
0 X
0 0 0 1 0 0 0 K
(1.) 342 85.67 T
0 0 0 1 0 0 0 K
0 0 0 1 0 0 0 K
(The name has no acronymic signi\336cance.) 354 85.67 T
0 0 0 1 0 0 0 K
0 0 0 1 0 0 0 K
0 0 0 1 0 0 0 K
FMENDPAGE
%%EndPage: "1" 4
%%Trailer
%%BoundingBox: 0 0 612 792
%%PageOrder: Descend
%%Pages: 4
%%DocumentFonts: Times-Roman
%%+ Times-Bold
%%+ Times-Italic
%%+ Helvetica-Bold
%%+ Courier-Oblique
%%+ Bookman-Light
%%+ ZapfDingbats
%%EOF
